<?xml version="1.0" encoding="UTF-8"?>
<kml xmlns="http://www.opengis.net/kml/2.2" xmlns:gx="http://www.google.com/kml/ext/2.2" xmlns:kml="http://www.opengis.net/kml/2.2" xmlns:atom="http://www.w3.org/2005/Atom">
<Document>
	<name>india/bhuj01/faults/copley+11.kml</name>
	<Style>
		<ListStyle>
			<listItemType>checkHideChildren</listItemType>
		</ListStyle>
	</Style>
	<Style id="flt2kml_00001">
		<LineStyle>
			<color>bbad0000</color>
		</LineStyle>
		<PolyStyle>
			<color>ccad0000</color>
		</PolyStyle>
	</Style>
	<Style id="flt2kml_00002">
		<LineStyle>
			<color>bbad0000</color>
		</LineStyle>
		<PolyStyle>
			<color>ccad0000</color>
		</PolyStyle>
	</Style>
	<Style id="flt2kml_00003">
		<LineStyle>
			<color>bbad0000</color>
		</LineStyle>
		<PolyStyle>
			<color>ccad0000</color>
		</PolyStyle>
	</Style>
	<Style id="flt2kml_00004">
		<LineStyle>
			<color>bbfff800</color>
		</LineStyle>
		<PolyStyle>
			<color>ccfff800</color>
		</PolyStyle>
	</Style>
	<Style id="flt2kml_00005">
		<LineStyle>
			<color>bb00baff</color>
		</LineStyle>
		<PolyStyle>
			<color>cc00baff</color>
		</PolyStyle>
	</Style>
	<Style id="flt2kml_00006">
		<LineStyle>
			<color>bb0074ff</color>
		</LineStyle>
		<PolyStyle>
			<color>cc0074ff</color>
		</PolyStyle>
	</Style>
	<Style id="flt2kml_00007">
		<LineStyle>
			<color>bb00bdff</color>
		</LineStyle>
		<PolyStyle>
			<color>cc00bdff</color>
		</PolyStyle>
	</Style>
	<Style id="flt2kml_00008">
		<LineStyle>
			<color>bbffff3c</color>
		</LineStyle>
		<PolyStyle>
			<color>ccffff3c</color>
		</PolyStyle>
	</Style>
	<Style id="flt2kml_00009">
		<LineStyle>
			<color>bbff2200</color>
		</LineStyle>
		<PolyStyle>
			<color>ccff2200</color>
		</PolyStyle>
	</Style>
	<Style id="flt2kml_00010">
		<LineStyle>
			<color>bbbb0000</color>
		</LineStyle>
		<PolyStyle>
			<color>ccbb0000</color>
		</PolyStyle>
	</Style>
	<Style id="flt2kml_00011">
		<LineStyle>
			<color>bb990000</color>
		</LineStyle>
		<PolyStyle>
			<color>cc990000</color>
		</PolyStyle>
	</Style>
	<Style id="flt2kml_00012">
		<LineStyle>
			<color>bb8d0000</color>
		</LineStyle>
		<PolyStyle>
			<color>cc8d0000</color>
		</PolyStyle>
	</Style>
	<Style id="flt2kml_00013">
		<LineStyle>
			<color>bb890000</color>
		</LineStyle>
		<PolyStyle>
			<color>cc890000</color>
		</PolyStyle>
	</Style>
	<Style id="flt2kml_00014">
		<LineStyle>
			<color>bbf80000</color>
		</LineStyle>
		<PolyStyle>
			<color>ccf80000</color>
		</PolyStyle>
	</Style>
	<Style id="flt2kml_00015">
		<LineStyle>
			<color>bb860000</color>
		</LineStyle>
		<PolyStyle>
			<color>cc860000</color>
		</PolyStyle>
	</Style>
	<Style id="flt2kml_00016">
		<LineStyle>
			<color>bbfa0000</color>
		</LineStyle>
		<PolyStyle>
			<color>ccfa0000</color>
		</PolyStyle>
	</Style>
	<Style id="flt2kml_00017">
		<LineStyle>
			<color>bb00a0ff</color>
		</LineStyle>
		<PolyStyle>
			<color>cc00a0ff</color>
		</PolyStyle>
	</Style>
	<Style id="flt2kml_00018">
		<LineStyle>
			<color>bb0000b2</color>
		</LineStyle>
		<PolyStyle>
			<color>cc0000b2</color>
		</PolyStyle>
	</Style>
	<Style id="flt2kml_00019">
		<LineStyle>
			<color>bb00007f</color>
		</LineStyle>
		<PolyStyle>
			<color>cc00007f</color>
		</PolyStyle>
	</Style>
	<Style id="flt2kml_00020">
		<LineStyle>
			<color>bb0000c3</color>
		</LineStyle>
		<PolyStyle>
			<color>cc0000c3</color>
		</PolyStyle>
	</Style>
	<Style id="flt2kml_00021">
		<LineStyle>
			<color>bb00e1ff</color>
		</LineStyle>
		<PolyStyle>
			<color>cc00e1ff</color>
		</PolyStyle>
	</Style>
	<Style id="flt2kml_00022">
		<LineStyle>
			<color>bbff1400</color>
		</LineStyle>
		<PolyStyle>
			<color>ccff1400</color>
		</PolyStyle>
	</Style>
	<Style id="flt2kml_00023">
		<LineStyle>
			<color>bb7f0000</color>
		</LineStyle>
		<PolyStyle>
			<color>cc7f0000</color>
		</PolyStyle>
	</Style>
	<Style id="flt2kml_00024">
		<LineStyle>
			<color>bb890000</color>
		</LineStyle>
		<PolyStyle>
			<color>cc890000</color>
		</PolyStyle>
	</Style>
	<Style id="flt2kml_00025">
		<LineStyle>
			<color>bb920000</color>
		</LineStyle>
		<PolyStyle>
			<color>cc920000</color>
		</PolyStyle>
	</Style>
	<Style id="flt2kml_00026">
		<LineStyle>
			<color>bb9a0000</color>
		</LineStyle>
		<PolyStyle>
			<color>cc9a0000</color>
		</PolyStyle>
	</Style>
	<Style id="flt2kml_00027">
		<LineStyle>
			<color>bbfe0000</color>
		</LineStyle>
		<PolyStyle>
			<color>ccfe0000</color>
		</PolyStyle>
	</Style>
	<Style id="flt2kml_00028">
		<LineStyle>
			<color>bbfe0000</color>
		</LineStyle>
		<PolyStyle>
			<color>ccfe0000</color>
		</PolyStyle>
	</Style>
	<Style id="flt2kml_00029">
		<LineStyle>
			<color>bbffae00</color>
		</LineStyle>
		<PolyStyle>
			<color>ccffae00</color>
		</PolyStyle>
	</Style>
	<Style id="flt2kml_00030">
		<LineStyle>
			<color>bb00a3ff</color>
		</LineStyle>
		<PolyStyle>
			<color>cc00a3ff</color>
		</PolyStyle>
	</Style>
	<Style id="flt2kml_00031">
		<LineStyle>
			<color>bb0000d3</color>
		</LineStyle>
		<PolyStyle>
			<color>cc0000d3</color>
		</PolyStyle>
	</Style>
	<Style id="flt2kml_00032">
		<LineStyle>
			<color>bb000094</color>
		</LineStyle>
		<PolyStyle>
			<color>cc000094</color>
		</PolyStyle>
	</Style>
	<Style id="flt2kml_00033">
		<LineStyle>
			<color>bb0000c1</color>
		</LineStyle>
		<PolyStyle>
			<color>cc0000c1</color>
		</PolyStyle>
	</Style>
	<Style id="flt2kml_00034">
		<LineStyle>
			<color>bb00cfff</color>
		</LineStyle>
		<PolyStyle>
			<color>cc00cfff</color>
		</PolyStyle>
	</Style>
	<Style id="flt2kml_00035">
		<LineStyle>
			<color>bbff5d00</color>
		</LineStyle>
		<PolyStyle>
			<color>ccff5d00</color>
		</PolyStyle>
	</Style>
	<Style id="flt2kml_00036">
		<LineStyle>
			<color>bbc80000</color>
		</LineStyle>
		<PolyStyle>
			<color>ccc80000</color>
		</PolyStyle>
	</Style>
	<Style id="flt2kml_00037">
		<LineStyle>
			<color>bbdd0000</color>
		</LineStyle>
		<PolyStyle>
			<color>ccdd0000</color>
		</PolyStyle>
	</Style>
	<Style id="flt2kml_00038">
		<LineStyle>
			<color>bbcc0000</color>
		</LineStyle>
		<PolyStyle>
			<color>cccc0000</color>
		</PolyStyle>
	</Style>
	<Style id="flt2kml_00039">
		<LineStyle>
			<color>bbaf0000</color>
		</LineStyle>
		<PolyStyle>
			<color>ccaf0000</color>
		</PolyStyle>
	</Style>
	<Style id="flt2kml_00040">
		<LineStyle>
			<color>bba40000</color>
		</LineStyle>
		<PolyStyle>
			<color>cca40000</color>
		</PolyStyle>
	</Style>
	<Style id="flt2kml_00041">
		<LineStyle>
			<color>bbc10000</color>
		</LineStyle>
		<PolyStyle>
			<color>ccc10000</color>
		</PolyStyle>
	</Style>
	<Style id="flt2kml_00042">
		<LineStyle>
			<color>bbe00000</color>
		</LineStyle>
		<PolyStyle>
			<color>cce00000</color>
		</PolyStyle>
	</Style>
	<Style id="flt2kml_00043">
		<LineStyle>
			<color>bbff6800</color>
		</LineStyle>
		<PolyStyle>
			<color>ccff6800</color>
		</PolyStyle>
	</Style>
	<Style id="flt2kml_00044">
		<LineStyle>
			<color>bbffffe5</color>
		</LineStyle>
		<PolyStyle>
			<color>ccffffe5</color>
		</PolyStyle>
	</Style>
	<Style id="flt2kml_00045">
		<LineStyle>
			<color>bb0094ff</color>
		</LineStyle>
		<PolyStyle>
			<color>cc0094ff</color>
		</PolyStyle>
	</Style>
	<Style id="flt2kml_00046">
		<LineStyle>
			<color>bb0051ff</color>
		</LineStyle>
		<PolyStyle>
			<color>cc0051ff</color>
		</PolyStyle>
	</Style>
	<Style id="flt2kml_00047">
		<LineStyle>
			<color>bbddffff</color>
		</LineStyle>
		<PolyStyle>
			<color>ccddffff</color>
		</PolyStyle>
	</Style>
	<Style id="flt2kml_00048">
		<LineStyle>
			<color>bbff6c00</color>
		</LineStyle>
		<PolyStyle>
			<color>ccff6c00</color>
		</PolyStyle>
	</Style>
	<Style id="flt2kml_00049">
		<LineStyle>
			<color>bbf50000</color>
		</LineStyle>
		<PolyStyle>
			<color>ccf50000</color>
		</PolyStyle>
	</Style>
	<Style id="flt2kml_00050">
		<LineStyle>
			<color>bbde0000</color>
		</LineStyle>
		<PolyStyle>
			<color>ccde0000</color>
		</PolyStyle>
	</Style>
	<Style id="flt2kml_00051">
		<LineStyle>
			<color>bbaf0000</color>
		</LineStyle>
		<PolyStyle>
			<color>ccaf0000</color>
		</PolyStyle>
	</Style>
	<Style id="flt2kml_00052">
		<LineStyle>
			<color>bb8d0000</color>
		</LineStyle>
		<PolyStyle>
			<color>cc8d0000</color>
		</PolyStyle>
	</Style>
	<Style id="flt2kml_00053">
		<LineStyle>
			<color>bb820000</color>
		</LineStyle>
		<PolyStyle>
			<color>cc820000</color>
		</PolyStyle>
	</Style>
	<Style id="flt2kml_00054">
		<LineStyle>
			<color>bb7f0000</color>
		</LineStyle>
		<PolyStyle>
			<color>cc7f0000</color>
		</PolyStyle>
	</Style>
	<Style id="flt2kml_00055">
		<LineStyle>
			<color>bb7f0000</color>
		</LineStyle>
		<PolyStyle>
			<color>cc7f0000</color>
		</PolyStyle>
	</Style>
	<Style id="flt2kml_00056">
		<LineStyle>
			<color>bb860000</color>
		</LineStyle>
		<PolyStyle>
			<color>cc860000</color>
		</PolyStyle>
	</Style>
	<Style id="flt2kml_00057">
		<LineStyle>
			<color>bbfa0000</color>
		</LineStyle>
		<PolyStyle>
			<color>ccfa0000</color>
		</PolyStyle>
	</Style>
	<Style id="flt2kml_00058">
		<LineStyle>
			<color>bbffff61</color>
		</LineStyle>
		<PolyStyle>
			<color>ccffff61</color>
		</PolyStyle>
	</Style>
	<Style id="flt2kml_00059">
		<LineStyle>
			<color>bb0086ff</color>
		</LineStyle>
		<PolyStyle>
			<color>cc0086ff</color>
		</PolyStyle>
	</Style>
	<Style id="flt2kml_00060">
		<LineStyle>
			<color>bbffff34</color>
		</LineStyle>
		<PolyStyle>
			<color>ccffff34</color>
		</PolyStyle>
	</Style>
	<Style id="flt2kml_00061">
		<LineStyle>
			<color>bbf80000</color>
		</LineStyle>
		<PolyStyle>
			<color>ccf80000</color>
		</PolyStyle>
	</Style>
	<Style id="flt2kml_00062">
		<LineStyle>
			<color>bbb60000</color>
		</LineStyle>
		<PolyStyle>
			<color>ccb60000</color>
		</PolyStyle>
	</Style>
	<Style id="flt2kml_00063">
		<LineStyle>
			<color>bb920000</color>
		</LineStyle>
		<PolyStyle>
			<color>cc920000</color>
		</PolyStyle>
	</Style>
	<Style id="flt2kml_00064">
		<LineStyle>
			<color>bb890000</color>
		</LineStyle>
		<PolyStyle>
			<color>cc890000</color>
		</PolyStyle>
	</Style>
	<Style id="flt2kml_00065">
		<LineStyle>
			<color>bb9c0000</color>
		</LineStyle>
		<PolyStyle>
			<color>cc9c0000</color>
		</PolyStyle>
	</Style>
	<Style id="flt2kml_00066">
		<LineStyle>
			<color>bb8d0000</color>
		</LineStyle>
		<PolyStyle>
			<color>cc8d0000</color>
		</PolyStyle>
	</Style>
	<Style id="flt2kml_00067">
		<LineStyle>
			<color>bb940000</color>
		</LineStyle>
		<PolyStyle>
			<color>cc940000</color>
		</PolyStyle>
	</Style>
	<Style id="flt2kml_00068">
		<LineStyle>
			<color>bb7f0000</color>
		</LineStyle>
		<PolyStyle>
			<color>cc7f0000</color>
		</PolyStyle>
	</Style>
	<Style id="flt2kml_00069">
		<LineStyle>
			<color>bb7f0000</color>
		</LineStyle>
		<PolyStyle>
			<color>cc7f0000</color>
		</PolyStyle>
	</Style>
	<Style id="flt2kml_00070">
		<LineStyle>
			<color>bbc30000</color>
		</LineStyle>
		<PolyStyle>
			<color>ccc30000</color>
		</PolyStyle>
	</Style>
	<Style id="flt2kml_00071">
		<LineStyle>
			<color>bbffbd00</color>
		</LineStyle>
		<PolyStyle>
			<color>ccffbd00</color>
		</PolyStyle>
	</Style>
	<Style id="flt2kml_00072">
		<LineStyle>
			<color>bb00bdff</color>
		</LineStyle>
		<PolyStyle>
			<color>cc00bdff</color>
		</PolyStyle>
	</Style>
	<Style id="flt2kml_00073">
		<LineStyle>
			<color>bbfffc00</color>
		</LineStyle>
		<PolyStyle>
			<color>ccfffc00</color>
		</PolyStyle>
	</Style>
	<Style id="flt2kml_00074">
		<LineStyle>
			<color>bbe40000</color>
		</LineStyle>
		<PolyStyle>
			<color>cce40000</color>
		</PolyStyle>
	</Style>
	<Style id="flt2kml_00075">
		<LineStyle>
			<color>bb8f0000</color>
		</LineStyle>
		<PolyStyle>
			<color>cc8f0000</color>
		</PolyStyle>
	</Style>
	<Style id="flt2kml_00076">
		<LineStyle>
			<color>bb8f0000</color>
		</LineStyle>
		<PolyStyle>
			<color>cc8f0000</color>
		</PolyStyle>
	</Style>
	<Style id="flt2kml_00077">
		<LineStyle>
			<color>bbd30000</color>
		</LineStyle>
		<PolyStyle>
			<color>ccd30000</color>
		</PolyStyle>
	</Style>
	<Style id="flt2kml_00078">
		<LineStyle>
			<color>bbed0000</color>
		</LineStyle>
		<PolyStyle>
			<color>cced0000</color>
		</PolyStyle>
	</Style>
	<Style id="flt2kml_00079">
		<LineStyle>
			<color>bbf50000</color>
		</LineStyle>
		<PolyStyle>
			<color>ccf50000</color>
		</PolyStyle>
	</Style>
	<Style id="flt2kml_00080">
		<LineStyle>
			<color>bbff1700</color>
		</LineStyle>
		<PolyStyle>
			<color>ccff1700</color>
		</PolyStyle>
	</Style>
	<Style id="flt2kml_00081">
		<LineStyle>
			<color>bbdb0000</color>
		</LineStyle>
		<PolyStyle>
			<color>ccdb0000</color>
		</PolyStyle>
	</Style>
	<Style id="flt2kml_00082">
		<LineStyle>
			<color>bbb10000</color>
		</LineStyle>
		<PolyStyle>
			<color>ccb10000</color>
		</PolyStyle>
	</Style>
	<Style id="flt2kml_00083">
		<LineStyle>
			<color>bbaf0000</color>
		</LineStyle>
		<PolyStyle>
			<color>ccaf0000</color>
		</PolyStyle>
	</Style>
	<Style id="flt2kml_00084">
		<LineStyle>
			<color>bbff1000</color>
		</LineStyle>
		<PolyStyle>
			<color>ccff1000</color>
		</PolyStyle>
	</Style>
	<Style id="flt2kml_00085">
		<LineStyle>
			<color>bbffda00</color>
		</LineStyle>
		<PolyStyle>
			<color>ccffda00</color>
		</PolyStyle>
	</Style>
	<Style id="flt2kml_00086">
		<LineStyle>
			<color>bbff6500</color>
		</LineStyle>
		<PolyStyle>
			<color>ccff6500</color>
		</PolyStyle>
	</Style>
	<Style id="flt2kml_00087">
		<LineStyle>
			<color>bbf50000</color>
		</LineStyle>
		<PolyStyle>
			<color>ccf50000</color>
		</PolyStyle>
	</Style>
	<Style id="flt2kml_00088">
		<LineStyle>
			<color>bbc40000</color>
		</LineStyle>
		<PolyStyle>
			<color>ccc40000</color>
		</PolyStyle>
	</Style>
	<Style id="flt2kml_00089">
		<LineStyle>
			<color>bbdd0000</color>
		</LineStyle>
		<PolyStyle>
			<color>ccdd0000</color>
		</PolyStyle>
	</Style>
	<Style id="flt2kml_00090">
		<LineStyle>
			<color>bbff8d00</color>
		</LineStyle>
		<PolyStyle>
			<color>ccff8d00</color>
		</PolyStyle>
	</Style>
	<Style id="flt2kml_00091">
		<LineStyle>
			<color>bbff7300</color>
		</LineStyle>
		<PolyStyle>
			<color>ccff7300</color>
		</PolyStyle>
	</Style>
	<Style id="flt2kml_00092">
		<LineStyle>
			<color>bbff1b00</color>
		</LineStyle>
		<PolyStyle>
			<color>ccff1b00</color>
		</PolyStyle>
	</Style>
	<Style id="flt2kml_00093">
		<LineStyle>
			<color>bbff7000</color>
		</LineStyle>
		<PolyStyle>
			<color>ccff7000</color>
		</PolyStyle>
	</Style>
	<Style id="flt2kml_00094">
		<LineStyle>
			<color>bbff1f00</color>
		</LineStyle>
		<PolyStyle>
			<color>ccff1f00</color>
		</PolyStyle>
	</Style>
	<Style id="flt2kml_00095">
		<LineStyle>
			<color>bbde0000</color>
		</LineStyle>
		<PolyStyle>
			<color>ccde0000</color>
		</PolyStyle>
	</Style>
	<Style id="flt2kml_00096">
		<LineStyle>
			<color>bbb40000</color>
		</LineStyle>
		<PolyStyle>
			<color>ccb40000</color>
		</PolyStyle>
	</Style>
	<Style id="flt2kml_00097">
		<LineStyle>
			<color>bbdb0000</color>
		</LineStyle>
		<PolyStyle>
			<color>ccdb0000</color>
		</PolyStyle>
	</Style>
	<Style id="flt2kml_00098">
		<LineStyle>
			<color>bbff4000</color>
		</LineStyle>
		<PolyStyle>
			<color>ccff4000</color>
		</PolyStyle>
	</Style>
	<Style id="flt2kml_00099">
		<LineStyle>
			<color>bbff0d00</color>
		</LineStyle>
		<PolyStyle>
			<color>ccff0d00</color>
		</PolyStyle>
	</Style>
	<Style id="flt2kml_00100">
		<LineStyle>
			<color>bbff1b00</color>
		</LineStyle>
		<PolyStyle>
			<color>ccff1b00</color>
		</PolyStyle>
	</Style>
	<Style id="flt2kml_00101">
		<LineStyle>
			<color>bbff1000</color>
		</LineStyle>
		<PolyStyle>
			<color>ccff1000</color>
		</PolyStyle>
	</Style>
	<Style id="flt2kml_00102">
		<LineStyle>
			<color>bbff1400</color>
		</LineStyle>
		<PolyStyle>
			<color>ccff1400</color>
		</PolyStyle>
	</Style>
	<Style id="flt2kml_00103">
		<LineStyle>
			<color>bbff9100</color>
		</LineStyle>
		<PolyStyle>
			<color>ccff9100</color>
		</PolyStyle>
	</Style>
	<Style id="flt2kml_00104">
		<LineStyle>
			<color>bbff8200</color>
		</LineStyle>
		<PolyStyle>
			<color>ccff8200</color>
		</PolyStyle>
	</Style>
	<Style id="flt2kml_00105">
		<LineStyle>
			<color>bbab0000</color>
		</LineStyle>
		<PolyStyle>
			<color>ccab0000</color>
		</PolyStyle>
	</Style>
	<Style id="flt2kml_00106">
		<LineStyle>
			<color>bbad0000</color>
		</LineStyle>
		<PolyStyle>
			<color>ccad0000</color>
		</PolyStyle>
	</Style>
	<Style id="flt2kml_00107">
		<LineStyle>
			<color>bbad0000</color>
		</LineStyle>
		<PolyStyle>
			<color>ccad0000</color>
		</PolyStyle>
	</Style>
	<Style id="flt2kml_00108">
		<LineStyle>
			<color>bbad0000</color>
		</LineStyle>
		<PolyStyle>
			<color>ccad0000</color>
		</PolyStyle>
	</Style>
	<Style id="flt2kml_00109">
		<LineStyle>
			<color>bbad0000</color>
		</LineStyle>
		<PolyStyle>
			<color>ccad0000</color>
		</PolyStyle>
	</Style>
	<Style id="flt2kml_00110">
		<LineStyle>
			<color>bbad0000</color>
		</LineStyle>
		<PolyStyle>
			<color>ccad0000</color>
		</PolyStyle>
	</Style>
	<Style id="flt2kml_00111">
		<LineStyle>
			<color>bbad0000</color>
		</LineStyle>
		<PolyStyle>
			<color>ccad0000</color>
		</PolyStyle>
	</Style>
	<Style id="flt2kml_00112">
		<LineStyle>
			<color>bb830000</color>
		</LineStyle>
		<PolyStyle>
			<color>cc830000</color>
		</PolyStyle>
	</Style>
	<Style id="flt2kml_00113">
		<LineStyle>
			<color>bbad0000</color>
		</LineStyle>
		<PolyStyle>
			<color>ccad0000</color>
		</PolyStyle>
	</Style>
	<Style id="flt2kml_00114">
		<LineStyle>
			<color>bbad0000</color>
		</LineStyle>
		<PolyStyle>
			<color>ccad0000</color>
		</PolyStyle>
	</Style>
	<Style id="flt2kml_00115">
		<LineStyle>
			<color>bb830000</color>
		</LineStyle>
		<PolyStyle>
			<color>cc830000</color>
		</PolyStyle>
	</Style>
	<Style id="flt2kml_00116">
		<LineStyle>
			<color>bb830000</color>
		</LineStyle>
		<PolyStyle>
			<color>cc830000</color>
		</PolyStyle>
	</Style>
	<Placemark>
		<name>TEST1</name>
		<styleUrl>#flt2kml_00001</styleUrl>
		<Polygon>
			<tessellate>1</tessellate>
			<outerBoundaryIs>
				<LinearRing>
					<coordinates>
						 69.943405,23.523454,0 69.991949,23.529437,0 69.996190,23.500141,0 69.947657,23.494159,0 69.943405,23.523454,0 
					</coordinates>
				</LinearRing>
			</outerBoundaryIs>
		</Polygon>
	</Placemark>
	<Placemark>
		<name>TEST1</name>
		<styleUrl>#flt2kml_00002</styleUrl>
		<Polygon>
			<tessellate>1</tessellate>
			<outerBoundaryIs>
				<LinearRing>
					<coordinates>
						 69.992009,23.529662,0 70.040556,23.535630,0 70.044786,23.506333,0 69.996250,23.500366,0 69.992009,23.529662,0 
					</coordinates>
				</LinearRing>
			</outerBoundaryIs>
		</Polygon>
	</Placemark>
	<Placemark>
		<name>TEST1</name>
		<styleUrl>#flt2kml_00003</styleUrl>
		<Polygon>
			<tessellate>1</tessellate>
			<outerBoundaryIs>
				<LinearRing>
					<coordinates>
						 70.040512,23.535970,0 70.089063,23.541923,0 70.093283,23.512625,0 70.044742,23.506673,0 70.040512,23.535970,0 
					</coordinates>
				</LinearRing>
			</outerBoundaryIs>
		</Polygon>
	</Placemark>
	<Placemark>
		<name>TEST1</name>
		<styleUrl>#flt2kml_00004</styleUrl>
		<Polygon>
			<tessellate>1</tessellate>
			<outerBoundaryIs>
				<LinearRing>
					<coordinates>
						 70.089116,23.542279,0 70.137671,23.548216,0 70.141880,23.518917,0 70.093335,23.512981,0 70.089116,23.542279,0 
					</coordinates>
				</LinearRing>
			</outerBoundaryIs>
		</Polygon>
	</Placemark>
	<Placemark>
		<name>TEST1</name>
		<styleUrl>#flt2kml_00005</styleUrl>
		<Polygon>
			<tessellate>1</tessellate>
			<outerBoundaryIs>
				<LinearRing>
					<coordinates>
						 70.137619,23.548487,0 70.186178,23.554409,0 70.190376,23.525109,0 70.141828,23.519188,0 70.137619,23.548487,0 
					</coordinates>
				</LinearRing>
			</outerBoundaryIs>
		</Polygon>
	</Placemark>
	<Placemark>
		<name>TEST1</name>
		<styleUrl>#flt2kml_00006</styleUrl>
		<Polygon>
			<tessellate>1</tessellate>
			<outerBoundaryIs>
				<LinearRing>
					<coordinates>
						 70.186222,23.554795,0 70.234785,23.560701,0 70.238973,23.531401,0 70.190421,23.525495,0 70.186222,23.554795,0 
					</coordinates>
				</LinearRing>
			</outerBoundaryIs>
		</Polygon>
	</Placemark>
	<Placemark>
		<name>TEST1</name>
		<styleUrl>#flt2kml_00007</styleUrl>
		<Polygon>
			<tessellate>1</tessellate>
			<outerBoundaryIs>
				<LinearRing>
					<coordinates>
						 70.234726,23.561003,0 70.283292,23.566894,0 70.287469,23.537593,0 70.238913,23.531702,0 70.234726,23.561003,0 
					</coordinates>
				</LinearRing>
			</outerBoundaryIs>
		</Polygon>
	</Placemark>
	<Placemark>
		<name>TEST1</name>
		<styleUrl>#flt2kml_00008</styleUrl>
		<Polygon>
			<tessellate>1</tessellate>
			<outerBoundaryIs>
				<LinearRing>
					<coordinates>
						 70.283329,23.567311,0 70.331900,23.573187,0 70.336066,23.543885,0 70.287506,23.538010,0 70.283329,23.567311,0 
					</coordinates>
				</LinearRing>
			</outerBoundaryIs>
		</Polygon>
	</Placemark>
	<Placemark>
		<name>TEST1</name>
		<styleUrl>#flt2kml_00009</styleUrl>
		<Polygon>
			<tessellate>1</tessellate>
			<outerBoundaryIs>
				<LinearRing>
					<coordinates>
						 70.331833,23.573619,0 70.380407,23.579480,0 70.384562,23.550177,0 70.335999,23.544317,0 70.331833,23.573619,0 
					</coordinates>
				</LinearRing>
			</outerBoundaryIs>
		</Polygon>
	</Placemark>
	<Placemark>
		<name>TEST1</name>
		<styleUrl>#flt2kml_00010</styleUrl>
		<Polygon>
			<tessellate>1</tessellate>
			<outerBoundaryIs>
				<LinearRing>
					<coordinates>
						 70.380437,23.579827,0 70.429014,23.585672,0 70.433159,23.556369,0 70.384592,23.550524,0 70.380437,23.579827,0 
					</coordinates>
				</LinearRing>
			</outerBoundaryIs>
		</Polygon>
	</Placemark>
	<Placemark>
		<name>TEST1</name>
		<styleUrl>#flt2kml_00011</styleUrl>
		<Polygon>
			<tessellate>1</tessellate>
			<outerBoundaryIs>
				<LinearRing>
					<coordinates>
						 70.428940,23.586135,0 70.477521,23.591965,0 70.481655,23.562660,0 70.433085,23.556832,0 70.428940,23.586135,0 
					</coordinates>
				</LinearRing>
			</outerBoundaryIs>
		</Polygon>
	</Placemark>
	<Placemark>
		<name>TEST1</name>
		<styleUrl>#flt2kml_00012</styleUrl>
		<Polygon>
			<tessellate>1</tessellate>
			<outerBoundaryIs>
				<LinearRing>
					<coordinates>
						 70.477544,23.592443,0 70.526128,23.598258,0 70.530251,23.568952,0 70.481678,23.563139,0 70.477544,23.592443,0 
					</coordinates>
				</LinearRing>
			</outerBoundaryIs>
		</Polygon>
	</Placemark>
	<Placemark>
		<name>TEST1</name>
		<styleUrl>#flt2kml_00013</styleUrl>
		<Polygon>
			<tessellate>1</tessellate>
			<outerBoundaryIs>
				<LinearRing>
					<coordinates>
						 70.526147,23.598651,0 70.574736,23.604450,0 70.578848,23.575144,0 70.530270,23.569346,0 70.526147,23.598651,0 
					</coordinates>
				</LinearRing>
			</outerBoundaryIs>
		</Polygon>
	</Placemark>
	<Placemark>
		<name>TEST1</name>
		<styleUrl>#flt2kml_00014</styleUrl>
		<Polygon>
			<tessellate>1</tessellate>
			<outerBoundaryIs>
				<LinearRing>
					<coordinates>
						 69.947912,23.494255,0 69.996445,23.500237,0 70.000684,23.470941,0 69.952161,23.464960,0 69.947912,23.494255,0 
					</coordinates>
				</LinearRing>
			</outerBoundaryIs>
		</Polygon>
	</Placemark>
	<Placemark>
		<name>TEST1</name>
		<styleUrl>#flt2kml_00015</styleUrl>
		<Polygon>
			<tessellate>1</tessellate>
			<outerBoundaryIs>
				<LinearRing>
					<coordinates>
						 69.996415,23.500563,0 70.044952,23.506530,0 70.049180,23.477233,0 70.000654,23.471267,0 69.996415,23.500563,0 
					</coordinates>
				</LinearRing>
			</outerBoundaryIs>
		</Polygon>
	</Placemark>
	<Placemark>
		<name>TEST1</name>
		<styleUrl>#flt2kml_00016</styleUrl>
		<Polygon>
			<tessellate>1</tessellate>
			<outerBoundaryIs>
				<LinearRing>
					<coordinates>
						 70.045018,23.506771,0 70.093559,23.512723,0 70.097777,23.483425,0 70.049247,23.477474,0 70.045018,23.506771,0 
					</coordinates>
				</LinearRing>
			</outerBoundaryIs>
		</Polygon>
	</Placemark>
	<Placemark>
		<name>TEST1</name>
		<styleUrl>#flt2kml_00017</styleUrl>
		<Polygon>
			<tessellate>1</tessellate>
			<outerBoundaryIs>
				<LinearRing>
					<coordinates>
						 70.093522,23.513079,0 70.142066,23.519016,0 70.146273,23.489717,0 70.097740,23.483781,0 70.093522,23.513079,0 
					</coordinates>
				</LinearRing>
			</outerBoundaryIs>
		</Polygon>
	</Placemark>
	<Placemark>
		<name>TEST1</name>
		<styleUrl>#flt2kml_00018</styleUrl>
		<Polygon>
			<tessellate>1</tessellate>
			<outerBoundaryIs>
				<LinearRing>
					<coordinates>
						 70.142125,23.519387,0 70.190673,23.525308,0 70.194870,23.496008,0 70.146332,23.490088,0 70.142125,23.519387,0 
					</coordinates>
				</LinearRing>
			</outerBoundaryIs>
		</Polygon>
	</Placemark>
	<Placemark>
		<name>TEST1</name>
		<styleUrl>#flt2kml_00019</styleUrl>
		<Polygon>
			<tessellate>1</tessellate>
			<outerBoundaryIs>
				<LinearRing>
					<coordinates>
						 70.190629,23.525595,0 70.239181,23.531501,0 70.243367,23.502200,0 70.194825,23.496295,0 70.190629,23.525595,0 
					</coordinates>
				</LinearRing>
			</outerBoundaryIs>
		</Polygon>
	</Placemark>
	<Placemark>
		<name>TEST1</name>
		<styleUrl>#flt2kml_00020</styleUrl>
		<Polygon>
			<tessellate>1</tessellate>
			<outerBoundaryIs>
				<LinearRing>
					<coordinates>
						 70.239232,23.531904,0 70.287788,23.537794,0 70.291963,23.508492,0 70.243418,23.502603,0 70.239232,23.531904,0 
					</coordinates>
				</LinearRing>
			</outerBoundaryIs>
		</Polygon>
	</Placemark>
	<Placemark>
		<name>TEST1</name>
		<styleUrl>#flt2kml_00021</styleUrl>
		<Polygon>
			<tessellate>1</tessellate>
			<outerBoundaryIs>
				<LinearRing>
					<coordinates>
						 70.287836,23.538112,0 70.336395,23.543986,0 70.340560,23.514684,0 70.292011,23.508810,0 70.287836,23.538112,0 
					</coordinates>
				</LinearRing>
			</outerBoundaryIs>
		</Polygon>
	</Placemark>
	<Placemark>
		<name>TEST1</name>
		<styleUrl>#flt2kml_00022</styleUrl>
		<Polygon>
			<tessellate>1</tessellate>
			<outerBoundaryIs>
				<LinearRing>
					<coordinates>
						 70.336339,23.544420,0 70.384902,23.550279,0 70.389056,23.520976,0 70.340504,23.515117,0 70.336339,23.544420,0 
					</coordinates>
				</LinearRing>
			</outerBoundaryIs>
		</Polygon>
	</Placemark>
	<Placemark>
		<name>TEST1</name>
		<styleUrl>#flt2kml_00023</styleUrl>
		<Polygon>
			<tessellate>1</tessellate>
			<outerBoundaryIs>
				<LinearRing>
					<coordinates>
						 70.384943,23.550728,0 70.433509,23.556572,0 70.437652,23.527268,0 70.389096,23.521425,0 70.384943,23.550728,0 
					</coordinates>
				</LinearRing>
			</outerBoundaryIs>
		</Polygon>
	</Placemark>
	<Placemark>
		<name>TEST1</name>
		<styleUrl>#flt2kml_00024</styleUrl>
		<Polygon>
			<tessellate>1</tessellate>
			<outerBoundaryIs>
				<LinearRing>
					<coordinates>
						 70.433446,23.556936,0 70.482017,23.562765,0 70.486149,23.533460,0 70.437589,23.527632,0 70.433446,23.556936,0 
					</coordinates>
				</LinearRing>
			</outerBoundaryIs>
		</Polygon>
	</Placemark>
	<Placemark>
		<name>TEST1</name>
		<styleUrl>#flt2kml_00025</styleUrl>
		<Polygon>
			<tessellate>1</tessellate>
			<outerBoundaryIs>
				<LinearRing>
					<coordinates>
						 70.482050,23.563244,0 70.530624,23.569057,0 70.534745,23.539752,0 70.486182,23.533939,0 70.482050,23.563244,0 
					</coordinates>
				</LinearRing>
			</outerBoundaryIs>
		</Polygon>
	</Placemark>
	<Placemark>
		<name>TEST1</name>
		<styleUrl>#flt2kml_00026</styleUrl>
		<Polygon>
			<tessellate>1</tessellate>
			<outerBoundaryIs>
				<LinearRing>
					<coordinates>
						 70.530553,23.569552,0 70.579131,23.575350,0 70.583242,23.546044,0 70.534675,23.540247,0 70.530553,23.569552,0 
					</coordinates>
				</LinearRing>
			</outerBoundaryIs>
		</Polygon>
	</Placemark>
	<Placemark>
		<name>TEST1</name>
		<styleUrl>#flt2kml_00027</styleUrl>
		<Polygon>
			<tessellate>1</tessellate>
			<outerBoundaryIs>
				<LinearRing>
					<coordinates>
						 69.952418,23.465055,0 70.000940,23.471037,0 70.005178,23.441740,0 69.956666,23.435760,0 69.952418,23.465055,0 
					</coordinates>
				</LinearRing>
			</outerBoundaryIs>
		</Polygon>
	</Placemark>
	<Placemark>
		<name>TEST1</name>
		<styleUrl>#flt2kml_00028</styleUrl>
		<Polygon>
			<tessellate>1</tessellate>
			<outerBoundaryIs>
				<LinearRing>
					<coordinates>
						 70.000921,23.471364,0 70.049447,23.477329,0 70.053674,23.448032,0 70.005158,23.442067,0 70.000921,23.471364,0 
					</coordinates>
				</LinearRing>
			</outerBoundaryIs>
		</Polygon>
	</Placemark>
	<Placemark>
		<name>TEST1</name>
		<styleUrl>#flt2kml_00029</styleUrl>
		<Polygon>
			<tessellate>1</tessellate>
			<outerBoundaryIs>
				<LinearRing>
					<coordinates>
						 70.049524,23.477672,0 70.098055,23.483622,0 70.102271,23.454324,0 70.053751,23.448374,0 70.049524,23.477672,0 
					</coordinates>
				</LinearRing>
			</outerBoundaryIs>
		</Polygon>
	</Placemark>
	<Placemark>
		<name>TEST1</name>
		<styleUrl>#flt2kml_00030</styleUrl>
		<Polygon>
			<tessellate>1</tessellate>
			<outerBoundaryIs>
				<LinearRing>
					<coordinates>
						 70.098028,23.483880,0 70.146562,23.489815,0 70.150767,23.460516,0 70.102244,23.454582,0 70.098028,23.483880,0 
					</coordinates>
				</LinearRing>
			</outerBoundaryIs>
		</Polygon>
	</Placemark>
	<Placemark>
		<name>TEST1</name>
		<styleUrl>#flt2kml_00031</styleUrl>
		<Polygon>
			<tessellate>1</tessellate>
			<outerBoundaryIs>
				<LinearRing>
					<coordinates>
						 70.146631,23.490188,0 70.195169,23.496108,0 70.199364,23.466808,0 70.150837,23.460889,0 70.146631,23.490188,0 
					</coordinates>
				</LinearRing>
			</outerBoundaryIs>
		</Polygon>
	</Placemark>
	<Placemark>
		<name>TEST1</name>
		<styleUrl>#flt2kml_00032</styleUrl>
		<Polygon>
			<tessellate>1</tessellate>
			<outerBoundaryIs>
				<LinearRing>
					<coordinates>
						 70.195135,23.496496,0 70.243676,23.502401,0 70.247860,23.473100,0 70.199330,23.467196,0 70.195135,23.496496,0 
					</coordinates>
				</LinearRing>
			</outerBoundaryIs>
		</Polygon>
	</Placemark>
	<Placemark>
		<name>TEST1</name>
		<styleUrl>#flt2kml_00033</styleUrl>
		<Polygon>
			<tessellate>1</tessellate>
			<outerBoundaryIs>
				<LinearRing>
					<coordinates>
						 70.243738,23.502704,0 70.292283,23.508593,0 70.296457,23.479292,0 70.247922,23.473403,0 70.243738,23.502704,0 
					</coordinates>
				</LinearRing>
			</outerBoundaryIs>
		</Polygon>
	</Placemark>
	<Placemark>
		<name>TEST1</name>
		<styleUrl>#flt2kml_00034</styleUrl>
		<Polygon>
			<tessellate>1</tessellate>
			<outerBoundaryIs>
				<LinearRing>
					<coordinates>
						 70.292242,23.509012,0 70.340791,23.514886,0 70.344953,23.485584,0 70.296415,23.479710,0 70.292242,23.509012,0 
					</coordinates>
				</LinearRing>
			</outerBoundaryIs>
		</Polygon>
	</Placemark>
	<Placemark>
		<name>TEST1</name>
		<styleUrl>#flt2kml_00035</styleUrl>
		<Polygon>
			<tessellate>1</tessellate>
			<outerBoundaryIs>
				<LinearRing>
					<coordinates>
						 70.340845,23.515220,0 70.389398,23.521079,0 70.393550,23.491776,0 70.345008,23.485918,0 70.340845,23.515220,0 
					</coordinates>
				</LinearRing>
			</outerBoundaryIs>
		</Polygon>
	</Placemark>
	<Placemark>
		<name>TEST1</name>
		<styleUrl>#flt2kml_00036</styleUrl>
		<Polygon>
			<tessellate>1</tessellate>
			<outerBoundaryIs>
				<LinearRing>
					<coordinates>
						 70.389349,23.521528,0 70.437905,23.527372,0 70.442046,23.498068,0 70.393501,23.492225,0 70.389349,23.521528,0 
					</coordinates>
				</LinearRing>
			</outerBoundaryIs>
		</Polygon>
	</Placemark>
	<Placemark>
		<name>TEST1</name>
		<styleUrl>#flt2kml_00037</styleUrl>
		<Polygon>
			<tessellate>1</tessellate>
			<outerBoundaryIs>
				<LinearRing>
					<coordinates>
						 70.437952,23.527836,0 70.486512,23.533664,0 70.490643,23.504359,0 70.442094,23.498532,0 70.437952,23.527836,0 
					</coordinates>
				</LinearRing>
			</outerBoundaryIs>
		</Polygon>
	</Placemark>
	<Placemark>
		<name>TEST1</name>
		<styleUrl>#flt2kml_00038</styleUrl>
		<Polygon>
			<tessellate>1</tessellate>
			<outerBoundaryIs>
				<LinearRing>
					<coordinates>
						 70.486456,23.534044,0 70.535019,23.539857,0 70.539139,23.510551,0 70.490587,23.504740,0 70.486456,23.534044,0 
					</coordinates>
				</LinearRing>
			</outerBoundaryIs>
		</Polygon>
	</Placemark>
	<Placemark>
		<name>TEST1</name>
		<styleUrl>#flt2kml_00039</styleUrl>
		<Polygon>
			<tessellate>1</tessellate>
			<outerBoundaryIs>
				<LinearRing>
					<coordinates>
						 70.535060,23.540352,0 70.583626,23.546150,0 70.587736,23.516843,0 70.539180,23.511047,0 70.535060,23.540352,0 
					</coordinates>
				</LinearRing>
			</outerBoundaryIs>
		</Polygon>
	</Placemark>
	<Placemark>
		<name>TEST1</name>
		<styleUrl>#flt2kml_00040</styleUrl>
		<Polygon>
			<tessellate>1</tessellate>
			<outerBoundaryIs>
				<LinearRing>
					<coordinates>
						 69.956824,23.435956,0 70.005336,23.441936,0 70.009571,23.412640,0 69.961070,23.406660,0 69.956824,23.435956,0 
					</coordinates>
				</LinearRing>
			</outerBoundaryIs>
		</Polygon>
	</Placemark>
	<Placemark>
		<name>TEST1</name>
		<styleUrl>#flt2kml_00041</styleUrl>
		<Polygon>
			<tessellate>1</tessellate>
			<outerBoundaryIs>
				<LinearRing>
					<coordinates>
						 70.005427,23.442164,0 70.053943,23.448129,0 70.058168,23.418832,0 70.009663,23.412868,0 70.005427,23.442164,0 
					</coordinates>
				</LinearRing>
			</outerBoundaryIs>
		</Polygon>
	</Placemark>
	<Placemark>
		<name>TEST1</name>
		<styleUrl>#flt2kml_00042</styleUrl>
		<Polygon>
			<tessellate>1</tessellate>
			<outerBoundaryIs>
				<LinearRing>
					<coordinates>
						 70.053931,23.448472,0 70.102450,23.454422,0 70.106665,23.425123,0 70.058156,23.419175,0 70.053931,23.448472,0 
					</coordinates>
				</LinearRing>
			</outerBoundaryIs>
		</Polygon>
	</Placemark>
	<Placemark>
		<name>TEST1</name>
		<styleUrl>#flt2kml_00043</styleUrl>
		<Polygon>
			<tessellate>1</tessellate>
			<outerBoundaryIs>
				<LinearRing>
					<coordinates>
						 70.102534,23.454780,0 70.151057,23.460715,0 70.155261,23.431415,0 70.106749,23.425482,0 70.102534,23.454780,0 
					</coordinates>
				</LinearRing>
			</outerBoundaryIs>
		</Polygon>
	</Placemark>
	<Placemark>
		<name>TEST1</name>
		<styleUrl>#flt2kml_00044</styleUrl>
		<Polygon>
			<tessellate>1</tessellate>
			<outerBoundaryIs>
				<LinearRing>
					<coordinates>
						 70.151037,23.460988,0 70.199565,23.466907,0 70.203758,23.437607,0 70.155241,23.431689,0 70.151037,23.460988,0 
					</coordinates>
				</LinearRing>
			</outerBoundaryIs>
		</Polygon>
	</Placemark>
	<Placemark>
		<name>TEST1</name>
		<styleUrl>#flt2kml_00045</styleUrl>
		<Polygon>
			<tessellate>1</tessellate>
			<outerBoundaryIs>
				<LinearRing>
					<coordinates>
						 70.199641,23.467297,0 70.248172,23.473200,0 70.252354,23.443899,0 70.203834,23.437996,0 70.199641,23.467297,0 
					</coordinates>
				</LinearRing>
			</outerBoundaryIs>
		</Polygon>
	</Placemark>
	<Placemark>
		<name>TEST1</name>
		<styleUrl>#flt2kml_00046</styleUrl>
		<Polygon>
			<tessellate>1</tessellate>
			<outerBoundaryIs>
				<LinearRing>
					<coordinates>
						 70.248144,23.473605,0 70.296679,23.479493,0 70.300851,23.450191,0 70.252327,23.444304,0 70.248144,23.473605,0 
					</coordinates>
				</LinearRing>
			</outerBoundaryIs>
		</Polygon>
	</Placemark>
	<Placemark>
		<name>TEST1</name>
		<styleUrl>#flt2kml_00047</styleUrl>
		<Polygon>
			<tessellate>1</tessellate>
			<outerBoundaryIs>
				<LinearRing>
					<coordinates>
						 70.296748,23.479813,0 70.345286,23.485686,0 70.349447,23.456383,0 70.300920,23.450511,0 70.296748,23.479813,0 
					</coordinates>
				</LinearRing>
			</outerBoundaryIs>
		</Polygon>
	</Placemark>
	<Placemark>
		<name>TEST1</name>
		<styleUrl>#flt2kml_00048</styleUrl>
		<Polygon>
			<tessellate>1</tessellate>
			<outerBoundaryIs>
				<LinearRing>
					<coordinates>
						 70.345251,23.486121,0 70.393793,23.491978,0 70.397944,23.462675,0 70.349413,23.456818,0 70.345251,23.486121,0 
					</coordinates>
				</LinearRing>
			</outerBoundaryIs>
		</Polygon>
	</Placemark>
	<Placemark>
		<name>TEST1</name>
		<styleUrl>#flt2kml_00049</styleUrl>
		<Polygon>
			<tessellate>1</tessellate>
			<outerBoundaryIs>
				<LinearRing>
					<coordinates>
						 70.393855,23.492329,0 70.442400,23.498171,0 70.446540,23.468867,0 70.398005,23.463025,0 70.393855,23.492329,0 
					</coordinates>
				</LinearRing>
			</outerBoundaryIs>
		</Polygon>
	</Placemark>
	<Placemark>
		<name>TEST1</name>
		<styleUrl>#flt2kml_00050</styleUrl>
		<Polygon>
			<tessellate>1</tessellate>
			<outerBoundaryIs>
				<LinearRing>
					<coordinates>
						 70.442358,23.498637,0 70.490908,23.504464,0 70.495037,23.475159,0 70.446498,23.469333,0 70.442358,23.498637,0 
					</coordinates>
				</LinearRing>
			</outerBoundaryIs>
		</Polygon>
	</Placemark>
	<Placemark>
		<name>TEST1</name>
		<styleUrl>#flt2kml_00051</styleUrl>
		<Polygon>
			<tessellate>1</tessellate>
			<outerBoundaryIs>
				<LinearRing>
					<coordinates>
						 70.490962,23.504945,0 70.539515,23.510757,0 70.543633,23.481451,0 70.495091,23.475640,0 70.490962,23.504945,0 
					</coordinates>
				</LinearRing>
			</outerBoundaryIs>
		</Polygon>
	</Placemark>
	<Placemark>
		<name>TEST1</name>
		<styleUrl>#flt2kml_00052</styleUrl>
		<Polygon>
			<tessellate>1</tessellate>
			<outerBoundaryIs>
				<LinearRing>
					<coordinates>
						 70.539466,23.511153,0 70.588022,23.516949,0 70.592130,23.487643,0 70.543584,23.481847,0 70.539466,23.511153,0 
					</coordinates>
				</LinearRing>
			</outerBoundaryIs>
		</Polygon>
	</Placemark>
	<Placemark>
		<name>TEST1</name>
		<styleUrl>#flt2kml_00053</styleUrl>
		<Polygon>
			<tessellate>1</tessellate>
			<outerBoundaryIs>
				<LinearRing>
					<coordinates>
						 69.961330,23.406757,0 70.009831,23.412736,0 70.014065,23.383439,0 69.965575,23.377461,0 69.961330,23.406757,0 
					</coordinates>
				</LinearRing>
			</outerBoundaryIs>
		</Polygon>
	</Placemark>
	<Placemark>
		<name>TEST1</name>
		<styleUrl>#flt2kml_00054</styleUrl>
		<Polygon>
			<tessellate>1</tessellate>
			<outerBoundaryIs>
				<LinearRing>
					<coordinates>
						 70.009833,23.413065,0 70.058338,23.419029,0 70.062562,23.389731,0 70.014067,23.383768,0 70.009833,23.413065,0 
					</coordinates>
				</LinearRing>
			</outerBoundaryIs>
		</Polygon>
	</Placemark>
	<Placemark>
		<name>TEST1</name>
		<styleUrl>#flt2kml_00055</styleUrl>
		<Polygon>
			<tessellate>1</tessellate>
			<outerBoundaryIs>
				<LinearRing>
					<coordinates>
						 70.058437,23.419273,0 70.106946,23.425221,0 70.111159,23.395923,0 70.062660,23.389975,0 70.058437,23.419273,0 
					</coordinates>
				</LinearRing>
			</outerBoundaryIs>
		</Polygon>
	</Placemark>
	<Placemark>
		<name>TEST1</name>
		<styleUrl>#flt2kml_00056</styleUrl>
		<Polygon>
			<tessellate>1</tessellate>
			<outerBoundaryIs>
				<LinearRing>
					<coordinates>
						 70.106940,23.425581,0 70.155453,23.431514,0 70.159655,23.402215,0 70.111153,23.396282,0 70.106940,23.425581,0 
					</coordinates>
				</LinearRing>
			</outerBoundaryIs>
		</Polygon>
	</Placemark>
	<Placemark>
		<name>TEST1</name>
		<styleUrl>#flt2kml_00057</styleUrl>
		<Polygon>
			<tessellate>1</tessellate>
			<outerBoundaryIs>
				<LinearRing>
					<coordinates>
						 70.155543,23.431889,0 70.204060,23.437807,0 70.208252,23.408507,0 70.159746,23.402590,0 70.155543,23.431889,0 
					</coordinates>
				</LinearRing>
			</outerBoundaryIs>
		</Polygon>
	</Placemark>
	<Placemark>
		<name>TEST1</name>
		<styleUrl>#flt2kml_00058</styleUrl>
		<Polygon>
			<tessellate>1</tessellate>
			<outerBoundaryIs>
				<LinearRing>
					<coordinates>
						 70.204047,23.438097,0 70.252567,23.444000,0 70.256748,23.414699,0 70.208239,23.408797,0 70.204047,23.438097,0 
					</coordinates>
				</LinearRing>
			</outerBoundaryIs>
		</Polygon>
	</Placemark>
	<Placemark>
		<name>TEST1</name>
		<styleUrl>#flt2kml_00059</styleUrl>
		<Polygon>
			<tessellate>1</tessellate>
			<outerBoundaryIs>
				<LinearRing>
					<coordinates>
						 70.252650,23.444405,0 70.301174,23.450293,0 70.305345,23.420991,0 70.256831,23.415104,0 70.252650,23.444405,0 
					</coordinates>
				</LinearRing>
			</outerBoundaryIs>
		</Polygon>
	</Placemark>
	<Placemark>
		<name>TEST1</name>
		<styleUrl>#flt2kml_00060</styleUrl>
		<Polygon>
			<tessellate>1</tessellate>
			<outerBoundaryIs>
				<LinearRing>
					<coordinates>
						 70.301254,23.450713,0 70.349782,23.456585,0 70.353941,23.427283,0 70.305424,23.421411,0 70.301254,23.450713,0 
					</coordinates>
				</LinearRing>
			</outerBoundaryIs>
		</Polygon>
	</Placemark>
	<Placemark>
		<name>TEST1</name>
		<styleUrl>#flt2kml_00061</styleUrl>
		<Polygon>
			<tessellate>1</tessellate>
			<outerBoundaryIs>
				<LinearRing>
					<coordinates>
						 70.349757,23.456921,0 70.398289,23.462778,0 70.402438,23.433475,0 70.353917,23.427618,0 70.349757,23.456921,0 
					</coordinates>
				</LinearRing>
			</outerBoundaryIs>
		</Polygon>
	</Placemark>
	<Placemark>
		<name>TEST1</name>
		<styleUrl>#flt2kml_00062</styleUrl>
		<Polygon>
			<tessellate>1</tessellate>
			<outerBoundaryIs>
				<LinearRing>
					<coordinates>
						 70.398361,23.463229,0 70.446896,23.469071,0 70.451034,23.439767,0 70.402510,23.433926,0 70.398361,23.463229,0 
					</coordinates>
				</LinearRing>
			</outerBoundaryIs>
		</Polygon>
	</Placemark>
	<Placemark>
		<name>TEST1</name>
		<styleUrl>#flt2kml_00063</styleUrl>
		<Polygon>
			<tessellate>1</tessellate>
			<outerBoundaryIs>
				<LinearRing>
					<coordinates>
						 70.446864,23.469437,0 70.495403,23.475264,0 70.499531,23.445959,0 70.451003,23.440133,0 70.446864,23.469437,0 
					</coordinates>
				</LinearRing>
			</outerBoundaryIs>
		</Polygon>
	</Placemark>
	<Placemark>
		<name>TEST1</name>
		<styleUrl>#flt2kml_00064</styleUrl>
		<Polygon>
			<tessellate>1</tessellate>
			<outerBoundaryIs>
				<LinearRing>
					<coordinates>
						 70.495468,23.475745,0 70.544010,23.481556,0 70.548127,23.452250,0 70.499596,23.446440,0 70.495468,23.475745,0 
					</coordinates>
				</LinearRing>
			</outerBoundaryIs>
		</Polygon>
	</Placemark>
	<Placemark>
		<name>TEST1</name>
		<styleUrl>#flt2kml_00065</styleUrl>
		<Polygon>
			<tessellate>1</tessellate>
			<outerBoundaryIs>
				<LinearRing>
					<coordinates>
						 70.543972,23.482053,0 70.592517,23.487849,0 70.596624,23.458542,0 70.548089,23.452748,0 70.543972,23.482053,0 
					</coordinates>
				</LinearRing>
			</outerBoundaryIs>
		</Polygon>
	</Placemark>
	<Placemark>
		<name>TEST1</name>
		<styleUrl>#flt2kml_00066</styleUrl>
		<Polygon>
			<tessellate>1</tessellate>
			<outerBoundaryIs>
				<LinearRing>
					<coordinates>
						 69.965836,23.377657,0 70.014327,23.383635,0 70.018559,23.354338,0 69.970079,23.348361,0 69.965836,23.377657,0 
					</coordinates>
				</LinearRing>
			</outerBoundaryIs>
		</Polygon>
	</Placemark>
	<Placemark>
		<name>TEST1</name>
		<styleUrl>#flt2kml_00067</styleUrl>
		<Polygon>
			<tessellate>1</tessellate>
			<outerBoundaryIs>
				<LinearRing>
					<coordinates>
						 70.014339,23.383865,0 70.062834,23.389828,0 70.067056,23.360530,0 70.018572,23.354568,0 70.014339,23.383865,0 
					</coordinates>
				</LinearRing>
			</outerBoundaryIs>
		</Polygon>
	</Placemark>
	<Placemark>
		<name>TEST1</name>
		<styleUrl>#flt2kml_00068</styleUrl>
		<Polygon>
			<tessellate>1</tessellate>
			<outerBoundaryIs>
				<LinearRing>
					<coordinates>
						 70.062943,23.390173,0 70.111441,23.396121,0 70.115652,23.366822,0 70.067165,23.360876,0 70.062943,23.390173,0 
					</coordinates>
				</LinearRing>
			</outerBoundaryIs>
		</Polygon>
	</Placemark>
	<Placemark>
		<name>TEST1</name>
		<styleUrl>#flt2kml_00069</styleUrl>
		<Polygon>
			<tessellate>1</tessellate>
			<outerBoundaryIs>
				<LinearRing>
					<coordinates>
						 70.111446,23.396381,0 70.159948,23.402314,0 70.164149,23.373014,0 70.115657,23.367083,0 70.111446,23.396381,0 
					</coordinates>
				</LinearRing>
			</outerBoundaryIs>
		</Polygon>
	</Placemark>
	<Placemark>
		<name>TEST1</name>
		<styleUrl>#flt2kml_00070</styleUrl>
		<Polygon>
			<tessellate>1</tessellate>
			<outerBoundaryIs>
				<LinearRing>
					<coordinates>
						 70.160050,23.402689,0 70.208556,23.408607,0 70.212746,23.379306,0 70.164250,23.373390,0 70.160050,23.402689,0 
					</coordinates>
				</LinearRing>
			</outerBoundaryIs>
		</Polygon>
	</Placemark>
	<Placemark>
		<name>TEST1</name>
		<styleUrl>#flt2kml_00071</styleUrl>
		<Polygon>
			<tessellate>1</tessellate>
			<outerBoundaryIs>
				<LinearRing>
					<coordinates>
						 70.208553,23.408998,0 70.257063,23.414899,0 70.261242,23.385598,0 70.212743,23.379697,0 70.208553,23.408998,0 
					</coordinates>
				</LinearRing>
			</outerBoundaryIs>
		</Polygon>
	</Placemark>
	<Placemark>
		<name>TEST1</name>
		<styleUrl>#flt2kml_00072</styleUrl>
		<Polygon>
			<tessellate>1</tessellate>
			<outerBoundaryIs>
				<LinearRing>
					<coordinates>
						 70.257156,23.415206,0 70.305670,23.421092,0 70.309839,23.391790,0 70.261336,23.385904,0 70.257156,23.415206,0 
					</coordinates>
				</LinearRing>
			</outerBoundaryIs>
		</Polygon>
	</Placemark>
	<Placemark>
		<name>TEST1</name>
		<styleUrl>#flt2kml_00073</styleUrl>
		<Polygon>
			<tessellate>1</tessellate>
			<outerBoundaryIs>
				<LinearRing>
					<coordinates>
						 70.305660,23.421514,0 70.354177,23.427385,0 70.358335,23.398082,0 70.309829,23.392212,0 70.305660,23.421514,0 
					</coordinates>
				</LinearRing>
			</outerBoundaryIs>
		</Polygon>
	</Placemark>
	<Placemark>
		<name>TEST1</name>
		<styleUrl>#flt2kml_00074</styleUrl>
		<Polygon>
			<tessellate>1</tessellate>
			<outerBoundaryIs>
				<LinearRing>
					<coordinates>
						 70.354263,23.427822,0 70.402784,23.433678,0 70.406932,23.404374,0 70.358422,23.398519,0 70.354263,23.427822,0 
					</coordinates>
				</LinearRing>
			</outerBoundaryIs>
		</Polygon>
	</Placemark>
	<Placemark>
		<name>TEST1</name>
		<styleUrl>#flt2kml_00075</styleUrl>
		<Polygon>
			<tessellate>1</tessellate>
			<outerBoundaryIs>
				<LinearRing>
					<coordinates>
						 70.402767,23.434030,0 70.451291,23.439870,0 70.455428,23.410566,0 70.406915,23.404726,0 70.402767,23.434030,0 
					</coordinates>
				</LinearRing>
			</outerBoundaryIs>
		</Polygon>
	</Placemark>
	<Placemark>
		<name>TEST1</name>
		<styleUrl>#flt2kml_00076</styleUrl>
		<Polygon>
			<tessellate>1</tessellate>
			<outerBoundaryIs>
				<LinearRing>
					<coordinates>
						 70.451371,23.440338,0 70.499898,23.446163,0 70.504025,23.416858,0 70.455507,23.411033,0 70.451371,23.440338,0 
					</coordinates>
				</LinearRing>
			</outerBoundaryIs>
		</Polygon>
	</Placemark>
	<Placemark>
		<name>TEST1</name>
		<styleUrl>#flt2kml_00077</styleUrl>
		<Polygon>
			<tessellate>1</tessellate>
			<outerBoundaryIs>
				<LinearRing>
					<coordinates>
						 70.499874,23.446546,0 70.548405,23.452356,0 70.552521,23.423050,0 70.504000,23.417241,0 70.499874,23.446546,0 
					</coordinates>
				</LinearRing>
			</outerBoundaryIs>
		</Polygon>
	</Placemark>
	<Placemark>
		<name>TEST1</name>
		<styleUrl>#flt2kml_00078</styleUrl>
		<Polygon>
			<tessellate>1</tessellate>
			<outerBoundaryIs>
				<LinearRing>
					<coordinates>
						 70.548478,23.452854,0 70.597013,23.458648,0 70.601117,23.429342,0 70.552593,23.423548,0 70.548478,23.452854,0 
					</coordinates>
				</LinearRing>
			</outerBoundaryIs>
		</Polygon>
	</Placemark>
	<Placemark>
		<name>TEST1</name>
		<styleUrl>#flt2kml_00079</styleUrl>
		<Polygon>
			<tessellate>1</tessellate>
			<outerBoundaryIs>
				<LinearRing>
					<coordinates>
						 69.970242,23.348458,0 70.018722,23.354435,0 70.022953,23.325138,0 69.974483,23.319162,0 69.970242,23.348458,0 
					</coordinates>
				</LinearRing>
			</outerBoundaryIs>
		</Polygon>
	</Placemark>
	<Placemark>
		<name>TEST1</name>
		<styleUrl>#flt2kml_00080</styleUrl>
		<Polygon>
			<tessellate>1</tessellate>
			<outerBoundaryIs>
				<LinearRing>
					<coordinates>
						 70.018845,23.354766,0 70.067330,23.360728,0 70.071550,23.331430,0 70.023076,23.325469,0 70.018845,23.354766,0 
					</coordinates>
				</LinearRing>
			</outerBoundaryIs>
		</Polygon>
	</Placemark>
	<Placemark>
		<name>TEST1</name>
		<styleUrl>#flt2kml_00081</styleUrl>
		<Polygon>
			<tessellate>1</tessellate>
			<outerBoundaryIs>
				<LinearRing>
					<coordinates>
						 70.067349,23.360974,0 70.115837,23.366921,0 70.120046,23.337622,0 70.071569,23.331676,0 70.067349,23.360974,0 
					</coordinates>
				</LinearRing>
			</outerBoundaryIs>
		</Polygon>
	</Placemark>
	<Placemark>
		<name>TEST1</name>
		<styleUrl>#flt2kml_00082</styleUrl>
		<Polygon>
			<tessellate>1</tessellate>
			<outerBoundaryIs>
				<LinearRing>
					<coordinates>
						 70.115952,23.367282,0 70.164444,23.373213,0 70.168643,23.343914,0 70.120162,23.337983,0 70.115952,23.367282,0 
					</coordinates>
				</LinearRing>
			</outerBoundaryIs>
		</Polygon>
	</Placemark>
	<Placemark>
		<name>TEST1</name>
		<styleUrl>#flt2kml_00083</styleUrl>
		<Polygon>
			<tessellate>1</tessellate>
			<outerBoundaryIs>
				<LinearRing>
					<coordinates>
						 70.164456,23.373490,0 70.212951,23.379406,0 70.217140,23.350106,0 70.168655,23.344190,0 70.164456,23.373490,0 
					</coordinates>
				</LinearRing>
			</outerBoundaryIs>
		</Polygon>
	</Placemark>
	<Placemark>
		<name>TEST1</name>
		<styleUrl>#flt2kml_00084</styleUrl>
		<Polygon>
			<tessellate>1</tessellate>
			<outerBoundaryIs>
				<LinearRing>
					<coordinates>
						 70.213059,23.379798,0 70.261558,23.385699,0 70.265736,23.356398,0 70.217248,23.350498,0 70.213059,23.379798,0 
					</coordinates>
				</LinearRing>
			</outerBoundaryIs>
		</Polygon>
	</Placemark>
	<Placemark>
		<name>TEST1</name>
		<styleUrl>#flt2kml_00085</styleUrl>
		<Polygon>
			<tessellate>1</tessellate>
			<outerBoundaryIs>
				<LinearRing>
					<coordinates>
						 70.261562,23.386106,0 70.310065,23.391992,0 70.314233,23.362690,0 70.265740,23.356805,0 70.261562,23.386106,0 
					</coordinates>
				</LinearRing>
			</outerBoundaryIs>
		</Polygon>
	</Placemark>
	<Placemark>
		<name>TEST1</name>
		<styleUrl>#flt2kml_00086</styleUrl>
		<Polygon>
			<tessellate>1</tessellate>
			<outerBoundaryIs>
				<LinearRing>
					<coordinates>
						 70.310166,23.392314,0 70.358673,23.398185,0 70.362829,23.368882,0 70.314333,23.363012,0 70.310166,23.392314,0 
					</coordinates>
				</LinearRing>
			</outerBoundaryIs>
		</Polygon>
	</Placemark>
	<Placemark>
		<name>TEST1</name>
		<styleUrl>#flt2kml_00087</styleUrl>
		<Polygon>
			<tessellate>1</tessellate>
			<outerBoundaryIs>
				<LinearRing>
					<coordinates>
						 70.358670,23.398622,0 70.407180,23.404477,0 70.411326,23.375174,0 70.362826,23.369319,0 70.358670,23.398622,0 
					</coordinates>
				</LinearRing>
			</outerBoundaryIs>
		</Polygon>
	</Placemark>
	<Placemark>
		<name>TEST1</name>
		<styleUrl>#flt2kml_00088</styleUrl>
		<Polygon>
			<tessellate>1</tessellate>
			<outerBoundaryIs>
				<LinearRing>
					<coordinates>
						 70.407273,23.404930,0 70.455787,23.410770,0 70.459922,23.381466,0 70.411419,23.375626,0 70.407273,23.404930,0 
					</coordinates>
				</LinearRing>
			</outerBoundaryIs>
		</Polygon>
	</Placemark>
	<Placemark>
		<name>TEST1</name>
		<styleUrl>#flt2kml_00089</styleUrl>
		<Polygon>
			<tessellate>1</tessellate>
			<outerBoundaryIs>
				<LinearRing>
					<coordinates>
						 70.455777,23.411138,0 70.504294,23.416963,0 70.508419,23.387658,0 70.459912,23.381834,0 70.455777,23.411138,0 
					</coordinates>
				</LinearRing>
			</outerBoundaryIs>
		</Polygon>
	</Placemark>
	<Placemark>
		<name>TEST1</name>
		<styleUrl>#flt2kml_00090</styleUrl>
		<Polygon>
			<tessellate>1</tessellate>
			<outerBoundaryIs>
				<LinearRing>
					<coordinates>
						 70.504380,23.417446,0 70.552901,23.423255,0 70.557015,23.393950,0 70.508505,23.388141,0 70.504380,23.417446,0 
					</coordinates>
				</LinearRing>
			</outerBoundaryIs>
		</Polygon>
	</Placemark>
	<Placemark>
		<name>TEST1</name>
		<styleUrl>#flt2kml_00091</styleUrl>
		<Polygon>
			<tessellate>1</tessellate>
			<outerBoundaryIs>
				<LinearRing>
					<coordinates>
						 70.552884,23.423654,0 70.601408,23.429448,0 70.605511,23.400142,0 70.556998,23.394348,0 70.552884,23.423654,0 
					</coordinates>
				</LinearRing>
			</outerBoundaryIs>
		</Polygon>
	</Placemark>
	<Placemark>
		<name>TEST1</name>
		<styleUrl>#flt2kml_00092</styleUrl>
		<Polygon>
			<tessellate>1</tessellate>
			<outerBoundaryIs>
				<LinearRing>
					<coordinates>
						 69.974748,23.319258,0 70.023218,23.325235,0 70.027447,23.295937,0 69.978988,23.289962,0 69.974748,23.319258,0 
					</coordinates>
				</LinearRing>
			</outerBoundaryIs>
		</Polygon>
	</Placemark>
	<Placemark>
		<name>TEST1</name>
		<styleUrl>#flt2kml_00093</styleUrl>
		<Polygon>
			<tessellate>1</tessellate>
			<outerBoundaryIs>
				<LinearRing>
					<coordinates>
						 70.023251,23.325566,0 70.071725,23.331527,0 70.075944,23.302229,0 70.027481,23.296269,0 70.023251,23.325566,0 
					</coordinates>
				</LinearRing>
			</outerBoundaryIs>
		</Polygon>
	</Placemark>
	<Placemark>
		<name>TEST1</name>
		<styleUrl>#flt2kml_00094</styleUrl>
		<Polygon>
			<tessellate>1</tessellate>
			<outerBoundaryIs>
				<LinearRing>
					<coordinates>
						 70.071855,23.331875,0 70.120332,23.337820,0 70.124540,23.308521,0 70.076073,23.302576,0 70.071855,23.331875,0 
					</coordinates>
				</LinearRing>
			</outerBoundaryIs>
		</Polygon>
	</Placemark>
	<Placemark>
		<name>TEST1</name>
		<styleUrl>#flt2kml_00095</styleUrl>
		<Polygon>
			<tessellate>1</tessellate>
			<outerBoundaryIs>
				<LinearRing>
					<coordinates>
						 70.120358,23.338083,0 70.168839,23.344013,0 70.173037,23.314713,0 70.124566,23.308784,0 70.120358,23.338083,0 
					</coordinates>
				</LinearRing>
			</outerBoundaryIs>
		</Polygon>
	</Placemark>
	<Placemark>
		<name>TEST1</name>
		<styleUrl>#flt2kml_00096</styleUrl>
		<Polygon>
			<tessellate>1</tessellate>
			<outerBoundaryIs>
				<LinearRing>
					<coordinates>
						 70.168962,23.344391,0 70.217447,23.350306,0 70.221634,23.321005,0 70.173159,23.315091,0 70.168962,23.344391,0 
					</coordinates>
				</LinearRing>
			</outerBoundaryIs>
		</Polygon>
	</Placemark>
	<Placemark>
		<name>TEST1</name>
		<styleUrl>#flt2kml_00097</styleUrl>
		<Polygon>
			<tessellate>1</tessellate>
			<outerBoundaryIs>
				<LinearRing>
					<coordinates>
						 70.217565,23.350599,0 70.266054,23.356499,0 70.270230,23.327197,0 70.221752,23.321298,0 70.217565,23.350599,0 
					</coordinates>
				</LinearRing>
			</outerBoundaryIs>
		</Polygon>
	</Placemark>
	<Placemark>
		<name>TEST1</name>
		<styleUrl>#flt2kml_00098</styleUrl>
		<Polygon>
			<tessellate>1</tessellate>
			<outerBoundaryIs>
				<LinearRing>
					<coordinates>
						 70.266069,23.356907,0 70.314561,23.362792,0 70.318727,23.333489,0 70.270245,23.327605,0 70.266069,23.356907,0 
					</coordinates>
				</LinearRing>
			</outerBoundaryIs>
		</Polygon>
	</Placemark>
	<Placemark>
		<name>TEST1</name>
		<styleUrl>#flt2kml_00099</styleUrl>
		<Polygon>
			<tessellate>1</tessellate>
			<outerBoundaryIs>
				<LinearRing>
					<coordinates>
						 70.314672,23.363215,0 70.363168,23.369084,0 70.367323,23.339781,0 70.318838,23.333912,0 70.314672,23.363215,0 
					</coordinates>
				</LinearRing>
			</outerBoundaryIs>
		</Polygon>
	</Placemark>
	<Placemark>
		<name>TEST1</name>
		<styleUrl>#flt2kml_00100</styleUrl>
		<Polygon>
			<tessellate>1</tessellate>
			<outerBoundaryIs>
				<LinearRing>
					<coordinates>
						 70.363176,23.369423,0 70.411675,23.375277,0 70.415820,23.345973,0 70.367331,23.340120,0 70.363176,23.369423,0 
					</coordinates>
				</LinearRing>
			</outerBoundaryIs>
		</Polygon>
	</Placemark>
	<Placemark>
		<name>TEST1</name>
		<styleUrl>#flt2kml_00101</styleUrl>
		<Polygon>
			<tessellate>1</tessellate>
			<outerBoundaryIs>
				<LinearRing>
					<coordinates>
						 70.411779,23.375731,0 70.460282,23.381570,0 70.464416,23.352265,0 70.415924,23.346427,0 70.411779,23.375731,0 
					</coordinates>
				</LinearRing>
			</outerBoundaryIs>
		</Polygon>
	</Placemark>
	<Placemark>
		<name>TEST1</name>
		<styleUrl>#flt2kml_00102</styleUrl>
		<Polygon>
			<tessellate>1</tessellate>
			<outerBoundaryIs>
				<LinearRing>
					<coordinates>
						 70.460283,23.382039,0 70.508789,23.387862,0 70.512913,23.358557,0 70.464417,23.352734,0 70.460283,23.382039,0 
					</coordinates>
				</LinearRing>
			</outerBoundaryIs>
		</Polygon>
	</Placemark>
	<Placemark>
		<name>TEST1</name>
		<styleUrl>#flt2kml_00103</styleUrl>
		<Polygon>
			<tessellate>1</tessellate>
			<outerBoundaryIs>
				<LinearRing>
					<coordinates>
						 70.508886,23.388247,0 70.557396,23.394055,0 70.561509,23.364749,0 70.513009,23.358941,0 70.508886,23.388247,0 
					</coordinates>
				</LinearRing>
			</outerBoundaryIs>
		</Polygon>
	</Placemark>
	<Placemark>
		<name>TEST1</name>
		<styleUrl>#flt2kml_00104</styleUrl>
		<Polygon>
			<tessellate>1</tessellate>
			<outerBoundaryIs>
				<LinearRing>
					<coordinates>
						 70.557390,23.394555,0 70.605903,23.400348,0 70.610005,23.371041,0 70.561502,23.365249,0 70.557390,23.394555,0 
					</coordinates>
				</LinearRing>
			</outerBoundaryIs>
		</Polygon>
	</Placemark>
	<Placemark>
		<name>TEST1</name>
		<styleUrl>#flt2kml_00105</styleUrl>
		<Polygon>
			<tessellate>1</tessellate>
			<outerBoundaryIs>
				<LinearRing>
					<coordinates>
						 70.427447,23.435747,0 70.393181,23.467986,0 70.396349,23.470852,0 70.430615,23.438612,0 70.427447,23.435747,0 
					</coordinates>
				</LinearRing>
			</outerBoundaryIs>
		</Polygon>
	</Placemark>
	<Placemark>
		<name>TEST1</name>
		<styleUrl>#flt2kml_00106</styleUrl>
		<Polygon>
			<tessellate>1</tessellate>
			<outerBoundaryIs>
				<LinearRing>
					<coordinates>
						 70.392755,23.467550,0 70.358473,23.499782,0 70.361641,23.502649,0 70.395923,23.470416,0 70.392755,23.467550,0 
					</coordinates>
				</LinearRing>
			</outerBoundaryIs>
		</Polygon>
	</Placemark>
	<Placemark>
		<name>TEST1</name>
		<styleUrl>#flt2kml_00107</styleUrl>
		<Polygon>
			<tessellate>1</tessellate>
			<outerBoundaryIs>
				<LinearRing>
					<coordinates>
						 70.358064,23.499353,0 70.323764,23.531578,0 70.326932,23.534446,0 70.361231,23.502220,0 70.358064,23.499353,0 
					</coordinates>
				</LinearRing>
			</outerBoundaryIs>
		</Polygon>
	</Placemark>
	<Placemark>
		<name>TEST1</name>
		<styleUrl>#flt2kml_00108</styleUrl>
		<Polygon>
			<tessellate>1</tessellate>
			<outerBoundaryIs>
				<LinearRing>
					<coordinates>
						 70.323272,23.531156,0 70.288956,23.563374,0 70.292124,23.566242,0 70.326440,23.534023,0 70.323272,23.531156,0 
					</coordinates>
				</LinearRing>
			</outerBoundaryIs>
		</Polygon>
	</Placemark>
	<Placemark>
		<name>TEST1</name>
		<styleUrl>#flt2kml_00109</styleUrl>
		<Polygon>
			<tessellate>1</tessellate>
			<outerBoundaryIs>
				<LinearRing>
					<coordinates>
						 70.430547,23.438646,0 70.396281,23.470886,0 70.399449,23.473752,0 70.433715,23.441512,0 70.430547,23.438646,0 
					</coordinates>
				</LinearRing>
			</outerBoundaryIs>
		</Polygon>
	</Placemark>
	<Placemark>
		<name>TEST1</name>
		<styleUrl>#flt2kml_00110</styleUrl>
		<Polygon>
			<tessellate>1</tessellate>
			<outerBoundaryIs>
				<LinearRing>
					<coordinates>
						 70.395855,23.470450,0 70.361573,23.502683,0 70.364741,23.505549,0 70.399023,23.473315,0 70.395855,23.470450,0 
					</coordinates>
				</LinearRing>
			</outerBoundaryIs>
		</Polygon>
	</Placemark>
	<Placemark>
		<name>TEST1</name>
		<styleUrl>#flt2kml_00111</styleUrl>
		<Polygon>
			<tessellate>1</tessellate>
			<outerBoundaryIs>
				<LinearRing>
					<coordinates>
						 70.361164,23.502253,0 70.326864,23.534479,0 70.330032,23.537346,0 70.364331,23.505119,0 70.361164,23.502253,0 
					</coordinates>
				</LinearRing>
			</outerBoundaryIs>
		</Polygon>
	</Placemark>
	<Placemark>
		<name>TEST1</name>
		<styleUrl>#flt2kml_00112</styleUrl>
		<Polygon>
			<tessellate>1</tessellate>
			<outerBoundaryIs>
				<LinearRing>
					<coordinates>
						 70.326472,23.534056,0 70.292156,23.566275,0 70.295324,23.569143,0 70.329640,23.536923,0 70.326472,23.534056,0 
					</coordinates>
				</LinearRing>
			</outerBoundaryIs>
		</Polygon>
	</Placemark>
	<Placemark>
		<name>TEST1</name>
		<styleUrl>#flt2kml_00113</styleUrl>
		<Polygon>
			<tessellate>1</tessellate>
			<outerBoundaryIs>
				<LinearRing>
					<coordinates>
						 70.433747,23.441546,0 70.399481,23.473787,0 70.402649,23.476652,0 70.436915,23.444411,0 70.433747,23.441546,0 
					</coordinates>
				</LinearRing>
			</outerBoundaryIs>
		</Polygon>
	</Placemark>
	<Placemark>
		<name>TEST1</name>
		<styleUrl>#flt2kml_00114</styleUrl>
		<Polygon>
			<tessellate>1</tessellate>
			<outerBoundaryIs>
				<LinearRing>
					<coordinates>
						 70.399055,23.473349,0 70.364773,23.505583,0 70.367941,23.508449,0 70.402223,23.476215,0 70.399055,23.473349,0 
					</coordinates>
				</LinearRing>
			</outerBoundaryIs>
		</Polygon>
	</Placemark>
	<Placemark>
		<name>TEST1</name>
		<styleUrl>#flt2kml_00115</styleUrl>
		<Polygon>
			<tessellate>1</tessellate>
			<outerBoundaryIs>
				<LinearRing>
					<coordinates>
						 70.364364,23.505152,0 70.330064,23.537379,0 70.333232,23.540246,0 70.367531,23.508019,0 70.364364,23.505152,0 
					</coordinates>
				</LinearRing>
			</outerBoundaryIs>
		</Polygon>
	</Placemark>
	<Placemark>
		<name>TEST1</name>
		<styleUrl>#flt2kml_00116</styleUrl>
		<Polygon>
			<tessellate>1</tessellate>
			<outerBoundaryIs>
				<LinearRing>
					<coordinates>
						 70.329572,23.536956,0 70.295256,23.569175,0 70.298424,23.572043,0 70.332740,23.539823,0 70.329572,23.536956,0 
					</coordinates>
				</LinearRing>
			</outerBoundaryIs>
		</Polygon>
	</Placemark>
</Document>
</kml>
