<?xml version="1.0" encoding="UTF-8"?>
<kml xmlns="http://www.opengis.net/kml/2.2" xmlns:gx="http://www.google.com/kml/ext/2.2" xmlns:kml="http://www.opengis.net/kml/2.2" xmlns:atom="http://www.w3.org/2005/Atom">
<Document>
	<name>california/mojave/faults/hudnut+96.kml</name>
	<Style id="flt2kml_00001">
		<LineStyle>
			<color>bbff6200</color>
		</LineStyle>
		<PolyStyle>
			<color>ccff6200</color>
		</PolyStyle>
	</Style>
	<Style id="flt2kml_00002">
		<LineStyle>
			<color>bb9c0000</color>
		</LineStyle>
		<PolyStyle>
			<color>cc9c0000</color>
		</PolyStyle>
	</Style>
	<Style id="flt2kml_00003">
		<LineStyle>
			<color>bbff1e00</color>
		</LineStyle>
		<PolyStyle>
			<color>ccff1e00</color>
		</PolyStyle>
	</Style>
	<Style id="flt2kml_00004">
		<LineStyle>
			<color>bbfd0000</color>
		</LineStyle>
		<PolyStyle>
			<color>ccfd0000</color>
		</PolyStyle>
	</Style>
	<Style id="flt2kml_00005">
		<LineStyle>
			<color>bbca0000</color>
		</LineStyle>
		<PolyStyle>
			<color>ccca0000</color>
		</PolyStyle>
	</Style>
	<Style id="flt2kml_00006">
		<LineStyle>
			<color>bbff4e00</color>
		</LineStyle>
		<PolyStyle>
			<color>ccff4e00</color>
		</PolyStyle>
	</Style>
	<Style id="flt2kml_00007">
		<LineStyle>
			<color>bb7f0000</color>
		</LineStyle>
		<PolyStyle>
			<color>cc7f0000</color>
		</PolyStyle>
	</Style>
	<Style id="flt2kml_00008">
		<LineStyle>
			<color>bb950000</color>
		</LineStyle>
		<PolyStyle>
			<color>cc950000</color>
		</PolyStyle>
	</Style>
	<Style id="flt2kml_00009">
		<LineStyle>
			<color>bbff0100</color>
		</LineStyle>
		<PolyStyle>
			<color>ccff0100</color>
		</PolyStyle>
	</Style>
	<Style id="flt2kml_00010">
		<LineStyle>
			<color>bbff3600</color>
		</LineStyle>
		<PolyStyle>
			<color>ccff3600</color>
		</PolyStyle>
	</Style>
	<Style id="flt2kml_00011">
		<LineStyle>
			<color>bbf10000</color>
		</LineStyle>
		<PolyStyle>
			<color>ccf10000</color>
		</PolyStyle>
	</Style>
	<Style id="flt2kml_00012">
		<LineStyle>
			<color>bbcd0000</color>
		</LineStyle>
		<PolyStyle>
			<color>cccd0000</color>
		</PolyStyle>
	</Style>
	<Style id="flt2kml_00013">
		<LineStyle>
			<color>bb950000</color>
		</LineStyle>
		<PolyStyle>
			<color>cc950000</color>
		</PolyStyle>
	</Style>
	<Style id="flt2kml_00014">
		<LineStyle>
			<color>bbc50000</color>
		</LineStyle>
		<PolyStyle>
			<color>ccc50000</color>
		</PolyStyle>
	</Style>
	<Style id="flt2kml_00015">
		<LineStyle>
			<color>bb8e0000</color>
		</LineStyle>
		<PolyStyle>
			<color>cc8e0000</color>
		</PolyStyle>
	</Style>
	<Style id="flt2kml_00016">
		<LineStyle>
			<color>bb810000</color>
		</LineStyle>
		<PolyStyle>
			<color>cc810000</color>
		</PolyStyle>
	</Style>
	<Style id="flt2kml_00017">
		<LineStyle>
			<color>bb970000</color>
		</LineStyle>
		<PolyStyle>
			<color>cc970000</color>
		</PolyStyle>
	</Style>
	<Style id="flt2kml_00018">
		<LineStyle>
			<color>bbe00000</color>
		</LineStyle>
		<PolyStyle>
			<color>cce00000</color>
		</PolyStyle>
	</Style>
	<Style id="flt2kml_00019">
		<LineStyle>
			<color>bbea0000</color>
		</LineStyle>
		<PolyStyle>
			<color>ccea0000</color>
		</PolyStyle>
	</Style>
	<Style id="flt2kml_00020">
		<LineStyle>
			<color>bbff8800</color>
		</LineStyle>
		<PolyStyle>
			<color>ccff8800</color>
		</PolyStyle>
	</Style>
	<Style id="flt2kml_00021">
		<LineStyle>
			<color>bbbe0000</color>
		</LineStyle>
		<PolyStyle>
			<color>ccbe0000</color>
		</PolyStyle>
	</Style>
	<Style id="flt2kml_00022">
		<LineStyle>
			<color>bbf30000</color>
		</LineStyle>
		<PolyStyle>
			<color>ccf30000</color>
		</PolyStyle>
	</Style>
	<Style id="flt2kml_00023">
		<LineStyle>
			<color>bbff5300</color>
		</LineStyle>
		<PolyStyle>
			<color>ccff5300</color>
		</PolyStyle>
	</Style>
	<Style id="flt2kml_00024">
		<LineStyle>
			<color>bbec0000</color>
		</LineStyle>
		<PolyStyle>
			<color>ccec0000</color>
		</PolyStyle>
	</Style>
	<Style id="flt2kml_00025">
		<LineStyle>
			<color>bbad0000</color>
		</LineStyle>
		<PolyStyle>
			<color>ccad0000</color>
		</PolyStyle>
	</Style>
	<Style id="flt2kml_00026">
		<LineStyle>
			<color>bba30000</color>
		</LineStyle>
		<PolyStyle>
			<color>cca30000</color>
		</PolyStyle>
	</Style>
	<Style id="flt2kml_00027">
		<LineStyle>
			<color>bbf60000</color>
		</LineStyle>
		<PolyStyle>
			<color>ccf60000</color>
		</PolyStyle>
	</Style>
	<Style id="flt2kml_00028">
		<LineStyle>
			<color>bbff8d00</color>
		</LineStyle>
		<PolyStyle>
			<color>ccff8d00</color>
		</PolyStyle>
	</Style>
	<Style id="flt2kml_00029">
		<LineStyle>
			<color>bbc80000</color>
		</LineStyle>
		<PolyStyle>
			<color>ccc80000</color>
		</PolyStyle>
	</Style>
	<Style id="flt2kml_00030">
		<LineStyle>
			<color>bbff8800</color>
		</LineStyle>
		<PolyStyle>
			<color>ccff8800</color>
		</PolyStyle>
	</Style>
	<Style id="flt2kml_00031">
		<LineStyle>
			<color>bbd90000</color>
		</LineStyle>
		<PolyStyle>
			<color>ccd90000</color>
		</PolyStyle>
	</Style>
	<Style id="flt2kml_00032">
		<LineStyle>
			<color>bbe00000</color>
		</LineStyle>
		<PolyStyle>
			<color>cce00000</color>
		</PolyStyle>
	</Style>
	<Style id="flt2kml_00033">
		<LineStyle>
			<color>bbffff78</color>
		</LineStyle>
		<PolyStyle>
			<color>ccffff78</color>
		</PolyStyle>
	</Style>
	<Style id="flt2kml_00034">
		<LineStyle>
			<color>bbffff6e</color>
		</LineStyle>
		<PolyStyle>
			<color>ccffff6e</color>
		</PolyStyle>
	</Style>
	<Style id="flt2kml_00035">
		<LineStyle>
			<color>bbff9700</color>
		</LineStyle>
		<PolyStyle>
			<color>ccff9700</color>
		</PolyStyle>
	</Style>
	<Style id="flt2kml_00036">
		<LineStyle>
			<color>bbff5800</color>
		</LineStyle>
		<PolyStyle>
			<color>ccff5800</color>
		</PolyStyle>
	</Style>
	<Style id="flt2kml_00037">
		<LineStyle>
			<color>bbffe400</color>
		</LineStyle>
		<PolyStyle>
			<color>ccffe400</color>
		</PolyStyle>
	</Style>
	<Style id="flt2kml_00038">
		<LineStyle>
			<color>bbffff47</color>
		</LineStyle>
		<PolyStyle>
			<color>ccffff47</color>
		</PolyStyle>
	</Style>
	<Style id="flt2kml_00039">
		<LineStyle>
			<color>bbff0100</color>
		</LineStyle>
		<PolyStyle>
			<color>ccff0100</color>
		</PolyStyle>
	</Style>
	<Style id="flt2kml_00040">
		<LineStyle>
			<color>bbff4500</color>
		</LineStyle>
		<PolyStyle>
			<color>ccff4500</color>
		</PolyStyle>
	</Style>
	<Style id="flt2kml_00041">
		<LineStyle>
			<color>bbec0000</color>
		</LineStyle>
		<PolyStyle>
			<color>ccec0000</color>
		</PolyStyle>
	</Style>
	<Style id="flt2kml_00042">
		<LineStyle>
			<color>bbe20000</color>
		</LineStyle>
		<PolyStyle>
			<color>cce20000</color>
		</PolyStyle>
	</Style>
	<Style id="flt2kml_00043">
		<LineStyle>
			<color>bbd8ffff</color>
		</LineStyle>
		<PolyStyle>
			<color>ccd8ffff</color>
		</PolyStyle>
	</Style>
	<Style id="flt2kml_00044">
		<LineStyle>
			<color>bb009bff</color>
		</LineStyle>
		<PolyStyle>
			<color>cc009bff</color>
		</PolyStyle>
	</Style>
	<Style id="flt2kml_00045">
		<LineStyle>
			<color>bb00ddff</color>
		</LineStyle>
		<PolyStyle>
			<color>cc00ddff</color>
		</PolyStyle>
	</Style>
	<Style id="flt2kml_00046">
		<LineStyle>
			<color>bbecffff</color>
		</LineStyle>
		<PolyStyle>
			<color>ccecffff</color>
		</PolyStyle>
	</Style>
	<Style id="flt2kml_00047">
		<LineStyle>
			<color>bba8ffff</color>
		</LineStyle>
		<PolyStyle>
			<color>cca8ffff</color>
		</PolyStyle>
	</Style>
	<Style id="flt2kml_00048">
		<LineStyle>
			<color>bbd8ffff</color>
		</LineStyle>
		<PolyStyle>
			<color>ccd8ffff</color>
		</PolyStyle>
	</Style>
	<Style id="flt2kml_00049">
		<LineStyle>
			<color>bbff6600</color>
		</LineStyle>
		<PolyStyle>
			<color>ccff6600</color>
		</PolyStyle>
	</Style>
	<Style id="flt2kml_00050">
		<LineStyle>
			<color>bbff0100</color>
		</LineStyle>
		<PolyStyle>
			<color>ccff0100</color>
		</PolyStyle>
	</Style>
	<Style id="flt2kml_00051">
		<LineStyle>
			<color>bbff7000</color>
		</LineStyle>
		<PolyStyle>
			<color>ccff7000</color>
		</PolyStyle>
	</Style>
	<Style id="flt2kml_00052">
		<LineStyle>
			<color>bbff4e00</color>
		</LineStyle>
		<PolyStyle>
			<color>ccff4e00</color>
		</PolyStyle>
	</Style>
	<Style id="flt2kml_00053">
		<LineStyle>
			<color>bb00e9ff</color>
		</LineStyle>
		<PolyStyle>
			<color>cc00e9ff</color>
		</PolyStyle>
	</Style>
	<Style id="flt2kml_00054">
		<LineStyle>
			<color>bb0001ff</color>
		</LineStyle>
		<PolyStyle>
			<color>cc0001ff</color>
		</PolyStyle>
	</Style>
	<Style id="flt2kml_00055">
		<LineStyle>
			<color>bb0000e2</color>
		</LineStyle>
		<PolyStyle>
			<color>cc0000e2</color>
		</PolyStyle>
	</Style>
	<Style id="flt2kml_00056">
		<LineStyle>
			<color>bb000cff</color>
		</LineStyle>
		<PolyStyle>
			<color>cc000cff</color>
		</PolyStyle>
	</Style>
	<Style id="flt2kml_00057">
		<LineStyle>
			<color>bb0056ff</color>
		</LineStyle>
		<PolyStyle>
			<color>cc0056ff</color>
		</PolyStyle>
	</Style>
	<Style id="flt2kml_00058">
		<LineStyle>
			<color>bb00e1ff</color>
		</LineStyle>
		<PolyStyle>
			<color>cc00e1ff</color>
		</PolyStyle>
	</Style>
	<Style id="flt2kml_00059">
		<LineStyle>
			<color>bbff6600</color>
		</LineStyle>
		<PolyStyle>
			<color>ccff6600</color>
		</PolyStyle>
	</Style>
	<Style id="flt2kml_00060">
		<LineStyle>
			<color>bbe00000</color>
		</LineStyle>
		<PolyStyle>
			<color>cce00000</color>
		</PolyStyle>
	</Style>
	<Style id="flt2kml_00061">
		<LineStyle>
			<color>bbffff04</color>
		</LineStyle>
		<PolyStyle>
			<color>ccffff04</color>
		</PolyStyle>
	</Style>
	<Style id="flt2kml_00062">
		<LineStyle>
			<color>bbffd100</color>
		</LineStyle>
		<PolyStyle>
			<color>ccffd100</color>
		</PolyStyle>
	</Style>
	<Style id="flt2kml_00063">
		<LineStyle>
			<color>bb00c6ff</color>
		</LineStyle>
		<PolyStyle>
			<color>cc00c6ff</color>
		</PolyStyle>
	</Style>
	<Style id="flt2kml_00064">
		<LineStyle>
			<color>bb0000d1</color>
		</LineStyle>
		<PolyStyle>
			<color>cc0000d1</color>
		</PolyStyle>
	</Style>
	<Style id="flt2kml_00065">
		<LineStyle>
			<color>bb00007f</color>
		</LineStyle>
		<PolyStyle>
			<color>cc00007f</color>
		</PolyStyle>
	</Style>
	<Style id="flt2kml_00066">
		<LineStyle>
			<color>bb00008e</color>
		</LineStyle>
		<PolyStyle>
			<color>cc00008e</color>
		</PolyStyle>
	</Style>
	<Style id="flt2kml_00067">
		<LineStyle>
			<color>bb0000e5</color>
		</LineStyle>
		<PolyStyle>
			<color>cc0000e5</color>
		</PolyStyle>
	</Style>
	<Style id="flt2kml_00068">
		<LineStyle>
			<color>bb00d5ff</color>
		</LineStyle>
		<PolyStyle>
			<color>cc00d5ff</color>
		</PolyStyle>
	</Style>
	<Style id="flt2kml_00069">
		<LineStyle>
			<color>bbff2c00</color>
		</LineStyle>
		<PolyStyle>
			<color>ccff2c00</color>
		</PolyStyle>
	</Style>
	<Style id="flt2kml_00070">
		<LineStyle>
			<color>bbe00000</color>
		</LineStyle>
		<PolyStyle>
			<color>cce00000</color>
		</PolyStyle>
	</Style>
	<Style id="flt2kml_00071">
		<LineStyle>
			<color>bbffff81</color>
		</LineStyle>
		<PolyStyle>
			<color>ccffff81</color>
		</PolyStyle>
	</Style>
	<Style id="flt2kml_00072">
		<LineStyle>
			<color>bbffff04</color>
		</LineStyle>
		<PolyStyle>
			<color>ccffff04</color>
		</PolyStyle>
	</Style>
	<Style id="flt2kml_00073">
		<LineStyle>
			<color>bb00e9ff</color>
		</LineStyle>
		<PolyStyle>
			<color>cc00e9ff</color>
		</PolyStyle>
	</Style>
	<Style id="flt2kml_00074">
		<LineStyle>
			<color>bb0000f3</color>
		</LineStyle>
		<PolyStyle>
			<color>cc0000f3</color>
		</PolyStyle>
	</Style>
	<Style id="flt2kml_00075">
		<LineStyle>
			<color>bb00008e</color>
		</LineStyle>
		<PolyStyle>
			<color>cc00008e</color>
		</PolyStyle>
	</Style>
	<Style id="flt2kml_00076">
		<LineStyle>
			<color>bb00008e</color>
		</LineStyle>
		<PolyStyle>
			<color>cc00008e</color>
		</PolyStyle>
	</Style>
	<Style id="flt2kml_00077">
		<LineStyle>
			<color>bb0000f1</color>
		</LineStyle>
		<PolyStyle>
			<color>cc0000f1</color>
		</PolyStyle>
	</Style>
	<Style id="flt2kml_00078">
		<LineStyle>
			<color>bb94ffff</color>
		</LineStyle>
		<PolyStyle>
			<color>cc94ffff</color>
		</PolyStyle>
	</Style>
	<Style id="flt2kml_00079">
		<LineStyle>
			<color>bbfb0000</color>
		</LineStyle>
		<PolyStyle>
			<color>ccfb0000</color>
		</PolyStyle>
	</Style>
	<Style id="flt2kml_00080">
		<LineStyle>
			<color>bbef0000</color>
		</LineStyle>
		<PolyStyle>
			<color>ccef0000</color>
		</PolyStyle>
	</Style>
	<Style id="flt2kml_00081">
		<LineStyle>
			<color>bbffff64</color>
		</LineStyle>
		<PolyStyle>
			<color>ccffff64</color>
		</PolyStyle>
	</Style>
	<Style id="flt2kml_00082">
		<LineStyle>
			<color>bbffe400</color>
		</LineStyle>
		<PolyStyle>
			<color>ccffe400</color>
		</PolyStyle>
	</Style>
	<Style id="flt2kml_00083">
		<LineStyle>
			<color>bbffffc5</color>
		</LineStyle>
		<PolyStyle>
			<color>ccffffc5</color>
		</PolyStyle>
	</Style>
	<Style id="flt2kml_00084">
		<LineStyle>
			<color>bb0088ff</color>
		</LineStyle>
		<PolyStyle>
			<color>cc0088ff</color>
		</PolyStyle>
	</Style>
	<Style id="flt2kml_00085">
		<LineStyle>
			<color>bb0000fb</color>
		</LineStyle>
		<PolyStyle>
			<color>cc0000fb</color>
		</PolyStyle>
	</Style>
	<Style id="flt2kml_00086">
		<LineStyle>
			<color>bb0000f6</color>
		</LineStyle>
		<PolyStyle>
			<color>cc0000f6</color>
		</PolyStyle>
	</Style>
	<Style id="flt2kml_00087">
		<LineStyle>
			<color>bb0079ff</color>
		</LineStyle>
		<PolyStyle>
			<color>cc0079ff</color>
		</PolyStyle>
	</Style>
	<Style id="flt2kml_00088">
		<LineStyle>
			<color>bbffff5b</color>
		</LineStyle>
		<PolyStyle>
			<color>ccffff5b</color>
		</PolyStyle>
	</Style>
	<Style id="flt2kml_00089">
		<LineStyle>
			<color>bbec0000</color>
		</LineStyle>
		<PolyStyle>
			<color>ccec0000</color>
		</PolyStyle>
	</Style>
	<Style id="flt2kml_00090">
		<LineStyle>
			<color>bbfb0000</color>
		</LineStyle>
		<PolyStyle>
			<color>ccfb0000</color>
		</PolyStyle>
	</Style>
	<Style id="flt2kml_00091">
		<LineStyle>
			<color>bbffee00</color>
		</LineStyle>
		<PolyStyle>
			<color>ccffee00</color>
		</PolyStyle>
	</Style>
	<Style id="flt2kml_00092">
		<LineStyle>
			<color>bbff9700</color>
		</LineStyle>
		<PolyStyle>
			<color>ccff9700</color>
		</PolyStyle>
	</Style>
	<Style id="flt2kml_00093">
		<LineStyle>
			<color>bbffbd00</color>
		</LineStyle>
		<PolyStyle>
			<color>ccffbd00</color>
		</PolyStyle>
	</Style>
	<Style id="flt2kml_00094">
		<LineStyle>
			<color>bbffffb2</color>
		</LineStyle>
		<PolyStyle>
			<color>ccffffb2</color>
		</PolyStyle>
	</Style>
	<Style id="flt2kml_00095">
		<LineStyle>
			<color>bb00ecff</color>
		</LineStyle>
		<PolyStyle>
			<color>cc00ecff</color>
		</PolyStyle>
	</Style>
	<Style id="flt2kml_00096">
		<LineStyle>
			<color>bb00e1ff</color>
		</LineStyle>
		<PolyStyle>
			<color>cc00e1ff</color>
		</PolyStyle>
	</Style>
	<Style id="flt2kml_00097">
		<LineStyle>
			<color>bbffffd8</color>
		</LineStyle>
		<PolyStyle>
			<color>ccffffd8</color>
		</PolyStyle>
	</Style>
	<Style id="flt2kml_00098">
		<LineStyle>
			<color>bbff8d00</color>
		</LineStyle>
		<PolyStyle>
			<color>ccff8d00</color>
		</PolyStyle>
	</Style>
	<Style id="flt2kml_00099">
		<LineStyle>
			<color>bbe50000</color>
		</LineStyle>
		<PolyStyle>
			<color>cce50000</color>
		</PolyStyle>
	</Style>
	<Style id="flt2kml_00100">
		<LineStyle>
			<color>bbff0b00</color>
		</LineStyle>
		<PolyStyle>
			<color>ccff0b00</color>
		</PolyStyle>
	</Style>
	<Style id="flt2kml_00101">
		<LineStyle>
			<color>bbff9c00</color>
		</LineStyle>
		<PolyStyle>
			<color>ccff9c00</color>
		</PolyStyle>
	</Style>
	<Style id="flt2kml_00102">
		<LineStyle>
			<color>bbff3b00</color>
		</LineStyle>
		<PolyStyle>
			<color>ccff3b00</color>
		</PolyStyle>
	</Style>
	<Style id="flt2kml_00103">
		<LineStyle>
			<color>bbff1900</color>
		</LineStyle>
		<PolyStyle>
			<color>ccff1900</color>
		</PolyStyle>
	</Style>
	<Style id="flt2kml_00104">
		<LineStyle>
			<color>bbff5d00</color>
		</LineStyle>
		<PolyStyle>
			<color>ccff5d00</color>
		</PolyStyle>
	</Style>
	<Style id="flt2kml_00105">
		<LineStyle>
			<color>bbffaf00</color>
		</LineStyle>
		<PolyStyle>
			<color>ccffaf00</color>
		</PolyStyle>
	</Style>
	<Style id="flt2kml_00106">
		<LineStyle>
			<color>bbffbd00</color>
		</LineStyle>
		<PolyStyle>
			<color>ccffbd00</color>
		</PolyStyle>
	</Style>
	<Style id="flt2kml_00107">
		<LineStyle>
			<color>bbff7a00</color>
		</LineStyle>
		<PolyStyle>
			<color>ccff7a00</color>
		</PolyStyle>
	</Style>
	<Style id="flt2kml_00108">
		<LineStyle>
			<color>bbff0100</color>
		</LineStyle>
		<PolyStyle>
			<color>ccff0100</color>
		</PolyStyle>
	</Style>
	<Style id="flt2kml_00109">
		<LineStyle>
			<color>bbe00000</color>
		</LineStyle>
		<PolyStyle>
			<color>cce00000</color>
		</PolyStyle>
	</Style>
	<Style id="flt2kml_00110">
		<LineStyle>
			<color>bbff1400</color>
		</LineStyle>
		<PolyStyle>
			<color>ccff1400</color>
		</PolyStyle>
	</Style>
	<Style id="flt2kml_00111">
		<LineStyle>
			<color>bbff4500</color>
		</LineStyle>
		<PolyStyle>
			<color>ccff4500</color>
		</PolyStyle>
	</Style>
	<Style id="flt2kml_00112">
		<LineStyle>
			<color>bbf10000</color>
		</LineStyle>
		<PolyStyle>
			<color>ccf10000</color>
		</PolyStyle>
	</Style>
	<Style id="flt2kml_00113">
		<LineStyle>
			<color>bbca0000</color>
		</LineStyle>
		<PolyStyle>
			<color>ccca0000</color>
		</PolyStyle>
	</Style>
	<Style id="flt2kml_00114">
		<LineStyle>
			<color>bbc80000</color>
		</LineStyle>
		<PolyStyle>
			<color>ccc80000</color>
		</PolyStyle>
	</Style>
	<Style id="flt2kml_00115">
		<LineStyle>
			<color>bbdb0000</color>
		</LineStyle>
		<PolyStyle>
			<color>ccdb0000</color>
		</PolyStyle>
	</Style>
	<Style id="flt2kml_00116">
		<LineStyle>
			<color>bbe70000</color>
		</LineStyle>
		<PolyStyle>
			<color>cce70000</color>
		</PolyStyle>
	</Style>
	<Style id="flt2kml_00117">
		<LineStyle>
			<color>bbe00000</color>
		</LineStyle>
		<PolyStyle>
			<color>cce00000</color>
		</PolyStyle>
	</Style>
	<Style id="flt2kml_00118">
		<LineStyle>
			<color>bbd40000</color>
		</LineStyle>
		<PolyStyle>
			<color>ccd40000</color>
		</PolyStyle>
	</Style>
	<Style id="flt2kml_00119">
		<LineStyle>
			<color>bbe00000</color>
		</LineStyle>
		<PolyStyle>
			<color>cce00000</color>
		</PolyStyle>
	</Style>
	<Style id="flt2kml_00120">
		<LineStyle>
			<color>bbff0f00</color>
		</LineStyle>
		<PolyStyle>
			<color>ccff0f00</color>
		</PolyStyle>
	</Style>
	<Style id="flt2kml_00121">
		<LineStyle>
			<color>bbfb0000</color>
		</LineStyle>
		<PolyStyle>
			<color>ccfb0000</color>
		</PolyStyle>
	</Style>
	<Style id="flt2kml_00122">
		<LineStyle>
			<color>bbd10000</color>
		</LineStyle>
		<PolyStyle>
			<color>ccd10000</color>
		</PolyStyle>
	</Style>
	<Style id="flt2kml_00123">
		<LineStyle>
			<color>bba30000</color>
		</LineStyle>
		<PolyStyle>
			<color>cca30000</color>
		</PolyStyle>
	</Style>
	<Style id="flt2kml_00124">
		<LineStyle>
			<color>bb7f0000</color>
		</LineStyle>
		<PolyStyle>
			<color>cc7f0000</color>
		</PolyStyle>
	</Style>
	<Style id="flt2kml_00125">
		<LineStyle>
			<color>bb860000</color>
		</LineStyle>
		<PolyStyle>
			<color>cc860000</color>
		</PolyStyle>
	</Style>
	<Style id="flt2kml_00126">
		<LineStyle>
			<color>bb9c0000</color>
		</LineStyle>
		<PolyStyle>
			<color>cc9c0000</color>
		</PolyStyle>
	</Style>
	<Style id="flt2kml_00127">
		<LineStyle>
			<color>bbb20000</color>
		</LineStyle>
		<PolyStyle>
			<color>ccb20000</color>
		</PolyStyle>
	</Style>
	<Style id="flt2kml_00128">
		<LineStyle>
			<color>bbc50000</color>
		</LineStyle>
		<PolyStyle>
			<color>ccc50000</color>
		</PolyStyle>
	</Style>
	<Style id="flt2kml_00129">
		<LineStyle>
			<color>bbe00000</color>
		</LineStyle>
		<PolyStyle>
			<color>cce00000</color>
		</PolyStyle>
	</Style>
	<Style id="flt2kml_00130">
		<LineStyle>
			<color>bbfd0000</color>
		</LineStyle>
		<PolyStyle>
			<color>ccfd0000</color>
		</PolyStyle>
	</Style>
	<Placemark>
		<name>TEST1</name>
		<styleUrl>#flt2kml_00001</styleUrl>
		<Polygon>
			<tessellate>1</tessellate>
			<outerBoundaryIs>
				<LinearRing>
					<coordinates>
						 -118.632303,34.392766,0 -118.611698,34.386990,0 -118.616957,34.374099,0 -118.637559,34.379874,0 -118.632303,34.392766,0 
					</coordinates>
				</LinearRing>
			</outerBoundaryIs>
		</Polygon>
	</Placemark>
	<Placemark>
		<name>TEST1</name>
		<styleUrl>#flt2kml_00002</styleUrl>
		<Polygon>
			<tessellate>1</tessellate>
			<outerBoundaryIs>
				<LinearRing>
					<coordinates>
						 -118.611698,34.386990,0 -118.591096,34.381210,0 -118.596358,34.368320,0 -118.616957,34.374099,0 -118.611698,34.386990,0 
					</coordinates>
				</LinearRing>
			</outerBoundaryIs>
		</Polygon>
	</Placemark>
	<Placemark>
		<name>TEST1</name>
		<styleUrl>#flt2kml_00003</styleUrl>
		<Polygon>
			<tessellate>1</tessellate>
			<outerBoundaryIs>
				<LinearRing>
					<coordinates>
						 -118.591096,34.381210,0 -118.570496,34.375427,0 -118.575761,34.362537,0 -118.596358,34.368320,0 -118.591096,34.381210,0 
					</coordinates>
				</LinearRing>
			</outerBoundaryIs>
		</Polygon>
	</Placemark>
	<Placemark>
		<name>TEST1</name>
		<styleUrl>#flt2kml_00004</styleUrl>
		<Polygon>
			<tessellate>1</tessellate>
			<outerBoundaryIs>
				<LinearRing>
					<coordinates>
						 -118.570496,34.375427,0 -118.549900,34.369640,0 -118.555168,34.356751,0 -118.575761,34.362537,0 -118.570496,34.375427,0 
					</coordinates>
				</LinearRing>
			</outerBoundaryIs>
		</Polygon>
	</Placemark>
	<Placemark>
		<name>TEST1</name>
		<styleUrl>#flt2kml_00005</styleUrl>
		<Polygon>
			<tessellate>1</tessellate>
			<outerBoundaryIs>
				<LinearRing>
					<coordinates>
						 -118.549899,34.369640,0 -118.529305,34.363849,0 -118.534575,34.350961,0 -118.555167,34.356751,0 -118.549899,34.369640,0 
					</coordinates>
				</LinearRing>
			</outerBoundaryIs>
		</Polygon>
	</Placemark>
	<Placemark>
		<name>TEST1</name>
		<styleUrl>#flt2kml_00006</styleUrl>
		<Polygon>
			<tessellate>1</tessellate>
			<outerBoundaryIs>
				<LinearRing>
					<coordinates>
						 -118.529305,34.363849,0 -118.508713,34.358055,0 -118.513987,34.345168,0 -118.534576,34.350961,0 -118.529305,34.363849,0 
					</coordinates>
				</LinearRing>
			</outerBoundaryIs>
		</Polygon>
	</Placemark>
	<Placemark>
		<name>TEST1</name>
		<styleUrl>#flt2kml_00007</styleUrl>
		<Polygon>
			<tessellate>1</tessellate>
			<outerBoundaryIs>
				<LinearRing>
					<coordinates>
						 -118.508713,34.358055,0 -118.488125,34.352258,0 -118.493401,34.339371,0 -118.513987,34.345168,0 -118.508713,34.358055,0 
					</coordinates>
				</LinearRing>
			</outerBoundaryIs>
		</Polygon>
	</Placemark>
	<Placemark>
		<name>TEST1</name>
		<styleUrl>#flt2kml_00008</styleUrl>
		<Polygon>
			<tessellate>1</tessellate>
			<outerBoundaryIs>
				<LinearRing>
					<coordinates>
						 -118.488125,34.352258,0 -118.467539,34.346456,0 -118.472818,34.333571,0 -118.493402,34.339371,0 -118.488125,34.352258,0 
					</coordinates>
				</LinearRing>
			</outerBoundaryIs>
		</Polygon>
	</Placemark>
	<Placemark>
		<name>TEST1</name>
		<styleUrl>#flt2kml_00009</styleUrl>
		<Polygon>
			<tessellate>1</tessellate>
			<outerBoundaryIs>
				<LinearRing>
					<coordinates>
						 -118.467539,34.346456,0 -118.446956,34.340652,0 -118.452238,34.327767,0 -118.472819,34.333571,0 -118.467539,34.346456,0 
					</coordinates>
				</LinearRing>
			</outerBoundaryIs>
		</Polygon>
	</Placemark>
	<Placemark>
		<name>TEST1</name>
		<styleUrl>#flt2kml_00010</styleUrl>
		<Polygon>
			<tessellate>1</tessellate>
			<outerBoundaryIs>
				<LinearRing>
					<coordinates>
						 -118.446956,34.340652,0 -118.426376,34.334843,0 -118.431661,34.321959,0 -118.452238,34.327767,0 -118.446956,34.340652,0 
					</coordinates>
				</LinearRing>
			</outerBoundaryIs>
		</Polygon>
	</Placemark>
	<Placemark>
		<name>TEST1</name>
		<styleUrl>#flt2kml_00011</styleUrl>
		<Polygon>
			<tessellate>1</tessellate>
			<outerBoundaryIs>
				<LinearRing>
					<coordinates>
						 -118.637559,34.379875,0 -118.616957,34.374099,0 -118.622214,34.361208,0 -118.642814,34.366983,0 -118.637559,34.379875,0 
					</coordinates>
				</LinearRing>
			</outerBoundaryIs>
		</Polygon>
	</Placemark>
	<Placemark>
		<name>TEST1</name>
		<styleUrl>#flt2kml_00012</styleUrl>
		<Polygon>
			<tessellate>1</tessellate>
			<outerBoundaryIs>
				<LinearRing>
					<coordinates>
						 -118.616957,34.374099,0 -118.596357,34.368320,0 -118.601618,34.355430,0 -118.622215,34.361208,0 -118.616957,34.374099,0 
					</coordinates>
				</LinearRing>
			</outerBoundaryIs>
		</Polygon>
	</Placemark>
	<Placemark>
		<name>TEST1</name>
		<styleUrl>#flt2kml_00013</styleUrl>
		<Polygon>
			<tessellate>1</tessellate>
			<outerBoundaryIs>
				<LinearRing>
					<coordinates>
						 -118.596358,34.368320,0 -118.575761,34.362538,0 -118.581024,34.349648,0 -118.601618,34.355430,0 -118.596358,34.368320,0 
					</coordinates>
				</LinearRing>
			</outerBoundaryIs>
		</Polygon>
	</Placemark>
	<Placemark>
		<name>TEST1</name>
		<styleUrl>#flt2kml_00014</styleUrl>
		<Polygon>
			<tessellate>1</tessellate>
			<outerBoundaryIs>
				<LinearRing>
					<coordinates>
						 -118.575761,34.362538,0 -118.555167,34.356751,0 -118.560434,34.343862,0 -118.581025,34.349648,0 -118.575761,34.362538,0 
					</coordinates>
				</LinearRing>
			</outerBoundaryIs>
		</Polygon>
	</Placemark>
	<Placemark>
		<name>TEST1</name>
		<styleUrl>#flt2kml_00015</styleUrl>
		<Polygon>
			<tessellate>1</tessellate>
			<outerBoundaryIs>
				<LinearRing>
					<coordinates>
						 -118.555167,34.356751,0 -118.534576,34.350961,0 -118.539845,34.338072,0 -118.560434,34.343861,0 -118.555167,34.356751,0 
					</coordinates>
				</LinearRing>
			</outerBoundaryIs>
		</Polygon>
	</Placemark>
	<Placemark>
		<name>TEST1</name>
		<styleUrl>#flt2kml_00016</styleUrl>
		<Polygon>
			<tessellate>1</tessellate>
			<outerBoundaryIs>
				<LinearRing>
					<coordinates>
						 -118.534576,34.350961,0 -118.513988,34.345168,0 -118.519260,34.332280,0 -118.539845,34.338073,0 -118.534576,34.350961,0 
					</coordinates>
				</LinearRing>
			</outerBoundaryIs>
		</Polygon>
	</Placemark>
	<Placemark>
		<name>TEST1</name>
		<styleUrl>#flt2kml_00017</styleUrl>
		<Polygon>
			<tessellate>1</tessellate>
			<outerBoundaryIs>
				<LinearRing>
					<coordinates>
						 -118.513987,34.345168,0 -118.493401,34.339371,0 -118.498676,34.326484,0 -118.519259,34.332280,0 -118.513987,34.345168,0 
					</coordinates>
				</LinearRing>
			</outerBoundaryIs>
		</Polygon>
	</Placemark>
	<Placemark>
		<name>TEST1</name>
		<styleUrl>#flt2kml_00018</styleUrl>
		<Polygon>
			<tessellate>1</tessellate>
			<outerBoundaryIs>
				<LinearRing>
					<coordinates>
						 -118.493401,34.339371,0 -118.472818,34.333570,0 -118.478096,34.320684,0 -118.498676,34.326484,0 -118.493401,34.339371,0 
					</coordinates>
				</LinearRing>
			</outerBoundaryIs>
		</Polygon>
	</Placemark>
	<Placemark>
		<name>TEST1</name>
		<styleUrl>#flt2kml_00019</styleUrl>
		<Polygon>
			<tessellate>1</tessellate>
			<outerBoundaryIs>
				<LinearRing>
					<coordinates>
						 -118.472818,34.333570,0 -118.452238,34.327766,0 -118.457519,34.314881,0 -118.478096,34.320684,0 -118.472818,34.333570,0 
					</coordinates>
				</LinearRing>
			</outerBoundaryIs>
		</Polygon>
	</Placemark>
	<Placemark>
		<name>TEST1</name>
		<styleUrl>#flt2kml_00020</styleUrl>
		<Polygon>
			<tessellate>1</tessellate>
			<outerBoundaryIs>
				<LinearRing>
					<coordinates>
						 -118.452238,34.327766,0 -118.431660,34.321959,0 -118.436944,34.309075,0 -118.457519,34.314881,0 -118.452238,34.327766,0 
					</coordinates>
				</LinearRing>
			</outerBoundaryIs>
		</Polygon>
	</Placemark>
	<Placemark>
		<name>TEST1</name>
		<styleUrl>#flt2kml_00021</styleUrl>
		<Polygon>
			<tessellate>1</tessellate>
			<outerBoundaryIs>
				<LinearRing>
					<coordinates>
						 -118.642814,34.366982,0 -118.622215,34.361207,0 -118.627471,34.348316,0 -118.648068,34.354090,0 -118.642814,34.366982,0 
					</coordinates>
				</LinearRing>
			</outerBoundaryIs>
		</Polygon>
	</Placemark>
	<Placemark>
		<name>TEST1</name>
		<styleUrl>#flt2kml_00022</styleUrl>
		<Polygon>
			<tessellate>1</tessellate>
			<outerBoundaryIs>
				<LinearRing>
					<coordinates>
						 -118.622215,34.361208,0 -118.601619,34.355429,0 -118.606878,34.342538,0 -118.627472,34.348316,0 -118.622215,34.361208,0 
					</coordinates>
				</LinearRing>
			</outerBoundaryIs>
		</Polygon>
	</Placemark>
	<Placemark>
		<name>TEST1</name>
		<styleUrl>#flt2kml_00023</styleUrl>
		<Polygon>
			<tessellate>1</tessellate>
			<outerBoundaryIs>
				<LinearRing>
					<coordinates>
						 -118.601618,34.355429,0 -118.581024,34.349647,0 -118.586286,34.336757,0 -118.606877,34.342538,0 -118.601618,34.355429,0 
					</coordinates>
				</LinearRing>
			</outerBoundaryIs>
		</Polygon>
	</Placemark>
	<Placemark>
		<name>TEST1</name>
		<styleUrl>#flt2kml_00024</styleUrl>
		<Polygon>
			<tessellate>1</tessellate>
			<outerBoundaryIs>
				<LinearRing>
					<coordinates>
						 -118.581024,34.349647,0 -118.560433,34.343862,0 -118.565698,34.330973,0 -118.586286,34.336757,0 -118.581024,34.349647,0 
					</coordinates>
				</LinearRing>
			</outerBoundaryIs>
		</Polygon>
	</Placemark>
	<Placemark>
		<name>TEST1</name>
		<styleUrl>#flt2kml_00025</styleUrl>
		<Polygon>
			<tessellate>1</tessellate>
			<outerBoundaryIs>
				<LinearRing>
					<coordinates>
						 -118.560433,34.343862,0 -118.539845,34.338073,0 -118.545113,34.325185,0 -118.565698,34.330973,0 -118.560433,34.343862,0 
					</coordinates>
				</LinearRing>
			</outerBoundaryIs>
		</Polygon>
	</Placemark>
	<Placemark>
		<name>TEST1</name>
		<styleUrl>#flt2kml_00026</styleUrl>
		<Polygon>
			<tessellate>1</tessellate>
			<outerBoundaryIs>
				<LinearRing>
					<coordinates>
						 -118.539845,34.338073,0 -118.519259,34.332281,0 -118.524530,34.319393,0 -118.545113,34.325185,0 -118.539845,34.338073,0 
					</coordinates>
				</LinearRing>
			</outerBoundaryIs>
		</Polygon>
	</Placemark>
	<Placemark>
		<name>TEST1</name>
		<styleUrl>#flt2kml_00027</styleUrl>
		<Polygon>
			<tessellate>1</tessellate>
			<outerBoundaryIs>
				<LinearRing>
					<coordinates>
						 -118.519260,34.332281,0 -118.498677,34.326485,0 -118.503950,34.313598,0 -118.524530,34.319393,0 -118.519260,34.332281,0 
					</coordinates>
				</LinearRing>
			</outerBoundaryIs>
		</Polygon>
	</Placemark>
	<Placemark>
		<name>TEST1</name>
		<styleUrl>#flt2kml_00028</styleUrl>
		<Polygon>
			<tessellate>1</tessellate>
			<outerBoundaryIs>
				<LinearRing>
					<coordinates>
						 -118.498677,34.326485,0 -118.478097,34.320685,0 -118.483373,34.307799,0 -118.503950,34.313598,0 -118.498677,34.326485,0 
					</coordinates>
				</LinearRing>
			</outerBoundaryIs>
		</Polygon>
	</Placemark>
	<Placemark>
		<name>TEST1</name>
		<styleUrl>#flt2kml_00029</styleUrl>
		<Polygon>
			<tessellate>1</tessellate>
			<outerBoundaryIs>
				<LinearRing>
					<coordinates>
						 -118.478097,34.320685,0 -118.457519,34.314882,0 -118.462798,34.301997,0 -118.483373,34.307799,0 -118.478097,34.320685,0 
					</coordinates>
				</LinearRing>
			</outerBoundaryIs>
		</Polygon>
	</Placemark>
	<Placemark>
		<name>TEST1</name>
		<styleUrl>#flt2kml_00030</styleUrl>
		<Polygon>
			<tessellate>1</tessellate>
			<outerBoundaryIs>
				<LinearRing>
					<coordinates>
						 -118.457518,34.314882,0 -118.436943,34.309075,0 -118.442225,34.296191,0 -118.462797,34.301997,0 -118.457518,34.314882,0 
					</coordinates>
				</LinearRing>
			</outerBoundaryIs>
		</Polygon>
	</Placemark>
	<Placemark>
		<name>TEST1</name>
		<styleUrl>#flt2kml_00031</styleUrl>
		<Polygon>
			<tessellate>1</tessellate>
			<outerBoundaryIs>
				<LinearRing>
					<coordinates>
						 -118.648067,34.354089,0 -118.627471,34.348315,0 -118.632726,34.335424,0 -118.653319,34.341197,0 -118.648067,34.354089,0 
					</coordinates>
				</LinearRing>
			</outerBoundaryIs>
		</Polygon>
	</Placemark>
	<Placemark>
		<name>TEST1</name>
		<styleUrl>#flt2kml_00032</styleUrl>
		<Polygon>
			<tessellate>1</tessellate>
			<outerBoundaryIs>
				<LinearRing>
					<coordinates>
						 -118.627471,34.348315,0 -118.606878,34.342538,0 -118.612135,34.329647,0 -118.632726,34.335424,0 -118.627471,34.348315,0 
					</coordinates>
				</LinearRing>
			</outerBoundaryIs>
		</Polygon>
	</Placemark>
	<Placemark>
		<name>TEST1</name>
		<styleUrl>#flt2kml_00033</styleUrl>
		<Polygon>
			<tessellate>1</tessellate>
			<outerBoundaryIs>
				<LinearRing>
					<coordinates>
						 -118.606878,34.342538,0 -118.586287,34.336757,0 -118.591547,34.323867,0 -118.612135,34.329647,0 -118.606878,34.342538,0 
					</coordinates>
				</LinearRing>
			</outerBoundaryIs>
		</Polygon>
	</Placemark>
	<Placemark>
		<name>TEST1</name>
		<styleUrl>#flt2kml_00034</styleUrl>
		<Polygon>
			<tessellate>1</tessellate>
			<outerBoundaryIs>
				<LinearRing>
					<coordinates>
						 -118.586287,34.336757,0 -118.565699,34.330972,0 -118.570962,34.318083,0 -118.591547,34.323867,0 -118.586287,34.336757,0 
					</coordinates>
				</LinearRing>
			</outerBoundaryIs>
		</Polygon>
	</Placemark>
	<Placemark>
		<name>TEST1</name>
		<styleUrl>#flt2kml_00035</styleUrl>
		<Polygon>
			<tessellate>1</tessellate>
			<outerBoundaryIs>
				<LinearRing>
					<coordinates>
						 -118.565699,34.330972,0 -118.545113,34.325184,0 -118.550380,34.312295,0 -118.570962,34.318083,0 -118.565699,34.330972,0 
					</coordinates>
				</LinearRing>
			</outerBoundaryIs>
		</Polygon>
	</Placemark>
	<Placemark>
		<name>TEST1</name>
		<styleUrl>#flt2kml_00036</styleUrl>
		<Polygon>
			<tessellate>1</tessellate>
			<outerBoundaryIs>
				<LinearRing>
					<coordinates>
						 -118.545112,34.325184,0 -118.524530,34.319392,0 -118.529799,34.306505,0 -118.550379,34.312295,0 -118.545112,34.325184,0 
					</coordinates>
				</LinearRing>
			</outerBoundaryIs>
		</Polygon>
	</Placemark>
	<Placemark>
		<name>TEST1</name>
		<styleUrl>#flt2kml_00037</styleUrl>
		<Polygon>
			<tessellate>1</tessellate>
			<outerBoundaryIs>
				<LinearRing>
					<coordinates>
						 -118.524530,34.319393,0 -118.503950,34.313597,0 -118.509222,34.300710,0 -118.529799,34.306505,0 -118.524530,34.319393,0 
					</coordinates>
				</LinearRing>
			</outerBoundaryIs>
		</Polygon>
	</Placemark>
	<Placemark>
		<name>TEST1</name>
		<styleUrl>#flt2kml_00038</styleUrl>
		<Polygon>
			<tessellate>1</tessellate>
			<outerBoundaryIs>
				<LinearRing>
					<coordinates>
						 -118.503950,34.313597,0 -118.483372,34.307798,0 -118.488647,34.294912,0 -118.509222,34.300710,0 -118.503950,34.313597,0 
					</coordinates>
				</LinearRing>
			</outerBoundaryIs>
		</Polygon>
	</Placemark>
	<Placemark>
		<name>TEST1</name>
		<styleUrl>#flt2kml_00039</styleUrl>
		<Polygon>
			<tessellate>1</tessellate>
			<outerBoundaryIs>
				<LinearRing>
					<coordinates>
						 -118.483373,34.307799,0 -118.462798,34.301996,0 -118.468076,34.289111,0 -118.488647,34.294912,0 -118.483373,34.307799,0 
					</coordinates>
				</LinearRing>
			</outerBoundaryIs>
		</Polygon>
	</Placemark>
	<Placemark>
		<name>TEST1</name>
		<styleUrl>#flt2kml_00040</styleUrl>
		<Polygon>
			<tessellate>1</tessellate>
			<outerBoundaryIs>
				<LinearRing>
					<coordinates>
						 -118.462798,34.301996,0 -118.442226,34.296190,0 -118.447507,34.283306,0 -118.468076,34.289111,0 -118.462798,34.301996,0 
					</coordinates>
				</LinearRing>
			</outerBoundaryIs>
		</Polygon>
	</Placemark>
	<Placemark>
		<name>TEST1</name>
		<styleUrl>#flt2kml_00041</styleUrl>
		<Polygon>
			<tessellate>1</tessellate>
			<outerBoundaryIs>
				<LinearRing>
					<coordinates>
						 -118.653319,34.341197,0 -118.632725,34.335424,0 -118.637979,34.322532,0 -118.658569,34.328304,0 -118.653319,34.341197,0 
					</coordinates>
				</LinearRing>
			</outerBoundaryIs>
		</Polygon>
	</Placemark>
	<Placemark>
		<name>TEST1</name>
		<styleUrl>#flt2kml_00042</styleUrl>
		<Polygon>
			<tessellate>1</tessellate>
			<outerBoundaryIs>
				<LinearRing>
					<coordinates>
						 -118.632726,34.335424,0 -118.612135,34.329647,0 -118.617391,34.316756,0 -118.637979,34.322532,0 -118.632726,34.335424,0 
					</coordinates>
				</LinearRing>
			</outerBoundaryIs>
		</Polygon>
	</Placemark>
	<Placemark>
		<name>TEST1</name>
		<styleUrl>#flt2kml_00043</styleUrl>
		<Polygon>
			<tessellate>1</tessellate>
			<outerBoundaryIs>
				<LinearRing>
					<coordinates>
						 -118.612135,34.329647,0 -118.591547,34.323867,0 -118.596806,34.310977,0 -118.617391,34.316756,0 -118.612135,34.329647,0 
					</coordinates>
				</LinearRing>
			</outerBoundaryIs>
		</Polygon>
	</Placemark>
	<Placemark>
		<name>TEST1</name>
		<styleUrl>#flt2kml_00044</styleUrl>
		<Polygon>
			<tessellate>1</tessellate>
			<outerBoundaryIs>
				<LinearRing>
					<coordinates>
						 -118.591547,34.323867,0 -118.570962,34.318083,0 -118.576223,34.305194,0 -118.596806,34.310977,0 -118.591547,34.323867,0 
					</coordinates>
				</LinearRing>
			</outerBoundaryIs>
		</Polygon>
	</Placemark>
	<Placemark>
		<name>TEST1</name>
		<styleUrl>#flt2kml_00045</styleUrl>
		<Polygon>
			<tessellate>1</tessellate>
			<outerBoundaryIs>
				<LinearRing>
					<coordinates>
						 -118.570962,34.318083,0 -118.550379,34.312296,0 -118.555644,34.299407,0 -118.576224,34.305194,0 -118.570962,34.318083,0 
					</coordinates>
				</LinearRing>
			</outerBoundaryIs>
		</Polygon>
	</Placemark>
	<Placemark>
		<name>TEST1</name>
		<styleUrl>#flt2kml_00046</styleUrl>
		<Polygon>
			<tessellate>1</tessellate>
			<outerBoundaryIs>
				<LinearRing>
					<coordinates>
						 -118.550379,34.312296,0 -118.529799,34.306505,0 -118.535067,34.293617,0 -118.555644,34.299407,0 -118.550379,34.312296,0 
					</coordinates>
				</LinearRing>
			</outerBoundaryIs>
		</Polygon>
	</Placemark>
	<Placemark>
		<name>TEST1</name>
		<styleUrl>#flt2kml_00047</styleUrl>
		<Polygon>
			<tessellate>1</tessellate>
			<outerBoundaryIs>
				<LinearRing>
					<coordinates>
						 -118.529800,34.306505,0 -118.509222,34.300711,0 -118.514493,34.287823,0 -118.535067,34.293617,0 -118.529800,34.306505,0 
					</coordinates>
				</LinearRing>
			</outerBoundaryIs>
		</Polygon>
	</Placemark>
	<Placemark>
		<name>TEST1</name>
		<styleUrl>#flt2kml_00048</styleUrl>
		<Polygon>
			<tessellate>1</tessellate>
			<outerBoundaryIs>
				<LinearRing>
					<coordinates>
						 -118.509221,34.300711,0 -118.488647,34.294913,0 -118.493920,34.282026,0 -118.514492,34.287823,0 -118.509221,34.300711,0 
					</coordinates>
				</LinearRing>
			</outerBoundaryIs>
		</Polygon>
	</Placemark>
	<Placemark>
		<name>TEST1</name>
		<styleUrl>#flt2kml_00049</styleUrl>
		<Polygon>
			<tessellate>1</tessellate>
			<outerBoundaryIs>
				<LinearRing>
					<coordinates>
						 -118.488647,34.294913,0 -118.468075,34.289111,0 -118.473351,34.276225,0 -118.493920,34.282026,0 -118.488647,34.294913,0 
					</coordinates>
				</LinearRing>
			</outerBoundaryIs>
		</Polygon>
	</Placemark>
	<Placemark>
		<name>TEST1</name>
		<styleUrl>#flt2kml_00050</styleUrl>
		<Polygon>
			<tessellate>1</tessellate>
			<outerBoundaryIs>
				<LinearRing>
					<coordinates>
						 -118.468075,34.289111,0 -118.447506,34.283306,0 -118.452785,34.270421,0 -118.473351,34.276226,0 -118.468075,34.289111,0 
					</coordinates>
				</LinearRing>
			</outerBoundaryIs>
		</Polygon>
	</Placemark>
	<Placemark>
		<name>TEST1</name>
		<styleUrl>#flt2kml_00051</styleUrl>
		<Polygon>
			<tessellate>1</tessellate>
			<outerBoundaryIs>
				<LinearRing>
					<coordinates>
						 -118.658570,34.328304,0 -118.637979,34.322532,0 -118.643231,34.309639,0 -118.663819,34.315411,0 -118.658570,34.328304,0 
					</coordinates>
				</LinearRing>
			</outerBoundaryIs>
		</Polygon>
	</Placemark>
	<Placemark>
		<name>TEST1</name>
		<styleUrl>#flt2kml_00052</styleUrl>
		<Polygon>
			<tessellate>1</tessellate>
			<outerBoundaryIs>
				<LinearRing>
					<coordinates>
						 -118.637979,34.322532,0 -118.617391,34.316756,0 -118.622646,34.303864,0 -118.643231,34.309639,0 -118.637979,34.322532,0 
					</coordinates>
				</LinearRing>
			</outerBoundaryIs>
		</Polygon>
	</Placemark>
	<Placemark>
		<name>TEST1</name>
		<styleUrl>#flt2kml_00053</styleUrl>
		<Polygon>
			<tessellate>1</tessellate>
			<outerBoundaryIs>
				<LinearRing>
					<coordinates>
						 -118.617392,34.316756,0 -118.596806,34.310976,0 -118.602064,34.298085,0 -118.622646,34.303864,0 -118.617392,34.316756,0 
					</coordinates>
				</LinearRing>
			</outerBoundaryIs>
		</Polygon>
	</Placemark>
	<Placemark>
		<name>TEST1</name>
		<styleUrl>#flt2kml_00054</styleUrl>
		<Polygon>
			<tessellate>1</tessellate>
			<outerBoundaryIs>
				<LinearRing>
					<coordinates>
						 -118.596806,34.310976,0 -118.576223,34.305193,0 -118.581483,34.292303,0 -118.602063,34.298086,0 -118.596806,34.310976,0 
					</coordinates>
				</LinearRing>
			</outerBoundaryIs>
		</Polygon>
	</Placemark>
	<Placemark>
		<name>TEST1</name>
		<styleUrl>#flt2kml_00055</styleUrl>
		<Polygon>
			<tessellate>1</tessellate>
			<outerBoundaryIs>
				<LinearRing>
					<coordinates>
						 -118.576223,34.305193,0 -118.555643,34.299407,0 -118.560907,34.286518,0 -118.581483,34.292303,0 -118.576223,34.305193,0 
					</coordinates>
				</LinearRing>
			</outerBoundaryIs>
		</Polygon>
	</Placemark>
	<Placemark>
		<name>TEST1</name>
		<styleUrl>#flt2kml_00056</styleUrl>
		<Polygon>
			<tessellate>1</tessellate>
			<outerBoundaryIs>
				<LinearRing>
					<coordinates>
						 -118.555644,34.299407,0 -118.535066,34.293617,0 -118.540332,34.280728,0 -118.560907,34.286518,0 -118.555644,34.299407,0 
					</coordinates>
				</LinearRing>
			</outerBoundaryIs>
		</Polygon>
	</Placemark>
	<Placemark>
		<name>TEST1</name>
		<styleUrl>#flt2kml_00057</styleUrl>
		<Polygon>
			<tessellate>1</tessellate>
			<outerBoundaryIs>
				<LinearRing>
					<coordinates>
						 -118.535067,34.293617,0 -118.514492,34.287823,0 -118.519761,34.274935,0 -118.540333,34.280728,0 -118.535067,34.293617,0 
					</coordinates>
				</LinearRing>
			</outerBoundaryIs>
		</Polygon>
	</Placemark>
	<Placemark>
		<name>TEST1</name>
		<styleUrl>#flt2kml_00058</styleUrl>
		<Polygon>
			<tessellate>1</tessellate>
			<outerBoundaryIs>
				<LinearRing>
					<coordinates>
						 -118.514492,34.287823,0 -118.493921,34.282026,0 -118.499192,34.269139,0 -118.519761,34.274935,0 -118.514492,34.287823,0 
					</coordinates>
				</LinearRing>
			</outerBoundaryIs>
		</Polygon>
	</Placemark>
	<Placemark>
		<name>TEST1</name>
		<styleUrl>#flt2kml_00059</styleUrl>
		<Polygon>
			<tessellate>1</tessellate>
			<outerBoundaryIs>
				<LinearRing>
					<coordinates>
						 -118.493921,34.282026,0 -118.473352,34.276225,0 -118.478626,34.263339,0 -118.499193,34.269139,0 -118.493921,34.282026,0 
					</coordinates>
				</LinearRing>
			</outerBoundaryIs>
		</Polygon>
	</Placemark>
	<Placemark>
		<name>TEST1</name>
		<styleUrl>#flt2kml_00060</styleUrl>
		<Polygon>
			<tessellate>1</tessellate>
			<outerBoundaryIs>
				<LinearRing>
					<coordinates>
						 -118.473352,34.276225,0 -118.452786,34.270421,0 -118.458063,34.257536,0 -118.478627,34.263339,0 -118.473352,34.276225,0 
					</coordinates>
				</LinearRing>
			</outerBoundaryIs>
		</Polygon>
	</Placemark>
	<Placemark>
		<name>TEST1</name>
		<styleUrl>#flt2kml_00061</styleUrl>
		<Polygon>
			<tessellate>1</tessellate>
			<outerBoundaryIs>
				<LinearRing>
					<coordinates>
						 -118.663818,34.315411,0 -118.643231,34.309640,0 -118.648481,34.296747,0 -118.669066,34.302518,0 -118.663818,34.315411,0 
					</coordinates>
				</LinearRing>
			</outerBoundaryIs>
		</Polygon>
	</Placemark>
	<Placemark>
		<name>TEST1</name>
		<styleUrl>#flt2kml_00062</styleUrl>
		<Polygon>
			<tessellate>1</tessellate>
			<outerBoundaryIs>
				<LinearRing>
					<coordinates>
						 -118.643231,34.309640,0 -118.622646,34.303865,0 -118.627899,34.290973,0 -118.648481,34.296747,0 -118.643231,34.309640,0 
					</coordinates>
				</LinearRing>
			</outerBoundaryIs>
		</Polygon>
	</Placemark>
	<Placemark>
		<name>TEST1</name>
		<styleUrl>#flt2kml_00063</styleUrl>
		<Polygon>
			<tessellate>1</tessellate>
			<outerBoundaryIs>
				<LinearRing>
					<coordinates>
						 -118.622646,34.303865,0 -118.602063,34.298086,0 -118.607319,34.285195,0 -118.627899,34.290973,0 -118.622646,34.303865,0 
					</coordinates>
				</LinearRing>
			</outerBoundaryIs>
		</Polygon>
	</Placemark>
	<Placemark>
		<name>TEST1</name>
		<styleUrl>#flt2kml_00064</styleUrl>
		<Polygon>
			<tessellate>1</tessellate>
			<outerBoundaryIs>
				<LinearRing>
					<coordinates>
						 -118.602064,34.298086,0 -118.581484,34.292304,0 -118.586743,34.279414,0 -118.607320,34.285195,0 -118.602064,34.298086,0 
					</coordinates>
				</LinearRing>
			</outerBoundaryIs>
		</Polygon>
	</Placemark>
	<Placemark>
		<name>TEST1</name>
		<styleUrl>#flt2kml_00065</styleUrl>
		<Polygon>
			<tessellate>1</tessellate>
			<outerBoundaryIs>
				<LinearRing>
					<coordinates>
						 -118.581484,34.292304,0 -118.560907,34.286518,0 -118.566169,34.273629,0 -118.586743,34.279414,0 -118.581484,34.292304,0 
					</coordinates>
				</LinearRing>
			</outerBoundaryIs>
		</Polygon>
	</Placemark>
	<Placemark>
		<name>TEST1</name>
		<styleUrl>#flt2kml_00066</styleUrl>
		<Polygon>
			<tessellate>1</tessellate>
			<outerBoundaryIs>
				<LinearRing>
					<coordinates>
						 -118.560906,34.286517,0 -118.540332,34.280728,0 -118.545596,34.267839,0 -118.566168,34.273628,0 -118.560906,34.286517,0 
					</coordinates>
				</LinearRing>
			</outerBoundaryIs>
		</Polygon>
	</Placemark>
	<Placemark>
		<name>TEST1</name>
		<styleUrl>#flt2kml_00067</styleUrl>
		<Polygon>
			<tessellate>1</tessellate>
			<outerBoundaryIs>
				<LinearRing>
					<coordinates>
						 -118.540332,34.280728,0 -118.519761,34.274935,0 -118.525028,34.262047,0 -118.545597,34.267839,0 -118.540332,34.280728,0 
					</coordinates>
				</LinearRing>
			</outerBoundaryIs>
		</Polygon>
	</Placemark>
	<Placemark>
		<name>TEST1</name>
		<styleUrl>#flt2kml_00068</styleUrl>
		<Polygon>
			<tessellate>1</tessellate>
			<outerBoundaryIs>
				<LinearRing>
					<coordinates>
						 -118.519761,34.274935,0 -118.499192,34.269139,0 -118.504462,34.256252,0 -118.525028,34.262047,0 -118.519761,34.274935,0 
					</coordinates>
				</LinearRing>
			</outerBoundaryIs>
		</Polygon>
	</Placemark>
	<Placemark>
		<name>TEST1</name>
		<styleUrl>#flt2kml_00069</styleUrl>
		<Polygon>
			<tessellate>1</tessellate>
			<outerBoundaryIs>
				<LinearRing>
					<coordinates>
						 -118.499192,34.269139,0 -118.478626,34.263339,0 -118.483899,34.250453,0 -118.504462,34.256252,0 -118.499192,34.269139,0 
					</coordinates>
				</LinearRing>
			</outerBoundaryIs>
		</Polygon>
	</Placemark>
	<Placemark>
		<name>TEST1</name>
		<styleUrl>#flt2kml_00070</styleUrl>
		<Polygon>
			<tessellate>1</tessellate>
			<outerBoundaryIs>
				<LinearRing>
					<coordinates>
						 -118.478626,34.263339,0 -118.458063,34.257535,0 -118.463339,34.244650,0 -118.483899,34.250453,0 -118.478626,34.263339,0 
					</coordinates>
				</LinearRing>
			</outerBoundaryIs>
		</Polygon>
	</Placemark>
	<Placemark>
		<name>TEST1</name>
		<styleUrl>#flt2kml_00071</styleUrl>
		<Polygon>
			<tessellate>1</tessellate>
			<outerBoundaryIs>
				<LinearRing>
					<coordinates>
						 -118.669066,34.302518,0 -118.648481,34.296747,0 -118.653730,34.283854,0 -118.674312,34.289624,0 -118.669066,34.302518,0 
					</coordinates>
				</LinearRing>
			</outerBoundaryIs>
		</Polygon>
	</Placemark>
	<Placemark>
		<name>TEST1</name>
		<styleUrl>#flt2kml_00072</styleUrl>
		<Polygon>
			<tessellate>1</tessellate>
			<outerBoundaryIs>
				<LinearRing>
					<coordinates>
						 -118.648480,34.296747,0 -118.627898,34.290973,0 -118.633150,34.278081,0 -118.653729,34.283854,0 -118.648480,34.296747,0 
					</coordinates>
				</LinearRing>
			</outerBoundaryIs>
		</Polygon>
	</Placemark>
	<Placemark>
		<name>TEST1</name>
		<styleUrl>#flt2kml_00073</styleUrl>
		<Polygon>
			<tessellate>1</tessellate>
			<outerBoundaryIs>
				<LinearRing>
					<coordinates>
						 -118.627898,34.290973,0 -118.607319,34.285195,0 -118.612573,34.272304,0 -118.633150,34.278081,0 -118.627898,34.290973,0 
					</coordinates>
				</LinearRing>
			</outerBoundaryIs>
		</Polygon>
	</Placemark>
	<Placemark>
		<name>TEST1</name>
		<styleUrl>#flt2kml_00074</styleUrl>
		<Polygon>
			<tessellate>1</tessellate>
			<outerBoundaryIs>
				<LinearRing>
					<coordinates>
						 -118.607319,34.285195,0 -118.586742,34.279413,0 -118.591999,34.266523,0 -118.612573,34.272304,0 -118.607319,34.285195,0 
					</coordinates>
				</LinearRing>
			</outerBoundaryIs>
		</Polygon>
	</Placemark>
	<Placemark>
		<name>TEST1</name>
		<styleUrl>#flt2kml_00075</styleUrl>
		<Polygon>
			<tessellate>1</tessellate>
			<outerBoundaryIs>
				<LinearRing>
					<coordinates>
						 -118.586742,34.279413,0 -118.566168,34.273628,0 -118.571428,34.260739,0 -118.592000,34.266523,0 -118.586742,34.279413,0 
					</coordinates>
				</LinearRing>
			</outerBoundaryIs>
		</Polygon>
	</Placemark>
	<Placemark>
		<name>TEST1</name>
		<styleUrl>#flt2kml_00076</styleUrl>
		<Polygon>
			<tessellate>1</tessellate>
			<outerBoundaryIs>
				<LinearRing>
					<coordinates>
						 -118.566169,34.273628,0 -118.545597,34.267840,0 -118.550860,34.254951,0 -118.571429,34.260739,0 -118.566169,34.273628,0 
					</coordinates>
				</LinearRing>
			</outerBoundaryIs>
		</Polygon>
	</Placemark>
	<Placemark>
		<name>TEST1</name>
		<styleUrl>#flt2kml_00077</styleUrl>
		<Polygon>
			<tessellate>1</tessellate>
			<outerBoundaryIs>
				<LinearRing>
					<coordinates>
						 -118.545597,34.267840,0 -118.525029,34.262048,0 -118.530294,34.249160,0 -118.550860,34.254951,0 -118.545597,34.267840,0 
					</coordinates>
				</LinearRing>
			</outerBoundaryIs>
		</Polygon>
	</Placemark>
	<Placemark>
		<name>TEST1</name>
		<styleUrl>#flt2kml_00078</styleUrl>
		<Polygon>
			<tessellate>1</tessellate>
			<outerBoundaryIs>
				<LinearRing>
					<coordinates>
						 -118.525029,34.262048,0 -118.504463,34.256252,0 -118.509731,34.243365,0 -118.530295,34.249160,0 -118.525029,34.262048,0 
					</coordinates>
				</LinearRing>
			</outerBoundaryIs>
		</Polygon>
	</Placemark>
	<Placemark>
		<name>TEST1</name>
		<styleUrl>#flt2kml_00079</styleUrl>
		<Polygon>
			<tessellate>1</tessellate>
			<outerBoundaryIs>
				<LinearRing>
					<coordinates>
						 -118.504462,34.256252,0 -118.483899,34.250453,0 -118.489170,34.237567,0 -118.509730,34.243365,0 -118.504462,34.256252,0 
					</coordinates>
				</LinearRing>
			</outerBoundaryIs>
		</Polygon>
	</Placemark>
	<Placemark>
		<name>TEST1</name>
		<styleUrl>#flt2kml_00080</styleUrl>
		<Polygon>
			<tessellate>1</tessellate>
			<outerBoundaryIs>
				<LinearRing>
					<coordinates>
						 -118.483899,34.250453,0 -118.463338,34.244651,0 -118.468612,34.231765,0 -118.489170,34.237567,0 -118.483899,34.250453,0 
					</coordinates>
				</LinearRing>
			</outerBoundaryIs>
		</Polygon>
	</Placemark>
	<Placemark>
		<name>TEST1</name>
		<styleUrl>#flt2kml_00081</styleUrl>
		<Polygon>
			<tessellate>1</tessellate>
			<outerBoundaryIs>
				<LinearRing>
					<coordinates>
						 -118.674312,34.289624,0 -118.653730,34.283854,0 -118.658977,34.270961,0 -118.679556,34.276730,0 -118.674312,34.289624,0 
					</coordinates>
				</LinearRing>
			</outerBoundaryIs>
		</Polygon>
	</Placemark>
	<Placemark>
		<name>TEST1</name>
		<styleUrl>#flt2kml_00082</styleUrl>
		<Polygon>
			<tessellate>1</tessellate>
			<outerBoundaryIs>
				<LinearRing>
					<coordinates>
						 -118.653730,34.283854,0 -118.633150,34.278080,0 -118.638400,34.265188,0 -118.658977,34.270961,0 -118.653730,34.283854,0 
					</coordinates>
				</LinearRing>
			</outerBoundaryIs>
		</Polygon>
	</Placemark>
	<Placemark>
		<name>TEST1</name>
		<styleUrl>#flt2kml_00083</styleUrl>
		<Polygon>
			<tessellate>1</tessellate>
			<outerBoundaryIs>
				<LinearRing>
					<coordinates>
						 -118.633151,34.278080,0 -118.612574,34.272303,0 -118.617827,34.259412,0 -118.638401,34.265188,0 -118.633151,34.278080,0 
					</coordinates>
				</LinearRing>
			</outerBoundaryIs>
		</Polygon>
	</Placemark>
	<Placemark>
		<name>TEST1</name>
		<styleUrl>#flt2kml_00084</styleUrl>
		<Polygon>
			<tessellate>1</tessellate>
			<outerBoundaryIs>
				<LinearRing>
					<coordinates>
						 -118.612574,34.272303,0 -118.592000,34.266523,0 -118.597256,34.253632,0 -118.617827,34.259412,0 -118.612574,34.272303,0 
					</coordinates>
				</LinearRing>
			</outerBoundaryIs>
		</Polygon>
	</Placemark>
	<Placemark>
		<name>TEST1</name>
		<styleUrl>#flt2kml_00085</styleUrl>
		<Polygon>
			<tessellate>1</tessellate>
			<outerBoundaryIs>
				<LinearRing>
					<coordinates>
						 -118.591999,34.266523,0 -118.571428,34.260738,0 -118.576687,34.247849,0 -118.597255,34.253632,0 -118.591999,34.266523,0 
					</coordinates>
				</LinearRing>
			</outerBoundaryIs>
		</Polygon>
	</Placemark>
	<Placemark>
		<name>TEST1</name>
		<styleUrl>#flt2kml_00086</styleUrl>
		<Polygon>
			<tessellate>1</tessellate>
			<outerBoundaryIs>
				<LinearRing>
					<coordinates>
						 -118.571428,34.260738,0 -118.550860,34.254951,0 -118.556121,34.242062,0 -118.576687,34.247849,0 -118.571428,34.260738,0 
					</coordinates>
				</LinearRing>
			</outerBoundaryIs>
		</Polygon>
	</Placemark>
	<Placemark>
		<name>TEST1</name>
		<styleUrl>#flt2kml_00087</styleUrl>
		<Polygon>
			<tessellate>1</tessellate>
			<outerBoundaryIs>
				<LinearRing>
					<coordinates>
						 -118.550860,34.254951,0 -118.530294,34.249160,0 -118.535558,34.236271,0 -118.556121,34.242062,0 -118.550860,34.254951,0 
					</coordinates>
				</LinearRing>
			</outerBoundaryIs>
		</Polygon>
	</Placemark>
	<Placemark>
		<name>TEST1</name>
		<styleUrl>#flt2kml_00088</styleUrl>
		<Polygon>
			<tessellate>1</tessellate>
			<outerBoundaryIs>
				<LinearRing>
					<coordinates>
						 -118.530294,34.249160,0 -118.509731,34.243365,0 -118.514998,34.230477,0 -118.535558,34.236271,0 -118.530294,34.249160,0 
					</coordinates>
				</LinearRing>
			</outerBoundaryIs>
		</Polygon>
	</Placemark>
	<Placemark>
		<name>TEST1</name>
		<styleUrl>#flt2kml_00089</styleUrl>
		<Polygon>
			<tessellate>1</tessellate>
			<outerBoundaryIs>
				<LinearRing>
					<coordinates>
						 -118.509731,34.243365,0 -118.489171,34.237566,0 -118.494441,34.224680,0 -118.514998,34.230477,0 -118.509731,34.243365,0 
					</coordinates>
				</LinearRing>
			</outerBoundaryIs>
		</Polygon>
	</Placemark>
	<Placemark>
		<name>TEST1</name>
		<styleUrl>#flt2kml_00090</styleUrl>
		<Polygon>
			<tessellate>1</tessellate>
			<outerBoundaryIs>
				<LinearRing>
					<coordinates>
						 -118.489171,34.237566,0 -118.468613,34.231765,0 -118.473886,34.218879,0 -118.494441,34.224680,0 -118.489171,34.237566,0 
					</coordinates>
				</LinearRing>
			</outerBoundaryIs>
		</Polygon>
	</Placemark>
	<Placemark>
		<name>TEST1</name>
		<styleUrl>#flt2kml_00091</styleUrl>
		<Polygon>
			<tessellate>1</tessellate>
			<outerBoundaryIs>
				<LinearRing>
					<coordinates>
						 -118.679555,34.276731,0 -118.658976,34.270961,0 -118.664222,34.258068,0 -118.684798,34.263837,0 -118.679555,34.276731,0 
					</coordinates>
				</LinearRing>
			</outerBoundaryIs>
		</Polygon>
	</Placemark>
	<Placemark>
		<name>TEST1</name>
		<styleUrl>#flt2kml_00092</styleUrl>
		<Polygon>
			<tessellate>1</tessellate>
			<outerBoundaryIs>
				<LinearRing>
					<coordinates>
						 -118.658976,34.270962,0 -118.638400,34.265189,0 -118.643648,34.252296,0 -118.664222,34.258068,0 -118.658976,34.270962,0 
					</coordinates>
				</LinearRing>
			</outerBoundaryIs>
		</Polygon>
	</Placemark>
	<Placemark>
		<name>TEST1</name>
		<styleUrl>#flt2kml_00093</styleUrl>
		<Polygon>
			<tessellate>1</tessellate>
			<outerBoundaryIs>
				<LinearRing>
					<coordinates>
						 -118.638400,34.265189,0 -118.617826,34.259412,0 -118.623078,34.246521,0 -118.643649,34.252296,0 -118.638400,34.265189,0 
					</coordinates>
				</LinearRing>
			</outerBoundaryIs>
		</Polygon>
	</Placemark>
	<Placemark>
		<name>TEST1</name>
		<styleUrl>#flt2kml_00094</styleUrl>
		<Polygon>
			<tessellate>1</tessellate>
			<outerBoundaryIs>
				<LinearRing>
					<coordinates>
						 -118.617827,34.259412,0 -118.597255,34.253633,0 -118.602510,34.240742,0 -118.623078,34.246521,0 -118.617827,34.259412,0 
					</coordinates>
				</LinearRing>
			</outerBoundaryIs>
		</Polygon>
	</Placemark>
	<Placemark>
		<name>TEST1</name>
		<styleUrl>#flt2kml_00095</styleUrl>
		<Polygon>
			<tessellate>1</tessellate>
			<outerBoundaryIs>
				<LinearRing>
					<coordinates>
						 -118.597256,34.253633,0 -118.576687,34.247849,0 -118.581944,34.234959,0 -118.602510,34.240742,0 -118.597256,34.253633,0 
					</coordinates>
				</LinearRing>
			</outerBoundaryIs>
		</Polygon>
	</Placemark>
	<Placemark>
		<name>TEST1</name>
		<styleUrl>#flt2kml_00096</styleUrl>
		<Polygon>
			<tessellate>1</tessellate>
			<outerBoundaryIs>
				<LinearRing>
					<coordinates>
						 -118.576687,34.247849,0 -118.556122,34.242062,0 -118.561381,34.229173,0 -118.581944,34.234959,0 -118.576687,34.247849,0 
					</coordinates>
				</LinearRing>
			</outerBoundaryIs>
		</Polygon>
	</Placemark>
	<Placemark>
		<name>TEST1</name>
		<styleUrl>#flt2kml_00097</styleUrl>
		<Polygon>
			<tessellate>1</tessellate>
			<outerBoundaryIs>
				<LinearRing>
					<coordinates>
						 -118.556121,34.242062,0 -118.535558,34.236272,0 -118.540820,34.223384,0 -118.561381,34.229173,0 -118.556121,34.242062,0 
					</coordinates>
				</LinearRing>
			</outerBoundaryIs>
		</Polygon>
	</Placemark>
	<Placemark>
		<name>TEST1</name>
		<styleUrl>#flt2kml_00098</styleUrl>
		<Polygon>
			<tessellate>1</tessellate>
			<outerBoundaryIs>
				<LinearRing>
					<coordinates>
						 -118.535558,34.236272,0 -118.514998,34.230478,0 -118.520263,34.217590,0 -118.540821,34.223384,0 -118.535558,34.236272,0 
					</coordinates>
				</LinearRing>
			</outerBoundaryIs>
		</Polygon>
	</Placemark>
	<Placemark>
		<name>TEST1</name>
		<styleUrl>#flt2kml_00099</styleUrl>
		<Polygon>
			<tessellate>1</tessellate>
			<outerBoundaryIs>
				<LinearRing>
					<coordinates>
						 -118.514998,34.230478,0 -118.494440,34.224680,0 -118.499708,34.211794,0 -118.520263,34.217590,0 -118.514998,34.230478,0 
					</coordinates>
				</LinearRing>
			</outerBoundaryIs>
		</Polygon>
	</Placemark>
	<Placemark>
		<name>TEST1</name>
		<styleUrl>#flt2kml_00100</styleUrl>
		<Polygon>
			<tessellate>1</tessellate>
			<outerBoundaryIs>
				<LinearRing>
					<coordinates>
						 -118.494440,34.224680,0 -118.473885,34.218879,0 -118.479157,34.205993,0 -118.499709,34.211794,0 -118.494440,34.224680,0 
					</coordinates>
				</LinearRing>
			</outerBoundaryIs>
		</Polygon>
	</Placemark>
	<Placemark>
		<name>TEST1</name>
		<styleUrl>#flt2kml_00101</styleUrl>
		<Polygon>
			<tessellate>1</tessellate>
			<outerBoundaryIs>
				<LinearRing>
					<coordinates>
						 -118.684799,34.263836,0 -118.664222,34.258068,0 -118.669467,34.245175,0 -118.690040,34.250942,0 -118.684799,34.263836,0 
					</coordinates>
				</LinearRing>
			</outerBoundaryIs>
		</Polygon>
	</Placemark>
	<Placemark>
		<name>TEST1</name>
		<styleUrl>#flt2kml_00102</styleUrl>
		<Polygon>
			<tessellate>1</tessellate>
			<outerBoundaryIs>
				<LinearRing>
					<coordinates>
						 -118.664223,34.258068,0 -118.643649,34.252296,0 -118.648896,34.239403,0 -118.669467,34.245175,0 -118.664223,34.258068,0 
					</coordinates>
				</LinearRing>
			</outerBoundaryIs>
		</Polygon>
	</Placemark>
	<Placemark>
		<name>TEST1</name>
		<styleUrl>#flt2kml_00103</styleUrl>
		<Polygon>
			<tessellate>1</tessellate>
			<outerBoundaryIs>
				<LinearRing>
					<coordinates>
						 -118.643648,34.252296,0 -118.623077,34.246521,0 -118.628327,34.233629,0 -118.648895,34.239404,0 -118.643648,34.252296,0 
					</coordinates>
				</LinearRing>
			</outerBoundaryIs>
		</Polygon>
	</Placemark>
	<Placemark>
		<name>TEST1</name>
		<styleUrl>#flt2kml_00104</styleUrl>
		<Polygon>
			<tessellate>1</tessellate>
			<outerBoundaryIs>
				<LinearRing>
					<coordinates>
						 -118.623077,34.246521,0 -118.602509,34.240741,0 -118.607762,34.227851,0 -118.628327,34.233629,0 -118.623077,34.246521,0 
					</coordinates>
				</LinearRing>
			</outerBoundaryIs>
		</Polygon>
	</Placemark>
	<Placemark>
		<name>TEST1</name>
		<styleUrl>#flt2kml_00105</styleUrl>
		<Polygon>
			<tessellate>1</tessellate>
			<outerBoundaryIs>
				<LinearRing>
					<coordinates>
						 -118.602509,34.240742,0 -118.581944,34.234959,0 -118.587199,34.222069,0 -118.607762,34.227851,0 -118.602509,34.240742,0 
					</coordinates>
				</LinearRing>
			</outerBoundaryIs>
		</Polygon>
	</Placemark>
	<Placemark>
		<name>TEST1</name>
		<styleUrl>#flt2kml_00106</styleUrl>
		<Polygon>
			<tessellate>1</tessellate>
			<outerBoundaryIs>
				<LinearRing>
					<coordinates>
						 -118.581944,34.234959,0 -118.561381,34.229173,0 -118.566639,34.216283,0 -118.587199,34.222069,0 -118.581944,34.234959,0 
					</coordinates>
				</LinearRing>
			</outerBoundaryIs>
		</Polygon>
	</Placemark>
	<Placemark>
		<name>TEST1</name>
		<styleUrl>#flt2kml_00107</styleUrl>
		<Polygon>
			<tessellate>1</tessellate>
			<outerBoundaryIs>
				<LinearRing>
					<coordinates>
						 -118.561381,34.229173,0 -118.540821,34.223383,0 -118.546082,34.210495,0 -118.566640,34.216283,0 -118.561381,34.229173,0 
					</coordinates>
				</LinearRing>
			</outerBoundaryIs>
		</Polygon>
	</Placemark>
	<Placemark>
		<name>TEST1</name>
		<styleUrl>#flt2kml_00108</styleUrl>
		<Polygon>
			<tessellate>1</tessellate>
			<outerBoundaryIs>
				<LinearRing>
					<coordinates>
						 -118.540821,34.223383,0 -118.520264,34.217590,0 -118.525528,34.204702,0 -118.546082,34.210495,0 -118.540821,34.223383,0 
					</coordinates>
				</LinearRing>
			</outerBoundaryIs>
		</Polygon>
	</Placemark>
	<Placemark>
		<name>TEST1</name>
		<styleUrl>#flt2kml_00109</styleUrl>
		<Polygon>
			<tessellate>1</tessellate>
			<outerBoundaryIs>
				<LinearRing>
					<coordinates>
						 -118.520264,34.217590,0 -118.499709,34.211793,0 -118.504976,34.198906,0 -118.525528,34.204702,0 -118.520264,34.217590,0 
					</coordinates>
				</LinearRing>
			</outerBoundaryIs>
		</Polygon>
	</Placemark>
	<Placemark>
		<name>TEST1</name>
		<styleUrl>#flt2kml_00110</styleUrl>
		<Polygon>
			<tessellate>1</tessellate>
			<outerBoundaryIs>
				<LinearRing>
					<coordinates>
						 -118.499708,34.211793,0 -118.479156,34.205993,0 -118.484426,34.193107,0 -118.504975,34.198906,0 -118.499708,34.211793,0 
					</coordinates>
				</LinearRing>
			</outerBoundaryIs>
		</Polygon>
	</Placemark>
	<Placemark>
		<name>TEST1</name>
		<styleUrl>#flt2kml_00111</styleUrl>
		<Polygon>
			<tessellate>1</tessellate>
			<outerBoundaryIs>
				<LinearRing>
					<coordinates>
						 -118.690040,34.250943,0 -118.669466,34.245175,0 -118.674709,34.232282,0 -118.695279,34.238049,0 -118.690040,34.250943,0 
					</coordinates>
				</LinearRing>
			</outerBoundaryIs>
		</Polygon>
	</Placemark>
	<Placemark>
		<name>TEST1</name>
		<styleUrl>#flt2kml_00112</styleUrl>
		<Polygon>
			<tessellate>1</tessellate>
			<outerBoundaryIs>
				<LinearRing>
					<coordinates>
						 -118.669466,34.245175,0 -118.648896,34.239404,0 -118.654141,34.226511,0 -118.674709,34.232282,0 -118.669466,34.245175,0 
					</coordinates>
				</LinearRing>
			</outerBoundaryIs>
		</Polygon>
	</Placemark>
	<Placemark>
		<name>TEST1</name>
		<styleUrl>#flt2kml_00113</styleUrl>
		<Polygon>
			<tessellate>1</tessellate>
			<outerBoundaryIs>
				<LinearRing>
					<coordinates>
						 -118.648896,34.239404,0 -118.628328,34.233629,0 -118.633576,34.220737,0 -118.654141,34.226511,0 -118.648896,34.239404,0 
					</coordinates>
				</LinearRing>
			</outerBoundaryIs>
		</Polygon>
	</Placemark>
	<Placemark>
		<name>TEST1</name>
		<styleUrl>#flt2kml_00114</styleUrl>
		<Polygon>
			<tessellate>1</tessellate>
			<outerBoundaryIs>
				<LinearRing>
					<coordinates>
						 -118.628328,34.233629,0 -118.607762,34.227851,0 -118.613013,34.214960,0 -118.633576,34.220737,0 -118.628328,34.233629,0 
					</coordinates>
				</LinearRing>
			</outerBoundaryIs>
		</Polygon>
	</Placemark>
	<Placemark>
		<name>TEST1</name>
		<styleUrl>#flt2kml_00115</styleUrl>
		<Polygon>
			<tessellate>1</tessellate>
			<outerBoundaryIs>
				<LinearRing>
					<coordinates>
						 -118.607762,34.227851,0 -118.587199,34.222069,0 -118.592453,34.209179,0 -118.613013,34.214960,0 -118.607762,34.227851,0 
					</coordinates>
				</LinearRing>
			</outerBoundaryIs>
		</Polygon>
	</Placemark>
	<Placemark>
		<name>TEST1</name>
		<styleUrl>#flt2kml_00116</styleUrl>
		<Polygon>
			<tessellate>1</tessellate>
			<outerBoundaryIs>
				<LinearRing>
					<coordinates>
						 -118.587199,34.222068,0 -118.566639,34.216283,0 -118.571896,34.203393,0 -118.592453,34.209178,0 -118.587199,34.222068,0 
					</coordinates>
				</LinearRing>
			</outerBoundaryIs>
		</Polygon>
	</Placemark>
	<Placemark>
		<name>TEST1</name>
		<styleUrl>#flt2kml_00117</styleUrl>
		<Polygon>
			<tessellate>1</tessellate>
			<outerBoundaryIs>
				<LinearRing>
					<coordinates>
						 -118.566639,34.216283,0 -118.546082,34.210494,0 -118.551341,34.197605,0 -118.571896,34.203394,0 -118.566639,34.216283,0 
					</coordinates>
				</LinearRing>
			</outerBoundaryIs>
		</Polygon>
	</Placemark>
	<Placemark>
		<name>TEST1</name>
		<styleUrl>#flt2kml_00118</styleUrl>
		<Polygon>
			<tessellate>1</tessellate>
			<outerBoundaryIs>
				<LinearRing>
					<coordinates>
						 -118.546082,34.210494,0 -118.525527,34.204702,0 -118.530790,34.191814,0 -118.551342,34.197605,0 -118.546082,34.210494,0 
					</coordinates>
				</LinearRing>
			</outerBoundaryIs>
		</Polygon>
	</Placemark>
	<Placemark>
		<name>TEST1</name>
		<styleUrl>#flt2kml_00119</styleUrl>
		<Polygon>
			<tessellate>1</tessellate>
			<outerBoundaryIs>
				<LinearRing>
					<coordinates>
						 -118.525528,34.204702,0 -118.504976,34.198906,0 -118.510241,34.186019,0 -118.530790,34.191814,0 -118.525528,34.204702,0 
					</coordinates>
				</LinearRing>
			</outerBoundaryIs>
		</Polygon>
	</Placemark>
	<Placemark>
		<name>TEST1</name>
		<styleUrl>#flt2kml_00120</styleUrl>
		<Polygon>
			<tessellate>1</tessellate>
			<outerBoundaryIs>
				<LinearRing>
					<coordinates>
						 -118.504976,34.198906,0 -118.484427,34.193107,0 -118.489695,34.180220,0 -118.510241,34.186019,0 -118.504976,34.198906,0 
					</coordinates>
				</LinearRing>
			</outerBoundaryIs>
		</Polygon>
	</Placemark>
	<Placemark>
		<name>TEST1</name>
		<styleUrl>#flt2kml_00121</styleUrl>
		<Polygon>
			<tessellate>1</tessellate>
			<outerBoundaryIs>
				<LinearRing>
					<coordinates>
						 -118.695279,34.238048,0 -118.674708,34.232281,0 -118.679949,34.219388,0 -118.700517,34.225154,0 -118.695279,34.238048,0 
					</coordinates>
				</LinearRing>
			</outerBoundaryIs>
		</Polygon>
	</Placemark>
	<Placemark>
		<name>TEST1</name>
		<styleUrl>#flt2kml_00122</styleUrl>
		<Polygon>
			<tessellate>1</tessellate>
			<outerBoundaryIs>
				<LinearRing>
					<coordinates>
						 -118.674708,34.232281,0 -118.654141,34.226511,0 -118.659384,34.213618,0 -118.679949,34.219388,0 -118.674708,34.232281,0 
					</coordinates>
				</LinearRing>
			</outerBoundaryIs>
		</Polygon>
	</Placemark>
	<Placemark>
		<name>TEST1</name>
		<styleUrl>#flt2kml_00123</styleUrl>
		<Polygon>
			<tessellate>1</tessellate>
			<outerBoundaryIs>
				<LinearRing>
					<coordinates>
						 -118.654141,34.226511,0 -118.633575,34.220737,0 -118.638822,34.207845,0 -118.659385,34.213618,0 -118.654141,34.226511,0 
					</coordinates>
				</LinearRing>
			</outerBoundaryIs>
		</Polygon>
	</Placemark>
	<Placemark>
		<name>TEST1</name>
		<styleUrl>#flt2kml_00124</styleUrl>
		<Polygon>
			<tessellate>1</tessellate>
			<outerBoundaryIs>
				<LinearRing>
					<coordinates>
						 -118.633576,34.220737,0 -118.613013,34.214960,0 -118.618263,34.202068,0 -118.638822,34.207845,0 -118.633576,34.220737,0 
					</coordinates>
				</LinearRing>
			</outerBoundaryIs>
		</Polygon>
	</Placemark>
	<Placemark>
		<name>TEST1</name>
		<styleUrl>#flt2kml_00125</styleUrl>
		<Polygon>
			<tessellate>1</tessellate>
			<outerBoundaryIs>
				<LinearRing>
					<coordinates>
						 -118.613013,34.214960,0 -118.592453,34.209179,0 -118.597706,34.196288,0 -118.618263,34.202068,0 -118.613013,34.214960,0 
					</coordinates>
				</LinearRing>
			</outerBoundaryIs>
		</Polygon>
	</Placemark>
	<Placemark>
		<name>TEST1</name>
		<styleUrl>#flt2kml_00126</styleUrl>
		<Polygon>
			<tessellate>1</tessellate>
			<outerBoundaryIs>
				<LinearRing>
					<coordinates>
						 -118.592454,34.209179,0 -118.571896,34.203394,0 -118.577152,34.190504,0 -118.597706,34.196288,0 -118.592454,34.209179,0 
					</coordinates>
				</LinearRing>
			</outerBoundaryIs>
		</Polygon>
	</Placemark>
	<Placemark>
		<name>TEST1</name>
		<styleUrl>#flt2kml_00127</styleUrl>
		<Polygon>
			<tessellate>1</tessellate>
			<outerBoundaryIs>
				<LinearRing>
					<coordinates>
						 -118.571897,34.203394,0 -118.551342,34.197606,0 -118.556600,34.184717,0 -118.577152,34.190504,0 -118.571897,34.203394,0 
					</coordinates>
				</LinearRing>
			</outerBoundaryIs>
		</Polygon>
	</Placemark>
	<Placemark>
		<name>TEST1</name>
		<styleUrl>#flt2kml_00128</styleUrl>
		<Polygon>
			<tessellate>1</tessellate>
			<outerBoundaryIs>
				<LinearRing>
					<coordinates>
						 -118.551341,34.197606,0 -118.530789,34.191814,0 -118.536050,34.178926,0 -118.556599,34.184717,0 -118.551341,34.197606,0 
					</coordinates>
				</LinearRing>
			</outerBoundaryIs>
		</Polygon>
	</Placemark>
	<Placemark>
		<name>TEST1</name>
		<styleUrl>#flt2kml_00129</styleUrl>
		<Polygon>
			<tessellate>1</tessellate>
			<outerBoundaryIs>
				<LinearRing>
					<coordinates>
						 -118.530790,34.191814,0 -118.510240,34.186019,0 -118.515504,34.173132,0 -118.536050,34.178926,0 -118.530790,34.191814,0 
					</coordinates>
				</LinearRing>
			</outerBoundaryIs>
		</Polygon>
	</Placemark>
	<Placemark>
		<name>TEST1</name>
		<styleUrl>#flt2kml_00130</styleUrl>
		<Polygon>
			<tessellate>1</tessellate>
			<outerBoundaryIs>
				<LinearRing>
					<coordinates>
						 -118.510241,34.186019,0 -118.489694,34.180221,0 -118.494961,34.167334,0 -118.515504,34.173132,0 -118.510241,34.186019,0 
					</coordinates>
				</LinearRing>
			</outerBoundaryIs>
		</Polygon>
	</Placemark>
</Document>
</kml>
