<?xml version="1.0" encoding="UTF-8"?>
<kml xmlns="http://www.opengis.net/kml/2.2" xmlns:gx="http://www.google.com/kml/ext/2.2" xmlns:kml="http://www.opengis.net/kml/2.2" xmlns:atom="http://www.w3.org/2005/Atom">
<Document>
	<name>japan/tohoku11/faults/bletery+14.kml</name>
	<Style>
		<ListStyle>
			<listItemType>checkHideChildren</listItemType>
		</ListStyle>
	</Style>
	<Style id="flt2kml_00001">
		<LineStyle>
			<color>bb930000</color>
		</LineStyle>
		<PolyStyle>
			<color>cc930000</color>
		</PolyStyle>
	</Style>
	<Style id="flt2kml_00002">
		<LineStyle>
			<color>bb890000</color>
		</LineStyle>
		<PolyStyle>
			<color>cc890000</color>
		</PolyStyle>
	</Style>
	<Style id="flt2kml_00003">
		<LineStyle>
			<color>bb930000</color>
		</LineStyle>
		<PolyStyle>
			<color>cc930000</color>
		</PolyStyle>
	</Style>
	<Style id="flt2kml_00004">
		<LineStyle>
			<color>bbc50000</color>
		</LineStyle>
		<PolyStyle>
			<color>ccc50000</color>
		</PolyStyle>
	</Style>
	<Style id="flt2kml_00005">
		<LineStyle>
			<color>bbcf0000</color>
		</LineStyle>
		<PolyStyle>
			<color>cccf0000</color>
		</PolyStyle>
	</Style>
	<Style id="flt2kml_00006">
		<LineStyle>
			<color>bbff5400</color>
		</LineStyle>
		<PolyStyle>
			<color>ccff5400</color>
		</PolyStyle>
	</Style>
	<Style id="flt2kml_00007">
		<LineStyle>
			<color>bbffa300</color>
		</LineStyle>
		<PolyStyle>
			<color>ccffa300</color>
		</PolyStyle>
	</Style>
	<Style id="flt2kml_00008">
		<LineStyle>
			<color>bbe30000</color>
		</LineStyle>
		<PolyStyle>
			<color>cce30000</color>
		</PolyStyle>
	</Style>
	<Style id="flt2kml_00009">
		<LineStyle>
			<color>bbff0400</color>
		</LineStyle>
		<PolyStyle>
			<color>ccff0400</color>
		</PolyStyle>
	</Style>
	<Style id="flt2kml_00010">
		<LineStyle>
			<color>bbc50000</color>
		</LineStyle>
		<PolyStyle>
			<color>ccc50000</color>
		</PolyStyle>
	</Style>
	<Style id="flt2kml_00011">
		<LineStyle>
			<color>bbc50000</color>
		</LineStyle>
		<PolyStyle>
			<color>ccc50000</color>
		</PolyStyle>
	</Style>
	<Style id="flt2kml_00012">
		<LineStyle>
			<color>bbb10000</color>
		</LineStyle>
		<PolyStyle>
			<color>ccb10000</color>
		</PolyStyle>
	</Style>
	<Style id="flt2kml_00013">
		<LineStyle>
			<color>bbbb0000</color>
		</LineStyle>
		<PolyStyle>
			<color>ccbb0000</color>
		</PolyStyle>
	</Style>
	<Style id="flt2kml_00014">
		<LineStyle>
			<color>bb890000</color>
		</LineStyle>
		<PolyStyle>
			<color>cc890000</color>
		</PolyStyle>
	</Style>
	<Style id="flt2kml_00015">
		<LineStyle>
			<color>bba70000</color>
		</LineStyle>
		<PolyStyle>
			<color>cca70000</color>
		</PolyStyle>
	</Style>
	<Style id="flt2kml_00016">
		<LineStyle>
			<color>bbbb0000</color>
		</LineStyle>
		<PolyStyle>
			<color>ccbb0000</color>
		</PolyStyle>
	</Style>
	<Style id="flt2kml_00017">
		<LineStyle>
			<color>bbff4000</color>
		</LineStyle>
		<PolyStyle>
			<color>ccff4000</color>
		</PolyStyle>
	</Style>
	<Style id="flt2kml_00018">
		<LineStyle>
			<color>bbff0400</color>
		</LineStyle>
		<PolyStyle>
			<color>ccff0400</color>
		</PolyStyle>
	</Style>
	<Style id="flt2kml_00019">
		<LineStyle>
			<color>bbffa300</color>
		</LineStyle>
		<PolyStyle>
			<color>ccffa300</color>
		</PolyStyle>
	</Style>
	<Style id="flt2kml_00020">
		<LineStyle>
			<color>bbff4000</color>
		</LineStyle>
		<PolyStyle>
			<color>ccff4000</color>
		</PolyStyle>
	</Style>
	<Style id="flt2kml_00021">
		<LineStyle>
			<color>bbfff300</color>
		</LineStyle>
		<PolyStyle>
			<color>ccfff300</color>
		</PolyStyle>
	</Style>
	<Style id="flt2kml_00022">
		<LineStyle>
			<color>bbc50000</color>
		</LineStyle>
		<PolyStyle>
			<color>ccc50000</color>
		</PolyStyle>
	</Style>
	<Style id="flt2kml_00023">
		<LineStyle>
			<color>bbc50000</color>
		</LineStyle>
		<PolyStyle>
			<color>ccc50000</color>
		</PolyStyle>
	</Style>
	<Style id="flt2kml_00024">
		<LineStyle>
			<color>bba70000</color>
		</LineStyle>
		<PolyStyle>
			<color>cca70000</color>
		</PolyStyle>
	</Style>
	<Style id="flt2kml_00025">
		<LineStyle>
			<color>bba70000</color>
		</LineStyle>
		<PolyStyle>
			<color>cca70000</color>
		</PolyStyle>
	</Style>
	<Style id="flt2kml_00026">
		<LineStyle>
			<color>bb930000</color>
		</LineStyle>
		<PolyStyle>
			<color>cc930000</color>
		</PolyStyle>
	</Style>
	<Style id="flt2kml_00027">
		<LineStyle>
			<color>bb890000</color>
		</LineStyle>
		<PolyStyle>
			<color>cc890000</color>
		</PolyStyle>
	</Style>
	<Style id="flt2kml_00028">
		<LineStyle>
			<color>bba70000</color>
		</LineStyle>
		<PolyStyle>
			<color>cca70000</color>
		</PolyStyle>
	</Style>
	<Style id="flt2kml_00029">
		<LineStyle>
			<color>bbc50000</color>
		</LineStyle>
		<PolyStyle>
			<color>ccc50000</color>
		</PolyStyle>
	</Style>
	<Style id="flt2kml_00030">
		<LineStyle>
			<color>bbff4000</color>
		</LineStyle>
		<PolyStyle>
			<color>ccff4000</color>
		</PolyStyle>
	</Style>
	<Style id="flt2kml_00031">
		<LineStyle>
			<color>bbffff38</color>
		</LineStyle>
		<PolyStyle>
			<color>ccffff38</color>
		</PolyStyle>
	</Style>
	<Style id="flt2kml_00032">
		<LineStyle>
			<color>bb00d2ff</color>
		</LineStyle>
		<PolyStyle>
			<color>cc00d2ff</color>
		</PolyStyle>
	</Style>
	<Style id="flt2kml_00033">
		<LineStyle>
			<color>bbffffd7</color>
		</LineStyle>
		<PolyStyle>
			<color>ccffffd7</color>
		</PolyStyle>
	</Style>
	<Style id="flt2kml_00034">
		<LineStyle>
			<color>bbffb700</color>
		</LineStyle>
		<PolyStyle>
			<color>ccffb700</color>
		</PolyStyle>
	</Style>
	<Style id="flt2kml_00035">
		<LineStyle>
			<color>bbff8f00</color>
		</LineStyle>
		<PolyStyle>
			<color>ccff8f00</color>
		</PolyStyle>
	</Style>
	<Style id="flt2kml_00036">
		<LineStyle>
			<color>bbff0400</color>
		</LineStyle>
		<PolyStyle>
			<color>ccff0400</color>
		</PolyStyle>
	</Style>
	<Style id="flt2kml_00037">
		<LineStyle>
			<color>bba70000</color>
		</LineStyle>
		<PolyStyle>
			<color>cca70000</color>
		</PolyStyle>
	</Style>
	<Style id="flt2kml_00038">
		<LineStyle>
			<color>bb9d0000</color>
		</LineStyle>
		<PolyStyle>
			<color>cc9d0000</color>
		</PolyStyle>
	</Style>
	<Style id="flt2kml_00039">
		<LineStyle>
			<color>bb890000</color>
		</LineStyle>
		<PolyStyle>
			<color>cc890000</color>
		</PolyStyle>
	</Style>
	<Style id="flt2kml_00040">
		<LineStyle>
			<color>bb7f0000</color>
		</LineStyle>
		<PolyStyle>
			<color>cc7f0000</color>
		</PolyStyle>
	</Style>
	<Style id="flt2kml_00041">
		<LineStyle>
			<color>bb7f0000</color>
		</LineStyle>
		<PolyStyle>
			<color>cc7f0000</color>
		</PolyStyle>
	</Style>
	<Style id="flt2kml_00042">
		<LineStyle>
			<color>bb7f0000</color>
		</LineStyle>
		<PolyStyle>
			<color>cc7f0000</color>
		</PolyStyle>
	</Style>
	<Style id="flt2kml_00043">
		<LineStyle>
			<color>bb7f0000</color>
		</LineStyle>
		<PolyStyle>
			<color>cc7f0000</color>
		</PolyStyle>
	</Style>
	<Style id="flt2kml_00044">
		<LineStyle>
			<color>bb890000</color>
		</LineStyle>
		<PolyStyle>
			<color>cc890000</color>
		</PolyStyle>
	</Style>
	<Style id="flt2kml_00045">
		<LineStyle>
			<color>bb890000</color>
		</LineStyle>
		<PolyStyle>
			<color>cc890000</color>
		</PolyStyle>
	</Style>
	<Style id="flt2kml_00046">
		<LineStyle>
			<color>bb890000</color>
		</LineStyle>
		<PolyStyle>
			<color>cc890000</color>
		</PolyStyle>
	</Style>
	<Style id="flt2kml_00047">
		<LineStyle>
			<color>bb890000</color>
		</LineStyle>
		<PolyStyle>
			<color>cc890000</color>
		</PolyStyle>
	</Style>
	<Style id="flt2kml_00048">
		<LineStyle>
			<color>bb890000</color>
		</LineStyle>
		<PolyStyle>
			<color>cc890000</color>
		</PolyStyle>
	</Style>
	<Style id="flt2kml_00049">
		<LineStyle>
			<color>bb930000</color>
		</LineStyle>
		<PolyStyle>
			<color>cc930000</color>
		</PolyStyle>
	</Style>
	<Style id="flt2kml_00050">
		<LineStyle>
			<color>bb890000</color>
		</LineStyle>
		<PolyStyle>
			<color>cc890000</color>
		</PolyStyle>
	</Style>
	<Style id="flt2kml_00051">
		<LineStyle>
			<color>bb7f0000</color>
		</LineStyle>
		<PolyStyle>
			<color>cc7f0000</color>
		</PolyStyle>
	</Style>
	<Style id="flt2kml_00052">
		<LineStyle>
			<color>bb7f0000</color>
		</LineStyle>
		<PolyStyle>
			<color>cc7f0000</color>
		</PolyStyle>
	</Style>
	<Style id="flt2kml_00053">
		<LineStyle>
			<color>bb7f0000</color>
		</LineStyle>
		<PolyStyle>
			<color>cc7f0000</color>
		</PolyStyle>
	</Style>
	<Style id="flt2kml_00054">
		<LineStyle>
			<color>bb7f0000</color>
		</LineStyle>
		<PolyStyle>
			<color>cc7f0000</color>
		</PolyStyle>
	</Style>
	<Style id="flt2kml_00055">
		<LineStyle>
			<color>bb7f0000</color>
		</LineStyle>
		<PolyStyle>
			<color>cc7f0000</color>
		</PolyStyle>
	</Style>
	<Style id="flt2kml_00056">
		<LineStyle>
			<color>bb7f0000</color>
		</LineStyle>
		<PolyStyle>
			<color>cc7f0000</color>
		</PolyStyle>
	</Style>
	<Style id="flt2kml_00057">
		<LineStyle>
			<color>bb7f0000</color>
		</LineStyle>
		<PolyStyle>
			<color>cc7f0000</color>
		</PolyStyle>
	</Style>
	<Style id="flt2kml_00058">
		<LineStyle>
			<color>bb890000</color>
		</LineStyle>
		<PolyStyle>
			<color>cc890000</color>
		</PolyStyle>
	</Style>
	<Style id="flt2kml_00059">
		<LineStyle>
			<color>bb7f0000</color>
		</LineStyle>
		<PolyStyle>
			<color>cc7f0000</color>
		</PolyStyle>
	</Style>
	<Style id="flt2kml_00060">
		<LineStyle>
			<color>bb890000</color>
		</LineStyle>
		<PolyStyle>
			<color>cc890000</color>
		</PolyStyle>
	</Style>
	<Style id="flt2kml_00061">
		<LineStyle>
			<color>bb930000</color>
		</LineStyle>
		<PolyStyle>
			<color>cc930000</color>
		</PolyStyle>
	</Style>
	<Style id="flt2kml_00062">
		<LineStyle>
			<color>bb9d0000</color>
		</LineStyle>
		<PolyStyle>
			<color>cc9d0000</color>
		</PolyStyle>
	</Style>
	<Style id="flt2kml_00063">
		<LineStyle>
			<color>bb7f0000</color>
		</LineStyle>
		<PolyStyle>
			<color>cc7f0000</color>
		</PolyStyle>
	</Style>
	<Style id="flt2kml_00064">
		<LineStyle>
			<color>bb7f0000</color>
		</LineStyle>
		<PolyStyle>
			<color>cc7f0000</color>
		</PolyStyle>
	</Style>
	<Style id="flt2kml_00065">
		<LineStyle>
			<color>bb7f0000</color>
		</LineStyle>
		<PolyStyle>
			<color>cc7f0000</color>
		</PolyStyle>
	</Style>
	<Style id="flt2kml_00066">
		<LineStyle>
			<color>bb7f0000</color>
		</LineStyle>
		<PolyStyle>
			<color>cc7f0000</color>
		</PolyStyle>
	</Style>
	<Style id="flt2kml_00067">
		<LineStyle>
			<color>bb890000</color>
		</LineStyle>
		<PolyStyle>
			<color>cc890000</color>
		</PolyStyle>
	</Style>
	<Style id="flt2kml_00068">
		<LineStyle>
			<color>bb890000</color>
		</LineStyle>
		<PolyStyle>
			<color>cc890000</color>
		</PolyStyle>
	</Style>
	<Style id="flt2kml_00069">
		<LineStyle>
			<color>bbcf0000</color>
		</LineStyle>
		<PolyStyle>
			<color>cccf0000</color>
		</PolyStyle>
	</Style>
	<Style id="flt2kml_00070">
		<LineStyle>
			<color>bbbb0000</color>
		</LineStyle>
		<PolyStyle>
			<color>ccbb0000</color>
		</PolyStyle>
	</Style>
	<Style id="flt2kml_00071">
		<LineStyle>
			<color>bb9d0000</color>
		</LineStyle>
		<PolyStyle>
			<color>cc9d0000</color>
		</PolyStyle>
	</Style>
	<Style id="flt2kml_00072">
		<LineStyle>
			<color>bbff4000</color>
		</LineStyle>
		<PolyStyle>
			<color>ccff4000</color>
		</PolyStyle>
	</Style>
	<Style id="flt2kml_00073">
		<LineStyle>
			<color>bbff0400</color>
		</LineStyle>
		<PolyStyle>
			<color>ccff0400</color>
		</PolyStyle>
	</Style>
	<Style id="flt2kml_00074">
		<LineStyle>
			<color>bbb10000</color>
		</LineStyle>
		<PolyStyle>
			<color>ccb10000</color>
		</PolyStyle>
	</Style>
	<Style id="flt2kml_00075">
		<LineStyle>
			<color>bb9d0000</color>
		</LineStyle>
		<PolyStyle>
			<color>cc9d0000</color>
		</PolyStyle>
	</Style>
	<Style id="flt2kml_00076">
		<LineStyle>
			<color>bb930000</color>
		</LineStyle>
		<PolyStyle>
			<color>cc930000</color>
		</PolyStyle>
	</Style>
	<Style id="flt2kml_00077">
		<LineStyle>
			<color>bbb10000</color>
		</LineStyle>
		<PolyStyle>
			<color>ccb10000</color>
		</PolyStyle>
	</Style>
	<Style id="flt2kml_00078">
		<LineStyle>
			<color>bbf70000</color>
		</LineStyle>
		<PolyStyle>
			<color>ccf70000</color>
		</PolyStyle>
	</Style>
	<Style id="flt2kml_00079">
		<LineStyle>
			<color>bbff4000</color>
		</LineStyle>
		<PolyStyle>
			<color>ccff4000</color>
		</PolyStyle>
	</Style>
	<Style id="flt2kml_00080">
		<LineStyle>
			<color>bbbb0000</color>
		</LineStyle>
		<PolyStyle>
			<color>ccbb0000</color>
		</PolyStyle>
	</Style>
	<Style id="flt2kml_00081">
		<LineStyle>
			<color>bbc50000</color>
		</LineStyle>
		<PolyStyle>
			<color>ccc50000</color>
		</PolyStyle>
	</Style>
	<Style id="flt2kml_00082">
		<LineStyle>
			<color>bbff6800</color>
		</LineStyle>
		<PolyStyle>
			<color>ccff6800</color>
		</PolyStyle>
	</Style>
	<Style id="flt2kml_00083">
		<LineStyle>
			<color>bbff0400</color>
		</LineStyle>
		<PolyStyle>
			<color>ccff0400</color>
		</PolyStyle>
	</Style>
	<Style id="flt2kml_00084">
		<LineStyle>
			<color>bbe30000</color>
		</LineStyle>
		<PolyStyle>
			<color>cce30000</color>
		</PolyStyle>
	</Style>
	<Style id="flt2kml_00085">
		<LineStyle>
			<color>bbf70000</color>
		</LineStyle>
		<PolyStyle>
			<color>ccf70000</color>
		</PolyStyle>
	</Style>
	<Style id="flt2kml_00086">
		<LineStyle>
			<color>bbc50000</color>
		</LineStyle>
		<PolyStyle>
			<color>ccc50000</color>
		</PolyStyle>
	</Style>
	<Style id="flt2kml_00087">
		<LineStyle>
			<color>bbd7ffff</color>
		</LineStyle>
		<PolyStyle>
			<color>ccd7ffff</color>
		</PolyStyle>
	</Style>
	<Style id="flt2kml_00088">
		<LineStyle>
			<color>bbffdf00</color>
		</LineStyle>
		<PolyStyle>
			<color>ccffdf00</color>
		</PolyStyle>
	</Style>
	<Style id="flt2kml_00089">
		<LineStyle>
			<color>bbffdf00</color>
		</LineStyle>
		<PolyStyle>
			<color>ccffdf00</color>
		</PolyStyle>
	</Style>
	<Style id="flt2kml_00090">
		<LineStyle>
			<color>bbff2c00</color>
		</LineStyle>
		<PolyStyle>
			<color>ccff2c00</color>
		</PolyStyle>
	</Style>
	<Style id="flt2kml_00091">
		<LineStyle>
			<color>bbe30000</color>
		</LineStyle>
		<PolyStyle>
			<color>cce30000</color>
		</PolyStyle>
	</Style>
	<Style id="flt2kml_00092">
		<LineStyle>
			<color>bbff0400</color>
		</LineStyle>
		<PolyStyle>
			<color>ccff0400</color>
		</PolyStyle>
	</Style>
	<Style id="flt2kml_00093">
		<LineStyle>
			<color>bba70000</color>
		</LineStyle>
		<PolyStyle>
			<color>cca70000</color>
		</PolyStyle>
	</Style>
	<Style id="flt2kml_00094">
		<LineStyle>
			<color>bba70000</color>
		</LineStyle>
		<PolyStyle>
			<color>cca70000</color>
		</PolyStyle>
	</Style>
	<Style id="flt2kml_00095">
		<LineStyle>
			<color>bbffffaf</color>
		</LineStyle>
		<PolyStyle>
			<color>ccffffaf</color>
		</PolyStyle>
	</Style>
	<Style id="flt2kml_00096">
		<LineStyle>
			<color>bb00e2ff</color>
		</LineStyle>
		<PolyStyle>
			<color>cc00e2ff</color>
		</PolyStyle>
	</Style>
	<Style id="flt2kml_00097">
		<LineStyle>
			<color>bb0093ff</color>
		</LineStyle>
		<PolyStyle>
			<color>cc0093ff</color>
		</PolyStyle>
	</Style>
	<Style id="flt2kml_00098">
		<LineStyle>
			<color>bbffffff</color>
		</LineStyle>
		<PolyStyle>
			<color>ccffffff</color>
		</PolyStyle>
	</Style>
	<Style id="flt2kml_00099">
		<LineStyle>
			<color>bbffff10</color>
		</LineStyle>
		<PolyStyle>
			<color>ccffff10</color>
		</PolyStyle>
	</Style>
	<Style id="flt2kml_00100">
		<LineStyle>
			<color>bbff6800</color>
		</LineStyle>
		<PolyStyle>
			<color>ccff6800</color>
		</PolyStyle>
	</Style>
	<Style id="flt2kml_00101">
		<LineStyle>
			<color>bbc50000</color>
		</LineStyle>
		<PolyStyle>
			<color>ccc50000</color>
		</PolyStyle>
	</Style>
	<Style id="flt2kml_00102">
		<LineStyle>
			<color>bbe30000</color>
		</LineStyle>
		<PolyStyle>
			<color>cce30000</color>
		</PolyStyle>
	</Style>
	<Style id="flt2kml_00103">
		<LineStyle>
			<color>bbffffaf</color>
		</LineStyle>
		<PolyStyle>
			<color>ccffffaf</color>
		</PolyStyle>
	</Style>
	<Style id="flt2kml_00104">
		<LineStyle>
			<color>bb87ffff</color>
		</LineStyle>
		<PolyStyle>
			<color>cc87ffff</color>
		</PolyStyle>
	</Style>
	<Style id="flt2kml_00105">
		<LineStyle>
			<color>bbffff60</color>
		</LineStyle>
		<PolyStyle>
			<color>ccffff60</color>
		</PolyStyle>
	</Style>
	<Style id="flt2kml_00106">
		<LineStyle>
			<color>bbffdf00</color>
		</LineStyle>
		<PolyStyle>
			<color>ccffdf00</color>
		</PolyStyle>
	</Style>
	<Style id="flt2kml_00107">
		<LineStyle>
			<color>bb00d2ff</color>
		</LineStyle>
		<PolyStyle>
			<color>cc00d2ff</color>
		</PolyStyle>
	</Style>
	<Style id="flt2kml_00108">
		<LineStyle>
			<color>bb00a3ff</color>
		</LineStyle>
		<PolyStyle>
			<color>cc00a3ff</color>
		</PolyStyle>
	</Style>
	<Style id="flt2kml_00109">
		<LineStyle>
			<color>bb0023ff</color>
		</LineStyle>
		<PolyStyle>
			<color>cc0023ff</color>
		</PolyStyle>
	</Style>
	<Style id="flt2kml_00110">
		<LineStyle>
			<color>bb00c2ff</color>
		</LineStyle>
		<PolyStyle>
			<color>cc00c2ff</color>
		</PolyStyle>
	</Style>
	<Style id="flt2kml_00111">
		<LineStyle>
			<color>bbffffaf</color>
		</LineStyle>
		<PolyStyle>
			<color>ccffffaf</color>
		</PolyStyle>
	</Style>
	<Style id="flt2kml_00112">
		<LineStyle>
			<color>bbafffff</color>
		</LineStyle>
		<PolyStyle>
			<color>ccafffff</color>
		</PolyStyle>
	</Style>
	<Style id="flt2kml_00113">
		<LineStyle>
			<color>bb0043ff</color>
		</LineStyle>
		<PolyStyle>
			<color>cc0043ff</color>
		</PolyStyle>
	</Style>
	<Style id="flt2kml_00114">
		<LineStyle>
			<color>bb0093ff</color>
		</LineStyle>
		<PolyStyle>
			<color>cc0093ff</color>
		</PolyStyle>
	</Style>
	<Style id="flt2kml_00115">
		<LineStyle>
			<color>bb87ffff</color>
		</LineStyle>
		<PolyStyle>
			<color>cc87ffff</color>
		</PolyStyle>
	</Style>
	<Style id="flt2kml_00116">
		<LineStyle>
			<color>bbffff38</color>
		</LineStyle>
		<PolyStyle>
			<color>ccffff38</color>
		</PolyStyle>
	</Style>
	<Style id="flt2kml_00117">
		<LineStyle>
			<color>bb00f2ff</color>
		</LineStyle>
		<PolyStyle>
			<color>cc00f2ff</color>
		</PolyStyle>
	</Style>
	<Style id="flt2kml_00118">
		<LineStyle>
			<color>bbafffff</color>
		</LineStyle>
		<PolyStyle>
			<color>ccafffff</color>
		</PolyStyle>
	</Style>
	<Style id="flt2kml_00119">
		<LineStyle>
			<color>bb00f2ff</color>
		</LineStyle>
		<PolyStyle>
			<color>cc00f2ff</color>
		</PolyStyle>
	</Style>
	<Style id="flt2kml_00120">
		<LineStyle>
			<color>bb87ffff</color>
		</LineStyle>
		<PolyStyle>
			<color>cc87ffff</color>
		</PolyStyle>
	</Style>
	<Style id="flt2kml_00121">
		<LineStyle>
			<color>bbffff87</color>
		</LineStyle>
		<PolyStyle>
			<color>ccffff87</color>
		</PolyStyle>
	</Style>
	<Style id="flt2kml_00122">
		<LineStyle>
			<color>bb0053ff</color>
		</LineStyle>
		<PolyStyle>
			<color>cc0053ff</color>
		</PolyStyle>
	</Style>
	<Style id="flt2kml_00123">
		<LineStyle>
			<color>bbd7ffff</color>
		</LineStyle>
		<PolyStyle>
			<color>ccd7ffff</color>
		</PolyStyle>
	</Style>
	<Style id="flt2kml_00124">
		<LineStyle>
			<color>bbffffff</color>
		</LineStyle>
		<PolyStyle>
			<color>ccffffff</color>
		</PolyStyle>
	</Style>
	<Style id="flt2kml_00125">
		<LineStyle>
			<color>bbffffaf</color>
		</LineStyle>
		<PolyStyle>
			<color>ccffffaf</color>
		</PolyStyle>
	</Style>
	<Style id="flt2kml_00126">
		<LineStyle>
			<color>bb00b3ff</color>
		</LineStyle>
		<PolyStyle>
			<color>cc00b3ff</color>
		</PolyStyle>
	</Style>
	<Style id="flt2kml_00127">
		<LineStyle>
			<color>bb00e2ff</color>
		</LineStyle>
		<PolyStyle>
			<color>cc00e2ff</color>
		</PolyStyle>
	</Style>
	<Style id="flt2kml_00128">
		<LineStyle>
			<color>bbd7ffff</color>
		</LineStyle>
		<PolyStyle>
			<color>ccd7ffff</color>
		</PolyStyle>
	</Style>
	<Style id="flt2kml_00129">
		<LineStyle>
			<color>bb0053ff</color>
		</LineStyle>
		<PolyStyle>
			<color>cc0053ff</color>
		</PolyStyle>
	</Style>
	<Style id="flt2kml_00130">
		<LineStyle>
			<color>bb0013ff</color>
		</LineStyle>
		<PolyStyle>
			<color>cc0013ff</color>
		</PolyStyle>
	</Style>
	<Style id="flt2kml_00131">
		<LineStyle>
			<color>bb87ffff</color>
		</LineStyle>
		<PolyStyle>
			<color>cc87ffff</color>
		</PolyStyle>
	</Style>
	<Style id="flt2kml_00132">
		<LineStyle>
			<color>bb890000</color>
		</LineStyle>
		<PolyStyle>
			<color>cc890000</color>
		</PolyStyle>
	</Style>
	<Style id="flt2kml_00133">
		<LineStyle>
			<color>bb9d0000</color>
		</LineStyle>
		<PolyStyle>
			<color>cc9d0000</color>
		</PolyStyle>
	</Style>
	<Style id="flt2kml_00134">
		<LineStyle>
			<color>bba70000</color>
		</LineStyle>
		<PolyStyle>
			<color>cca70000</color>
		</PolyStyle>
	</Style>
	<Style id="flt2kml_00135">
		<LineStyle>
			<color>bbc50000</color>
		</LineStyle>
		<PolyStyle>
			<color>ccc50000</color>
		</PolyStyle>
	</Style>
	<Style id="flt2kml_00136">
		<LineStyle>
			<color>bbff8f00</color>
		</LineStyle>
		<PolyStyle>
			<color>ccff8f00</color>
		</PolyStyle>
	</Style>
	<Style id="flt2kml_00137">
		<LineStyle>
			<color>bbe30000</color>
		</LineStyle>
		<PolyStyle>
			<color>cce30000</color>
		</PolyStyle>
	</Style>
	<Style id="flt2kml_00138">
		<LineStyle>
			<color>bbff4000</color>
		</LineStyle>
		<PolyStyle>
			<color>ccff4000</color>
		</PolyStyle>
	</Style>
	<Style id="flt2kml_00139">
		<LineStyle>
			<color>bbfff300</color>
		</LineStyle>
		<PolyStyle>
			<color>ccfff300</color>
		</PolyStyle>
	</Style>
	<Style id="flt2kml_00140">
		<LineStyle>
			<color>bb87ffff</color>
		</LineStyle>
		<PolyStyle>
			<color>cc87ffff</color>
		</PolyStyle>
	</Style>
	<Style id="flt2kml_00141">
		<LineStyle>
			<color>bb0033ff</color>
		</LineStyle>
		<PolyStyle>
			<color>cc0033ff</color>
		</PolyStyle>
	</Style>
	<Style id="flt2kml_00142">
		<LineStyle>
			<color>bb0013ff</color>
		</LineStyle>
		<PolyStyle>
			<color>cc0013ff</color>
		</PolyStyle>
	</Style>
	<Style id="flt2kml_00143">
		<LineStyle>
			<color>bbffffff</color>
		</LineStyle>
		<PolyStyle>
			<color>ccffffff</color>
		</PolyStyle>
	</Style>
	<Style id="flt2kml_00144">
		<LineStyle>
			<color>bbed0000</color>
		</LineStyle>
		<PolyStyle>
			<color>cced0000</color>
		</PolyStyle>
	</Style>
	<Style id="flt2kml_00145">
		<LineStyle>
			<color>bb7f0000</color>
		</LineStyle>
		<PolyStyle>
			<color>cc7f0000</color>
		</PolyStyle>
	</Style>
	<Style id="flt2kml_00146">
		<LineStyle>
			<color>bba70000</color>
		</LineStyle>
		<PolyStyle>
			<color>cca70000</color>
		</PolyStyle>
	</Style>
	<Style id="flt2kml_00147">
		<LineStyle>
			<color>bbc50000</color>
		</LineStyle>
		<PolyStyle>
			<color>ccc50000</color>
		</PolyStyle>
	</Style>
	<Style id="flt2kml_00148">
		<LineStyle>
			<color>bbc50000</color>
		</LineStyle>
		<PolyStyle>
			<color>ccc50000</color>
		</PolyStyle>
	</Style>
	<Style id="flt2kml_00149">
		<LineStyle>
			<color>bbd90000</color>
		</LineStyle>
		<PolyStyle>
			<color>ccd90000</color>
		</PolyStyle>
	</Style>
	<Style id="flt2kml_00150">
		<LineStyle>
			<color>bbff4000</color>
		</LineStyle>
		<PolyStyle>
			<color>ccff4000</color>
		</PolyStyle>
	</Style>
	<Style id="flt2kml_00151">
		<LineStyle>
			<color>bbffb700</color>
		</LineStyle>
		<PolyStyle>
			<color>ccffb700</color>
		</PolyStyle>
	</Style>
	<Style id="flt2kml_00152">
		<LineStyle>
			<color>bbffff10</color>
		</LineStyle>
		<PolyStyle>
			<color>ccffff10</color>
		</PolyStyle>
	</Style>
	<Style id="flt2kml_00153">
		<LineStyle>
			<color>bbffffff</color>
		</LineStyle>
		<PolyStyle>
			<color>ccffffff</color>
		</PolyStyle>
	</Style>
	<Style id="flt2kml_00154">
		<LineStyle>
			<color>bb00a3ff</color>
		</LineStyle>
		<PolyStyle>
			<color>cc00a3ff</color>
		</PolyStyle>
	</Style>
	<Style id="flt2kml_00155">
		<LineStyle>
			<color>bb00b3ff</color>
		</LineStyle>
		<PolyStyle>
			<color>cc00b3ff</color>
		</PolyStyle>
	</Style>
	<Style id="flt2kml_00156">
		<LineStyle>
			<color>bbffff38</color>
		</LineStyle>
		<PolyStyle>
			<color>ccffff38</color>
		</PolyStyle>
	</Style>
	<Style id="flt2kml_00157">
		<LineStyle>
			<color>bbcf0000</color>
		</LineStyle>
		<PolyStyle>
			<color>cccf0000</color>
		</PolyStyle>
	</Style>
	<Style id="flt2kml_00158">
		<LineStyle>
			<color>bb930000</color>
		</LineStyle>
		<PolyStyle>
			<color>cc930000</color>
		</PolyStyle>
	</Style>
	<Style id="flt2kml_00159">
		<LineStyle>
			<color>bbc50000</color>
		</LineStyle>
		<PolyStyle>
			<color>ccc50000</color>
		</PolyStyle>
	</Style>
	<Style id="flt2kml_00160">
		<LineStyle>
			<color>bbff0400</color>
		</LineStyle>
		<PolyStyle>
			<color>ccff0400</color>
		</PolyStyle>
	</Style>
	<Style id="flt2kml_00161">
		<LineStyle>
			<color>bbff4000</color>
		</LineStyle>
		<PolyStyle>
			<color>ccff4000</color>
		</PolyStyle>
	</Style>
	<Style id="flt2kml_00162">
		<LineStyle>
			<color>bbffa300</color>
		</LineStyle>
		<PolyStyle>
			<color>ccffa300</color>
		</PolyStyle>
	</Style>
	<Style id="flt2kml_00163">
		<LineStyle>
			<color>bbffffd7</color>
		</LineStyle>
		<PolyStyle>
			<color>ccffffd7</color>
		</PolyStyle>
	</Style>
	<Style id="flt2kml_00164">
		<LineStyle>
			<color>bbffffaf</color>
		</LineStyle>
		<PolyStyle>
			<color>ccffffaf</color>
		</PolyStyle>
	</Style>
	<Style id="flt2kml_00165">
		<LineStyle>
			<color>bb00e2ff</color>
		</LineStyle>
		<PolyStyle>
			<color>cc00e2ff</color>
		</PolyStyle>
	</Style>
	<Style id="flt2kml_00166">
		<LineStyle>
			<color>bb0053ff</color>
		</LineStyle>
		<PolyStyle>
			<color>cc0053ff</color>
		</PolyStyle>
	</Style>
	<Style id="flt2kml_00167">
		<LineStyle>
			<color>bb00b3ff</color>
		</LineStyle>
		<PolyStyle>
			<color>cc00b3ff</color>
		</PolyStyle>
	</Style>
	<Style id="flt2kml_00168">
		<LineStyle>
			<color>bb0073ff</color>
		</LineStyle>
		<PolyStyle>
			<color>cc0073ff</color>
		</PolyStyle>
	</Style>
	<Style id="flt2kml_00169">
		<LineStyle>
			<color>bb0063ff</color>
		</LineStyle>
		<PolyStyle>
			<color>cc0063ff</color>
		</PolyStyle>
	</Style>
	<Style id="flt2kml_00170">
		<LineStyle>
			<color>bbed0000</color>
		</LineStyle>
		<PolyStyle>
			<color>cced0000</color>
		</PolyStyle>
	</Style>
	<Style id="flt2kml_00171">
		<LineStyle>
			<color>bbcf0000</color>
		</LineStyle>
		<PolyStyle>
			<color>cccf0000</color>
		</PolyStyle>
	</Style>
	<Style id="flt2kml_00172">
		<LineStyle>
			<color>bbed0000</color>
		</LineStyle>
		<PolyStyle>
			<color>cced0000</color>
		</PolyStyle>
	</Style>
	<Style id="flt2kml_00173">
		<LineStyle>
			<color>bbff0400</color>
		</LineStyle>
		<PolyStyle>
			<color>ccff0400</color>
		</PolyStyle>
	</Style>
	<Style id="flt2kml_00174">
		<LineStyle>
			<color>bbff6800</color>
		</LineStyle>
		<PolyStyle>
			<color>ccff6800</color>
		</PolyStyle>
	</Style>
	<Style id="flt2kml_00175">
		<LineStyle>
			<color>bbffcb00</color>
		</LineStyle>
		<PolyStyle>
			<color>ccffcb00</color>
		</PolyStyle>
	</Style>
	<Style id="flt2kml_00176">
		<LineStyle>
			<color>bbffffaf</color>
		</LineStyle>
		<PolyStyle>
			<color>ccffffaf</color>
		</PolyStyle>
	</Style>
	<Style id="flt2kml_00177">
		<LineStyle>
			<color>bb00d2ff</color>
		</LineStyle>
		<PolyStyle>
			<color>cc00d2ff</color>
		</PolyStyle>
	</Style>
	<Style id="flt2kml_00178">
		<LineStyle>
			<color>bb0013ff</color>
		</LineStyle>
		<PolyStyle>
			<color>cc0013ff</color>
		</PolyStyle>
	</Style>
	<Style id="flt2kml_00179">
		<LineStyle>
			<color>bb0013ff</color>
		</LineStyle>
		<PolyStyle>
			<color>cc0013ff</color>
		</PolyStyle>
	</Style>
	<Style id="flt2kml_00180">
		<LineStyle>
			<color>bb00007f</color>
		</LineStyle>
		<PolyStyle>
			<color>cc00007f</color>
		</PolyStyle>
	</Style>
	<Style id="flt2kml_00181">
		<LineStyle>
			<color>bb0000e3</color>
		</LineStyle>
		<PolyStyle>
			<color>cc0000e3</color>
		</PolyStyle>
	</Style>
	<Style id="flt2kml_00182">
		<LineStyle>
			<color>bb0083ff</color>
		</LineStyle>
		<PolyStyle>
			<color>cc0083ff</color>
		</PolyStyle>
	</Style>
	<Placemark>
		<name>TEST1</name>
		<styleUrl>#flt2kml_00001</styleUrl>
		<Polygon>
			<tessellate>1</tessellate>
			<outerBoundaryIs>
				<LinearRing>
					<coordinates>
						 142.820000,39.780002,0 142.722878,39.520407,0 142.395864,39.592960,0 142.491878,39.852847,0 142.820000,39.780002,0 
					</coordinates>
				</LinearRing>
			</outerBoundaryIs>
		</Polygon>
	</Placemark>
	<Placemark>
		<name>TEST1</name>
		<styleUrl>#flt2kml_00002</styleUrl>
		<Polygon>
			<tessellate>1</tessellate>
			<outerBoundaryIs>
				<LinearRing>
					<coordinates>
						 142.730001,39.520002,0 142.633606,39.260306,0 142.307698,39.332592,0 142.402997,39.592575,0 142.730001,39.520002,0 
					</coordinates>
				</LinearRing>
			</outerBoundaryIs>
		</Polygon>
	</Placemark>
	<Placemark>
		<name>TEST1</name>
		<styleUrl>#flt2kml_00003</styleUrl>
		<Polygon>
			<tessellate>1</tessellate>
			<outerBoundaryIs>
				<LinearRing>
					<coordinates>
						 142.640000,39.259998,0 142.544322,39.000203,0 142.219507,39.072223,0 142.314101,39.332301,0 142.640000,39.259998,0 
					</coordinates>
				</LinearRing>
			</outerBoundaryIs>
		</Polygon>
	</Placemark>
	<Placemark>
		<name>TEST1</name>
		<styleUrl>#flt2kml_00004</styleUrl>
		<Polygon>
			<tessellate>1</tessellate>
			<outerBoundaryIs>
				<LinearRing>
					<coordinates>
						 142.550000,39.000000,0 142.455029,38.740106,0 142.131294,38.811864,0 142.225192,39.072036,0 142.550000,39.000000,0 
					</coordinates>
				</LinearRing>
			</outerBoundaryIs>
		</Polygon>
	</Placemark>
	<Placemark>
		<name>TEST1</name>
		<styleUrl>#flt2kml_00005</styleUrl>
		<Polygon>
			<tessellate>1</tessellate>
			<outerBoundaryIs>
				<LinearRing>
					<coordinates>
						 142.460000,38.740000,0 142.365725,38.480010,0 142.043057,38.551507,0 142.136271,38.811771,0 142.460000,38.740000,0 
					</coordinates>
				</LinearRing>
			</outerBoundaryIs>
		</Polygon>
	</Placemark>
	<Placemark>
		<name>TEST1</name>
		<styleUrl>#flt2kml_00006</styleUrl>
		<Polygon>
			<tessellate>1</tessellate>
			<outerBoundaryIs>
				<LinearRing>
					<coordinates>
						 142.380000,38.480000,0 142.286375,38.219923,0 141.964772,38.291189,0 142.057348,38.551536,0 142.380000,38.480000,0 
					</coordinates>
				</LinearRing>
			</outerBoundaryIs>
		</Polygon>
	</Placemark>
	<Placemark>
		<name>TEST1</name>
		<styleUrl>#flt2kml_00007</styleUrl>
		<Polygon>
			<tessellate>1</tessellate>
			<outerBoundaryIs>
				<LinearRing>
					<coordinates>
						 142.290000,38.220000,0 142.197051,37.959829,0 141.876490,38.030840,0 141.968401,38.291276,0 142.290000,38.220000,0 
					</coordinates>
				</LinearRing>
			</outerBoundaryIs>
		</Polygon>
	</Placemark>
	<Placemark>
		<name>TEST1</name>
		<styleUrl>#flt2kml_00008</styleUrl>
		<Polygon>
			<tessellate>1</tessellate>
			<outerBoundaryIs>
				<LinearRing>
					<coordinates>
						 142.200000,37.960000,0 142.107716,37.699736,0 141.788185,37.770495,0 141.879441,38.031019,0 142.200000,37.960000,0 
					</coordinates>
				</LinearRing>
			</outerBoundaryIs>
		</Polygon>
	</Placemark>
	<Placemark>
		<name>TEST1</name>
		<styleUrl>#flt2kml_00009</styleUrl>
		<Polygon>
			<tessellate>1</tessellate>
			<outerBoundaryIs>
				<LinearRing>
					<coordinates>
						 142.110000,37.700000,0 142.018373,37.439645,0 141.699859,37.510153,0 141.790470,37.770765,0 142.110000,37.700000,0 
					</coordinates>
				</LinearRing>
			</outerBoundaryIs>
		</Polygon>
	</Placemark>
	<Placemark>
		<name>TEST1</name>
		<styleUrl>#flt2kml_00010</styleUrl>
		<Polygon>
			<tessellate>1</tessellate>
			<outerBoundaryIs>
				<LinearRing>
					<coordinates>
						 142.020000,37.430000,0 141.929032,37.169555,0 141.611565,37.239814,0 141.701529,37.500512,0 142.020000,37.430000,0 
					</coordinates>
				</LinearRing>
			</outerBoundaryIs>
		</Polygon>
	</Placemark>
	<Placemark>
		<name>TEST1</name>
		<styleUrl>#flt2kml_00011</styleUrl>
		<Polygon>
			<tessellate>1</tessellate>
			<outerBoundaryIs>
				<LinearRing>
					<coordinates>
						 141.930000,37.170000,0 141.839668,36.909466,0 141.523195,36.979480,0 141.612533,37.240262,0 141.930000,37.170000,0 
					</coordinates>
				</LinearRing>
			</outerBoundaryIs>
		</Polygon>
	</Placemark>
	<Placemark>
		<name>TEST1</name>
		<styleUrl>#flt2kml_00012</styleUrl>
		<Polygon>
			<tessellate>1</tessellate>
			<outerBoundaryIs>
				<LinearRing>
					<coordinates>
						 141.840000,36.910003,0 141.750294,36.649382,0 141.434803,36.719153,0 141.523525,36.980018,0 141.840000,36.910003,0 
					</coordinates>
				</LinearRing>
			</outerBoundaryIs>
		</Polygon>
	</Placemark>
	<Placemark>
		<name>TEST1</name>
		<styleUrl>#flt2kml_00013</styleUrl>
		<Polygon>
			<tessellate>1</tessellate>
			<outerBoundaryIs>
				<LinearRing>
					<coordinates>
						 141.750000,36.650003,0 141.660912,36.389297,0 141.346391,36.458829,0 141.434506,36.719774,0 141.750000,36.650003,0 
					</coordinates>
				</LinearRing>
			</outerBoundaryIs>
		</Polygon>
	</Placemark>
	<Placemark>
		<name>TEST1</name>
		<styleUrl>#flt2kml_00014</styleUrl>
		<Polygon>
			<tessellate>1</tessellate>
			<outerBoundaryIs>
				<LinearRing>
					<coordinates>
						 143.140000,39.719999,0 143.041788,39.460698,0 142.715417,39.534136,0 142.812532,39.793737,0 143.140000,39.719999,0 
					</coordinates>
				</LinearRing>
			</outerBoundaryIs>
		</Polygon>
	</Placemark>
	<Placemark>
		<name>TEST1</name>
		<styleUrl>#flt2kml_00015</styleUrl>
		<Polygon>
			<tessellate>1</tessellate>
			<outerBoundaryIs>
				<LinearRing>
					<coordinates>
						 143.050000,39.460002,0 142.952524,39.200596,0 142.627250,39.273762,0 142.723641,39.533463,0 143.050000,39.460002,0 
					</coordinates>
				</LinearRing>
			</outerBoundaryIs>
		</Polygon>
	</Placemark>
	<Placemark>
		<name>TEST1</name>
		<styleUrl>#flt2kml_00016</styleUrl>
		<Polygon>
			<tessellate>1</tessellate>
			<outerBoundaryIs>
				<LinearRing>
					<coordinates>
						 142.970000,39.190000,0 142.873229,38.930499,0 142.549095,39.003423,0 142.644795,39.263214,0 142.970000,39.190000,0 
					</coordinates>
				</LinearRing>
			</outerBoundaryIs>
		</Polygon>
	</Placemark>
	<Placemark>
		<name>TEST1</name>
		<styleUrl>#flt2kml_00017</styleUrl>
		<Polygon>
			<tessellate>1</tessellate>
			<outerBoundaryIs>
				<LinearRing>
					<coordinates>
						 142.879999,38.930000,0 142.783942,38.670398,0 142.460879,38.743055,0 142.555875,39.002943,0 142.879999,38.930000,0 
					</coordinates>
				</LinearRing>
			</outerBoundaryIs>
		</Polygon>
	</Placemark>
	<Placemark>
		<name>TEST1</name>
		<styleUrl>#flt2kml_00018</styleUrl>
		<Polygon>
			<tessellate>1</tessellate>
			<outerBoundaryIs>
				<LinearRing>
					<coordinates>
						 142.790000,38.670000,0 142.694647,38.410297,0 142.372641,38.482690,0 142.466945,38.742674,0 142.790000,38.670000,0 
					</coordinates>
				</LinearRing>
			</outerBoundaryIs>
		</Polygon>
	</Placemark>
	<Placemark>
		<name>TEST1</name>
		<styleUrl>#flt2kml_00019</styleUrl>
		<Polygon>
			<tessellate>1</tessellate>
			<outerBoundaryIs>
				<LinearRing>
					<coordinates>
						 142.700000,38.410000,0 142.605341,38.150197,0 142.284379,38.222328,0 142.378000,38.482407,0 142.700000,38.410000,0 
					</coordinates>
				</LinearRing>
			</outerBoundaryIs>
		</Polygon>
	</Placemark>
	<Placemark>
		<name>TEST1</name>
		<styleUrl>#flt2kml_00020</styleUrl>
		<Polygon>
			<tessellate>1</tessellate>
			<outerBoundaryIs>
				<LinearRing>
					<coordinates>
						 142.610000,38.150000,0 142.516025,37.890100,0 142.196096,37.961971,0 142.289045,38.222143,0 142.610000,38.150000,0 
					</coordinates>
				</LinearRing>
			</outerBoundaryIs>
		</Polygon>
	</Placemark>
	<Placemark>
		<name>TEST1</name>
		<styleUrl>#flt2kml_00021</styleUrl>
		<Polygon>
			<tessellate>1</tessellate>
			<outerBoundaryIs>
				<LinearRing>
					<coordinates>
						 142.520000,37.890000,0 142.426699,37.630004,0 142.107790,37.701618,0 142.200076,37.961882,0 142.520000,37.890000,0 
					</coordinates>
				</LinearRing>
			</outerBoundaryIs>
		</Polygon>
	</Placemark>
	<Placemark>
		<name>TEST1</name>
		<styleUrl>#flt2kml_00022</styleUrl>
		<Polygon>
			<tessellate>1</tessellate>
			<outerBoundaryIs>
				<LinearRing>
					<coordinates>
						 142.430000,37.630000,0 142.337362,37.369909,0 142.019462,37.441269,0 142.111095,37.701623,0 142.430000,37.630000,0 
					</coordinates>
				</LinearRing>
			</outerBoundaryIs>
		</Polygon>
	</Placemark>
	<Placemark>
		<name>TEST1</name>
		<styleUrl>#flt2kml_00023</styleUrl>
		<Polygon>
			<tessellate>1</tessellate>
			<outerBoundaryIs>
				<LinearRing>
					<coordinates>
						 142.340000,37.370000,0 142.248016,37.109816,0 141.931112,37.180923,0 142.022102,37.441366,0 142.340000,37.370000,0 
					</coordinates>
				</LinearRing>
			</outerBoundaryIs>
		</Polygon>
	</Placemark>
	<Placemark>
		<name>TEST1</name>
		<styleUrl>#flt2kml_00024</styleUrl>
		<Polygon>
			<tessellate>1</tessellate>
			<outerBoundaryIs>
				<LinearRing>
					<coordinates>
						 142.250000,37.110000,0 142.158660,36.849724,0 141.842741,36.920582,0 141.933097,37.181113,0 142.250000,37.110000,0 
					</coordinates>
				</LinearRing>
			</outerBoundaryIs>
		</Polygon>
	</Placemark>
	<Placemark>
		<name>TEST1</name>
		<styleUrl>#flt2kml_00025</styleUrl>
		<Polygon>
			<tessellate>1</tessellate>
			<outerBoundaryIs>
				<LinearRing>
					<coordinates>
						 142.170000,36.840002,0 142.079273,36.579643,0 141.764378,36.650280,0 141.854132,36.910889,0 142.170000,36.840002,0 
					</coordinates>
				</LinearRing>
			</outerBoundaryIs>
		</Polygon>
	</Placemark>
	<Placemark>
		<name>TEST1</name>
		<styleUrl>#flt2kml_00026</styleUrl>
		<Polygon>
			<tessellate>1</tessellate>
			<outerBoundaryIs>
				<LinearRing>
					<coordinates>
						 142.080000,36.580003,0 141.989898,36.319555,0 141.675964,36.389948,0 141.765104,36.650643,0 142.080000,36.580003,0 
					</coordinates>
				</LinearRing>
			</outerBoundaryIs>
		</Polygon>
	</Placemark>
	<Placemark>
		<name>TEST1</name>
		<styleUrl>#flt2kml_00027</styleUrl>
		<Polygon>
			<tessellate>1</tessellate>
			<outerBoundaryIs>
				<LinearRing>
					<coordinates>
						 143.470000,39.649996,0 143.370686,39.391004,0 143.045023,39.465349,0 143.143254,39.724647,0 143.470000,39.649996,0 
					</coordinates>
				</LinearRing>
			</outerBoundaryIs>
		</Polygon>
	</Placemark>
	<Placemark>
		<name>TEST1</name>
		<styleUrl>#flt2kml_00028</styleUrl>
		<Polygon>
			<tessellate>1</tessellate>
			<outerBoundaryIs>
				<LinearRing>
					<coordinates>
						 143.380000,39.390001,0 143.281431,39.130901,0 142.956855,39.204970,0 143.054353,39.464372,0 143.380000,39.390001,0 
					</coordinates>
				</LinearRing>
			</outerBoundaryIs>
		</Polygon>
	</Placemark>
	<Placemark>
		<name>TEST1</name>
		<styleUrl>#flt2kml_00029</styleUrl>
		<Polygon>
			<tessellate>1</tessellate>
			<outerBoundaryIs>
				<LinearRing>
					<coordinates>
						 143.290000,39.130000,0 143.192163,38.870793,0 142.868662,38.944589,0 142.965438,39.204093,0 143.290000,39.130000,0 
					</coordinates>
				</LinearRing>
			</outerBoundaryIs>
		</Polygon>
	</Placemark>
	<Placemark>
		<name>TEST1</name>
		<styleUrl>#flt2kml_00030</styleUrl>
		<Polygon>
			<tessellate>1</tessellate>
			<outerBoundaryIs>
				<LinearRing>
					<coordinates>
						 143.200000,38.870000,0 143.102887,38.610688,0 142.780446,38.684213,0 142.876511,38.943818,0 143.200000,38.870000,0 
					</coordinates>
				</LinearRing>
			</outerBoundaryIs>
		</Polygon>
	</Placemark>
	<Placemark>
		<name>TEST1</name>
		<styleUrl>#flt2kml_00031</styleUrl>
		<Polygon>
			<tessellate>1</tessellate>
			<outerBoundaryIs>
				<LinearRing>
					<coordinates>
						 143.110000,38.600000,0 143.013614,38.340583,0 142.692265,38.413839,0 142.787615,38.673543,0 143.110000,38.600000,0 
					</coordinates>
				</LinearRing>
			</outerBoundaryIs>
		</Polygon>
	</Placemark>
	<Placemark>
		<name>TEST1</name>
		<styleUrl>#flt2kml_00032</styleUrl>
		<Polygon>
			<tessellate>1</tessellate>
			<outerBoundaryIs>
				<LinearRing>
					<coordinates>
						 143.020000,38.340000,0 142.924315,38.080480,0 142.604002,38.153470,0 142.698661,38.413273,0 143.020000,38.340000,0 
					</coordinates>
				</LinearRing>
			</outerBoundaryIs>
		</Polygon>
	</Placemark>
	<Placemark>
		<name>TEST1</name>
		<styleUrl>#flt2kml_00033</styleUrl>
		<Polygon>
			<tessellate>1</tessellate>
			<outerBoundaryIs>
				<LinearRing>
					<coordinates>
						 142.930000,38.080000,0 142.835007,37.820379,0 142.515717,37.893105,0 142.609696,38.153005,0 142.930000,38.080000,0 
					</coordinates>
				</LinearRing>
			</outerBoundaryIs>
		</Polygon>
	</Placemark>
	<Placemark>
		<name>TEST1</name>
		<styleUrl>#flt2kml_00034</styleUrl>
		<Polygon>
			<tessellate>1</tessellate>
			<outerBoundaryIs>
				<LinearRing>
					<coordinates>
						 142.840000,37.820000,0 142.745688,37.560279,0 142.427410,37.632744,0 142.520718,37.892739,0 142.840000,37.820000,0 
					</coordinates>
				</LinearRing>
			</outerBoundaryIs>
		</Polygon>
	</Placemark>
	<Placemark>
		<name>TEST1</name>
		<styleUrl>#flt2kml_00035</styleUrl>
		<Polygon>
			<tessellate>1</tessellate>
			<outerBoundaryIs>
				<LinearRing>
					<coordinates>
						 142.760000,37.560000,0 142.666325,37.300189,0 142.349056,37.372422,0 142.441738,37.632503,0 142.760000,37.560000,0 
					</coordinates>
				</LinearRing>
			</outerBoundaryIs>
		</Polygon>
	</Placemark>
	<Placemark>
		<name>TEST1</name>
		<styleUrl>#flt2kml_00036</styleUrl>
		<Polygon>
			<tessellate>1</tessellate>
			<outerBoundaryIs>
				<LinearRing>
					<coordinates>
						 142.670000,37.299997,0 142.576987,37.040089,0 142.260705,37.112066,0 142.352736,37.372239,0 142.670000,37.299997,0 
					</coordinates>
				</LinearRing>
			</outerBoundaryIs>
		</Polygon>
	</Placemark>
	<Placemark>
		<name>TEST1</name>
		<styleUrl>#flt2kml_00037</styleUrl>
		<Polygon>
			<tessellate>1</tessellate>
			<outerBoundaryIs>
				<LinearRing>
					<coordinates>
						 142.580000,37.040002,0 142.487639,36.779999,0 142.172333,36.851722,0 142.263722,37.111987,0 142.580000,37.040002,0 
					</coordinates>
				</LinearRing>
			</outerBoundaryIs>
		</Polygon>
	</Placemark>
	<Placemark>
		<name>TEST1</name>
		<styleUrl>#flt2kml_00038</styleUrl>
		<Polygon>
			<tessellate>1</tessellate>
			<outerBoundaryIs>
				<LinearRing>
					<coordinates>
						 142.490000,36.780004,0 142.398281,36.519906,0 142.083938,36.591378,0 142.174696,36.851733,0 142.490000,36.780004,0 
					</coordinates>
				</LinearRing>
			</outerBoundaryIs>
		</Polygon>
	</Placemark>
	<Placemark>
		<name>TEST1</name>
		<styleUrl>#flt2kml_00039</styleUrl>
		<Polygon>
			<tessellate>1</tessellate>
			<outerBoundaryIs>
				<LinearRing>
					<coordinates>
						 142.400000,36.520001,0 142.308914,36.259811,0 141.995525,36.331035,0 142.085659,36.591478,0 142.400000,36.520001,0 
					</coordinates>
				</LinearRing>
			</outerBoundaryIs>
		</Polygon>
	</Placemark>
	<Placemark>
		<name>TEST1</name>
		<styleUrl>#flt2kml_00040</styleUrl>
		<Polygon>
			<tessellate>1</tessellate>
			<outerBoundaryIs>
				<LinearRing>
					<coordinates>
						 141.880000,39.980000,0 141.786089,39.719588,0 141.468840,39.787044,0 141.561647,40.047717,0 141.880000,39.980000,0 
					</coordinates>
				</LinearRing>
			</outerBoundaryIs>
		</Polygon>
	</Placemark>
	<Placemark>
		<name>TEST1</name>
		<styleUrl>#flt2kml_00041</styleUrl>
		<Polygon>
			<tessellate>1</tessellate>
			<outerBoundaryIs>
				<LinearRing>
					<coordinates>
						 141.790000,39.720001,0 141.696793,39.459499,0 141.380638,39.526708,0 141.472753,39.787467,0 141.790000,39.720001,0 
					</coordinates>
				</LinearRing>
			</outerBoundaryIs>
		</Polygon>
	</Placemark>
	<Placemark>
		<name>TEST1</name>
		<styleUrl>#flt2kml_00042</styleUrl>
		<Polygon>
			<tessellate>1</tessellate>
			<outerBoundaryIs>
				<LinearRing>
					<coordinates>
						 141.700000,39.460001,0 141.607486,39.199409,0 141.292412,39.266373,0 141.383846,39.527218,0 141.700000,39.460001,0 
					</coordinates>
				</LinearRing>
			</outerBoundaryIs>
		</Polygon>
	</Placemark>
	<Placemark>
		<name>TEST1</name>
		<styleUrl>#flt2kml_00043</styleUrl>
		<Polygon>
			<tessellate>1</tessellate>
			<outerBoundaryIs>
				<LinearRing>
					<coordinates>
						 141.610000,39.200000,0 141.518169,38.939321,0 141.204163,39.006042,0 141.294926,39.266970,0 141.610000,39.200000,0 
					</coordinates>
				</LinearRing>
			</outerBoundaryIs>
		</Polygon>
	</Placemark>
	<Placemark>
		<name>TEST1</name>
		<styleUrl>#flt2kml_00044</styleUrl>
		<Polygon>
			<tessellate>1</tessellate>
			<outerBoundaryIs>
				<LinearRing>
					<coordinates>
						 141.520000,38.940000,0 141.428841,38.679234,0 141.115892,38.745716,0 141.205993,39.006726,0 141.520000,38.940000,0 
					</coordinates>
				</LinearRing>
			</outerBoundaryIs>
		</Polygon>
	</Placemark>
	<Placemark>
		<name>TEST1</name>
		<styleUrl>#flt2kml_00045</styleUrl>
		<Polygon>
			<tessellate>1</tessellate>
			<outerBoundaryIs>
				<LinearRing>
					<coordinates>
						 141.430000,38.670000,0 141.339516,38.409149,0 141.027653,38.475393,0 141.117091,38.736485,0 141.430000,38.670000,0 
					</coordinates>
				</LinearRing>
			</outerBoundaryIs>
		</Polygon>
	</Placemark>
	<Placemark>
		<name>TEST1</name>
		<styleUrl>#flt2kml_00046</styleUrl>
		<Polygon>
			<tessellate>1</tessellate>
			<outerBoundaryIs>
				<LinearRing>
					<coordinates>
						 141.340000,38.410000,0 141.250168,38.149065,0 140.939335,38.215075,0 141.028133,38.476246,0 141.340000,38.410000,0 
					</coordinates>
				</LinearRing>
			</outerBoundaryIs>
		</Polygon>
	</Placemark>
	<Placemark>
		<name>TEST1</name>
		<styleUrl>#flt2kml_00047</styleUrl>
		<Polygon>
			<tessellate>1</tessellate>
			<outerBoundaryIs>
				<LinearRing>
					<coordinates>
						 141.250000,38.150000,0 141.160810,37.888983,0 140.850996,37.954761,0 140.939163,38.216009,0 141.250000,38.150000,0 
					</coordinates>
				</LinearRing>
			</outerBoundaryIs>
		</Polygon>
	</Placemark>
	<Placemark>
		<name>TEST1</name>
		<styleUrl>#flt2kml_00048</styleUrl>
		<Polygon>
			<tessellate>1</tessellate>
			<outerBoundaryIs>
				<LinearRing>
					<coordinates>
						 141.160002,37.890000,0 141.071445,37.628903,0 140.762637,37.694450,0 140.850183,37.955775,0 141.160002,37.890000,0 
					</coordinates>
				</LinearRing>
			</outerBoundaryIs>
		</Polygon>
	</Placemark>
	<Placemark>
		<name>TEST1</name>
		<styleUrl>#flt2kml_00049</styleUrl>
		<Polygon>
			<tessellate>1</tessellate>
			<outerBoundaryIs>
				<LinearRing>
					<coordinates>
						 141.079998,37.630000,0 140.992029,37.368831,0 140.684224,37.434177,0 140.771193,37.695570,0 141.079998,37.630000,0 
					</coordinates>
				</LinearRing>
			</outerBoundaryIs>
		</Polygon>
	</Placemark>
	<Placemark>
		<name>TEST1</name>
		<styleUrl>#flt2kml_00050</styleUrl>
		<Polygon>
			<tessellate>1</tessellate>
			<outerBoundaryIs>
				<LinearRing>
					<coordinates>
						 140.990002,37.370001,0 140.902646,37.108754,0 140.595824,37.173876,0 140.682190,37.435342,0 140.990002,37.370001,0 
					</coordinates>
				</LinearRing>
			</outerBoundaryIs>
		</Polygon>
	</Placemark>
	<Placemark>
		<name>TEST1</name>
		<styleUrl>#flt2kml_00051</styleUrl>
		<Polygon>
			<tessellate>1</tessellate>
			<outerBoundaryIs>
				<LinearRing>
					<coordinates>
						 140.899995,37.110003,0 140.813243,36.848680,0 140.507392,36.913578,0 140.593165,37.175117,0 140.899995,37.110003,0 
					</coordinates>
				</LinearRing>
			</outerBoundaryIs>
		</Polygon>
	</Placemark>
	<Placemark>
		<name>TEST1</name>
		<styleUrl>#flt2kml_00052</styleUrl>
		<Polygon>
			<tessellate>1</tessellate>
			<outerBoundaryIs>
				<LinearRing>
					<coordinates>
						 140.810004,36.849998,0 140.723847,36.588599,0 140.418956,36.653278,0 140.504146,36.914888,0 140.810004,36.849998,0 
					</coordinates>
				</LinearRing>
			</outerBoundaryIs>
		</Polygon>
	</Placemark>
	<Placemark>
		<name>TEST1</name>
		<styleUrl>#flt2kml_00053</styleUrl>
		<Polygon>
			<tessellate>1</tessellate>
			<outerBoundaryIs>
				<LinearRing>
					<coordinates>
						 142.190000,39.910002,0 142.095028,39.649853,0 141.778412,39.718147,0 141.872292,39.978565,0 142.190000,39.910002,0 
					</coordinates>
				</LinearRing>
			</outerBoundaryIs>
		</Polygon>
	</Placemark>
	<Placemark>
		<name>TEST1</name>
		<styleUrl>#flt2kml_00054</styleUrl>
		<Polygon>
			<tessellate>1</tessellate>
			<outerBoundaryIs>
				<LinearRing>
					<coordinates>
						 142.100000,39.650002,0 142.005739,39.389759,0 141.690208,39.457802,0 141.783388,39.718310,0 142.100000,39.650002,0 
					</coordinates>
				</LinearRing>
			</outerBoundaryIs>
		</Polygon>
	</Placemark>
	<Placemark>
		<name>TEST1</name>
		<styleUrl>#flt2kml_00055</styleUrl>
		<Polygon>
			<tessellate>1</tessellate>
			<outerBoundaryIs>
				<LinearRing>
					<coordinates>
						 142.010000,39.389999,0 141.916441,39.129663,0 141.601982,39.197458,0 141.694473,39.458054,0 142.010000,39.389999,0 
					</coordinates>
				</LinearRing>
			</outerBoundaryIs>
		</Polygon>
	</Placemark>
	<Placemark>
		<name>TEST1</name>
		<styleUrl>#flt2kml_00056</styleUrl>
		<Polygon>
			<tessellate>1</tessellate>
			<outerBoundaryIs>
				<LinearRing>
					<coordinates>
						 141.920000,39.130000,0 141.827131,38.869572,0 141.513731,38.937122,0 141.605543,39.197805,0 141.920000,39.130000,0 
					</coordinates>
				</LinearRing>
			</outerBoundaryIs>
		</Polygon>
	</Placemark>
	<Placemark>
		<name>TEST1</name>
		<styleUrl>#flt2kml_00057</styleUrl>
		<Polygon>
			<tessellate>1</tessellate>
			<outerBoundaryIs>
				<LinearRing>
					<coordinates>
						 141.830000,38.870000,0 141.737811,38.609483,0 141.425458,38.676788,0 141.516601,38.937557,0 141.830000,38.870000,0 
					</coordinates>
				</LinearRing>
			</outerBoundaryIs>
		</Polygon>
	</Placemark>
	<Placemark>
		<name>TEST1</name>
		<styleUrl>#flt2kml_00058</styleUrl>
		<Polygon>
			<tessellate>1</tessellate>
			<outerBoundaryIs>
				<LinearRing>
					<coordinates>
						 141.740000,38.610000,0 141.648481,38.349395,0 141.337162,38.416459,0 141.427647,38.677312,0 141.740000,38.610000,0 
					</coordinates>
				</LinearRing>
			</outerBoundaryIs>
		</Polygon>
	</Placemark>
	<Placemark>
		<name>TEST1</name>
		<styleUrl>#flt2kml_00059</styleUrl>
		<Polygon>
			<tessellate>1</tessellate>
			<outerBoundaryIs>
				<LinearRing>
					<coordinates>
						 141.650000,38.350000,0 141.559141,38.089307,0 141.248844,38.156133,0 141.338680,38.417069,0 141.650000,38.350000,0 
					</coordinates>
				</LinearRing>
			</outerBoundaryIs>
		</Polygon>
	</Placemark>
	<Placemark>
		<name>TEST1</name>
		<styleUrl>#flt2kml_00060</styleUrl>
		<Polygon>
			<tessellate>1</tessellate>
			<outerBoundaryIs>
				<LinearRing>
					<coordinates>
						 141.570000,38.090000,0 141.479756,37.829230,0 141.170478,37.895846,0 141.259710,38.156855,0 141.570000,38.090000,0 
					</coordinates>
				</LinearRing>
			</outerBoundaryIs>
		</Polygon>
	</Placemark>
	<Placemark>
		<name>TEST1</name>
		<styleUrl>#flt2kml_00061</styleUrl>
		<Polygon>
			<tessellate>1</tessellate>
			<outerBoundaryIs>
				<LinearRing>
					<coordinates>
						 141.480000,37.830000,0 141.390396,37.569146,0 141.082117,37.635528,0 141.170720,37.896617,0 141.480000,37.830000,0 
					</coordinates>
				</LinearRing>
			</outerBoundaryIs>
		</Polygon>
	</Placemark>
	<Placemark>
		<name>TEST1</name>
		<styleUrl>#flt2kml_00062</styleUrl>
		<Polygon>
			<tessellate>1</tessellate>
			<outerBoundaryIs>
				<LinearRing>
					<coordinates>
						 141.390000,37.570000,0 141.301026,37.309063,0 140.993733,37.375214,0 141.081716,37.636381,0 141.390000,37.570000,0 
					</coordinates>
				</LinearRing>
			</outerBoundaryIs>
		</Polygon>
	</Placemark>
	<Placemark>
		<name>TEST1</name>
		<styleUrl>#flt2kml_00063</styleUrl>
		<Polygon>
			<tessellate>1</tessellate>
			<outerBoundaryIs>
				<LinearRing>
					<coordinates>
						 141.300000,37.299998,0 141.211660,37.038979,0 140.905382,37.104901,0 140.992743,37.366147,0 141.300000,37.299998,0 
					</coordinates>
				</LinearRing>
			</outerBoundaryIs>
		</Polygon>
	</Placemark>
	<Placemark>
		<name>TEST1</name>
		<styleUrl>#flt2kml_00064</styleUrl>
		<Polygon>
			<tessellate>1</tessellate>
			<outerBoundaryIs>
				<LinearRing>
					<coordinates>
						 141.209995,37.039999,0 141.122266,36.778899,0 140.816952,36.844596,0 140.903712,37.105917,0 141.209995,37.039999,0 
					</coordinates>
				</LinearRing>
			</outerBoundaryIs>
		</Polygon>
	</Placemark>
	<Placemark>
		<name>TEST1</name>
		<styleUrl>#flt2kml_00065</styleUrl>
		<Polygon>
			<tessellate>1</tessellate>
			<outerBoundaryIs>
				<LinearRing>
					<coordinates>
						 141.119999,36.780000,0 141.032872,36.518822,0 140.728510,36.584294,0 140.814678,36.845690,0 141.119999,36.780000,0 
					</coordinates>
				</LinearRing>
			</outerBoundaryIs>
		</Polygon>
	</Placemark>
	<Placemark>
		<name>TEST1</name>
		<styleUrl>#flt2kml_00066</styleUrl>
		<Polygon>
			<tessellate>1</tessellate>
			<outerBoundaryIs>
				<LinearRing>
					<coordinates>
						 142.500000,39.849998,0 142.403960,39.590118,0 142.087939,39.659248,0 142.182898,39.919403,0 142.500000,39.849998,0 
					</coordinates>
				</LinearRing>
			</outerBoundaryIs>
		</Polygon>
	</Placemark>
	<Placemark>
		<name>TEST1</name>
		<styleUrl>#flt2kml_00067</styleUrl>
		<Polygon>
			<tessellate>1</tessellate>
			<outerBoundaryIs>
				<LinearRing>
					<coordinates>
						 142.410000,39.589998,0 142.314680,39.330021,0 141.999735,39.398896,0 142.093986,39.659144,0 142.410000,39.589998,0 
					</coordinates>
				</LinearRing>
			</outerBoundaryIs>
		</Polygon>
	</Placemark>
	<Placemark>
		<name>TEST1</name>
		<styleUrl>#flt2kml_00068</styleUrl>
		<Polygon>
			<tessellate>1</tessellate>
			<outerBoundaryIs>
				<LinearRing>
					<coordinates>
						 142.320000,39.330004,0 142.225389,39.069930,0 141.911507,39.138553,0 142.005061,39.398893,0 142.320000,39.330004,0 
					</coordinates>
				</LinearRing>
			</outerBoundaryIs>
		</Polygon>
	</Placemark>
	<Placemark>
		<name>TEST1</name>
		<styleUrl>#flt2kml_00069</styleUrl>
		<Polygon>
			<tessellate>1</tessellate>
			<outerBoundaryIs>
				<LinearRing>
					<coordinates>
						 142.230000,39.070000,0 142.136087,38.809832,0 141.823256,38.878205,0 141.916123,39.138635,0 142.230000,39.070000,0 
					</coordinates>
				</LinearRing>
			</outerBoundaryIs>
		</Polygon>
	</Placemark>
	<Placemark>
		<name>TEST1</name>
		<styleUrl>#flt2kml_00070</styleUrl>
		<Polygon>
			<tessellate>1</tessellate>
			<outerBoundaryIs>
				<LinearRing>
					<coordinates>
						 142.140000,38.800000,0 142.046789,38.539738,0 141.735040,38.607864,0 141.827216,38.868383,0 142.140000,38.800000,0 
					</coordinates>
				</LinearRing>
			</outerBoundaryIs>
		</Polygon>
	</Placemark>
	<Placemark>
		<name>TEST1</name>
		<styleUrl>#flt2kml_00071</styleUrl>
		<Polygon>
			<tessellate>1</tessellate>
			<outerBoundaryIs>
				<LinearRing>
					<coordinates>
						 142.050000,38.540000,0 141.957466,38.279646,0 141.646742,38.347527,0 141.738252,38.608134,0 142.050000,38.540000,0 
					</coordinates>
				</LinearRing>
			</outerBoundaryIs>
		</Polygon>
	</Placemark>
	<Placemark>
		<name>TEST1</name>
		<styleUrl>#flt2kml_00072</styleUrl>
		<Polygon>
			<tessellate>1</tessellate>
			<outerBoundaryIs>
				<LinearRing>
					<coordinates>
						 141.970000,38.280000,0 141.878099,38.019564,0 141.568397,38.087229,0 141.659286,38.347914,0 141.970000,38.280000,0 
					</coordinates>
				</LinearRing>
			</outerBoundaryIs>
		</Polygon>
	</Placemark>
	<Placemark>
		<name>TEST1</name>
		<styleUrl>#flt2kml_00073</styleUrl>
		<Polygon>
			<tessellate>1</tessellate>
			<outerBoundaryIs>
				<LinearRing>
					<coordinates>
						 141.880001,38.020000,0 141.788757,37.759475,0 141.480056,37.826900,0 141.570299,38.087670,0 141.880001,38.020000,0 
					</coordinates>
				</LinearRing>
			</outerBoundaryIs>
		</Polygon>
	</Placemark>
	<Placemark>
		<name>TEST1</name>
		<styleUrl>#flt2kml_00074</styleUrl>
		<Polygon>
			<tessellate>1</tessellate>
			<outerBoundaryIs>
				<LinearRing>
					<coordinates>
						 141.790000,37.760000,0 141.699404,37.499388,0 141.391693,37.566574,0 141.481298,37.827428,0 141.790000,37.760000,0 
					</coordinates>
				</LinearRing>
			</outerBoundaryIs>
		</Polygon>
	</Placemark>
	<Placemark>
		<name>TEST1</name>
		<styleUrl>#flt2kml_00075</styleUrl>
		<Polygon>
			<tessellate>1</tessellate>
			<outerBoundaryIs>
				<LinearRing>
					<coordinates>
						 141.700000,37.500000,0 141.610042,37.239301,0 141.303309,37.306253,0 141.392287,37.567189,0 141.700000,37.500000,0 
					</coordinates>
				</LinearRing>
			</outerBoundaryIs>
		</Polygon>
	</Placemark>
	<Placemark>
		<name>TEST1</name>
		<styleUrl>#flt2kml_00076</styleUrl>
		<Polygon>
			<tessellate>1</tessellate>
			<outerBoundaryIs>
				<LinearRing>
					<coordinates>
						 141.610000,37.240000,0 141.520671,36.979216,0 141.214905,37.045935,0 141.303264,37.306951,0 141.610000,37.240000,0 
					</coordinates>
				</LinearRing>
			</outerBoundaryIs>
		</Polygon>
	</Placemark>
	<Placemark>
		<name>TEST1</name>
		<styleUrl>#flt2kml_00077</styleUrl>
		<Polygon>
			<tessellate>1</tessellate>
			<outerBoundaryIs>
				<LinearRing>
					<coordinates>
						 141.520000,36.980001,0 141.431290,36.719134,0 141.126479,36.785623,0 141.214230,37.046718,0 141.520000,36.980001,0 
					</coordinates>
				</LinearRing>
			</outerBoundaryIs>
		</Polygon>
	</Placemark>
	<Placemark>
		<name>TEST1</name>
		<styleUrl>#flt2kml_00078</styleUrl>
		<Polygon>
			<tessellate>1</tessellate>
			<outerBoundaryIs>
				<LinearRing>
					<coordinates>
						 141.430000,36.720002,0 141.341900,36.459053,0 141.038032,36.525314,0 141.125184,36.786488,0 141.430000,36.720002,0 
					</coordinates>
				</LinearRing>
			</outerBoundaryIs>
		</Polygon>
	</Placemark>
	<Placemark>
		<name>TEST1</name>
		<styleUrl>#flt2kml_00079</styleUrl>
		<Polygon>
			<tessellate>1</tessellate>
			<outerBoundaryIs>
				<LinearRing>
					<coordinates>
						 142.980000,37.330003,0 142.880181,37.220891,0 142.745220,37.299546,0 142.844958,37.408774,0 142.980000,37.330003,0 
					</coordinates>
				</LinearRing>
			</outerBoundaryIs>
		</Polygon>
	</Placemark>
	<Placemark>
		<name>TEST1</name>
		<styleUrl>#flt2kml_00080</styleUrl>
		<Polygon>
			<tessellate>1</tessellate>
			<outerBoundaryIs>
				<LinearRing>
					<coordinates>
						 142.880000,37.220004,0 142.780473,37.110797,0 142.645596,37.189338,0 142.745041,37.298659,0 142.880000,37.220004,0 
					</coordinates>
				</LinearRing>
			</outerBoundaryIs>
		</Polygon>
	</Placemark>
	<Placemark>
		<name>TEST1</name>
		<styleUrl>#flt2kml_00081</styleUrl>
		<Polygon>
			<tessellate>1</tessellate>
			<outerBoundaryIs>
				<LinearRing>
					<coordinates>
						 142.780000,37.109996,0 142.680763,37.000696,0 142.545970,37.079122,0 142.645124,37.188536,0 142.780000,37.109996,0 
					</coordinates>
				</LinearRing>
			</outerBoundaryIs>
		</Polygon>
	</Placemark>
	<Placemark>
		<name>TEST1</name>
		<styleUrl>#flt2kml_00082</styleUrl>
		<Polygon>
			<tessellate>1</tessellate>
			<outerBoundaryIs>
				<LinearRing>
					<coordinates>
						 143.110000,37.260001,0 143.010095,37.150999,0 142.875398,37.229797,0 142.975223,37.338913,0 143.110000,37.260001,0 
					</coordinates>
				</LinearRing>
			</outerBoundaryIs>
		</Polygon>
	</Placemark>
	<Placemark>
		<name>TEST1</name>
		<styleUrl>#flt2kml_00083</styleUrl>
		<Polygon>
			<tessellate>1</tessellate>
			<outerBoundaryIs>
				<LinearRing>
					<coordinates>
						 143.020000,37.150004,0 142.920373,37.040917,0 142.785769,37.119611,0 142.885316,37.228812,0 143.020000,37.150004,0 
					</coordinates>
				</LinearRing>
			</outerBoundaryIs>
		</Polygon>
	</Placemark>
	<Placemark>
		<name>TEST1</name>
		<styleUrl>#flt2kml_00084</styleUrl>
		<Polygon>
			<tessellate>1</tessellate>
			<outerBoundaryIs>
				<LinearRing>
					<coordinates>
						 142.920000,37.039997,0 142.820663,36.930816,0 142.686140,37.009396,0 142.785397,37.118691,0 142.920000,37.039997,0 
					</coordinates>
				</LinearRing>
			</outerBoundaryIs>
		</Polygon>
	</Placemark>
	<Placemark>
		<name>TEST1</name>
		<styleUrl>#flt2kml_00085</styleUrl>
		<Polygon>
			<tessellate>1</tessellate>
			<outerBoundaryIs>
				<LinearRing>
					<coordinates>
						 142.820000,36.930000,0 142.720952,36.820725,0 142.586512,36.899191,0 142.685479,37.008579,0 142.820000,36.930000,0 
					</coordinates>
				</LinearRing>
			</outerBoundaryIs>
		</Polygon>
	</Placemark>
	<Placemark>
		<name>TEST1</name>
		<styleUrl>#flt2kml_00086</styleUrl>
		<Polygon>
			<tessellate>1</tessellate>
			<outerBoundaryIs>
				<LinearRing>
					<coordinates>
						 142.720000,36.820003,0 142.621238,36.710636,0 142.486880,36.788988,0 142.585560,36.898467,0 142.720000,36.820003,0 
					</coordinates>
				</LinearRing>
			</outerBoundaryIs>
		</Polygon>
	</Placemark>
	<Placemark>
		<name>TEST1</name>
		<styleUrl>#flt2kml_00087</styleUrl>
		<Polygon>
			<tessellate>1</tessellate>
			<outerBoundaryIs>
				<LinearRing>
					<coordinates>
						 143.250000,37.179998,0 143.150011,37.071116,0 143.015605,37.150065,0 143.115516,37.259062,0 143.250000,37.179998,0 
					</coordinates>
				</LinearRing>
			</outerBoundaryIs>
		</Polygon>
	</Placemark>
	<Placemark>
		<name>TEST1</name>
		<styleUrl>#flt2kml_00088</styleUrl>
		<Polygon>
			<tessellate>1</tessellate>
			<outerBoundaryIs>
				<LinearRing>
					<coordinates>
						 143.160000,37.070000,0 143.060288,36.961032,0 142.925973,37.039877,0 143.025607,37.148960,0 143.160000,37.070000,0 
					</coordinates>
				</LinearRing>
			</outerBoundaryIs>
		</Polygon>
	</Placemark>
	<Placemark>
		<name>TEST1</name>
		<styleUrl>#flt2kml_00089</styleUrl>
		<Polygon>
			<tessellate>1</tessellate>
			<outerBoundaryIs>
				<LinearRing>
					<coordinates>
						 143.060000,36.960003,0 142.960578,36.850940,0 142.826343,36.929672,0 142.925687,37.038848,0 143.060000,36.960003,0 
					</coordinates>
				</LinearRing>
			</outerBoundaryIs>
		</Polygon>
	</Placemark>
	<Placemark>
		<name>TEST1</name>
		<styleUrl>#flt2kml_00090</styleUrl>
		<Polygon>
			<tessellate>1</tessellate>
			<outerBoundaryIs>
				<LinearRing>
					<coordinates>
						 142.960000,36.849997,0 142.860865,36.740841,0 142.726711,36.819459,0 142.825767,36.928728,0 142.960000,36.849997,0 
					</coordinates>
				</LinearRing>
			</outerBoundaryIs>
		</Polygon>
	</Placemark>
	<Placemark>
		<name>TEST1</name>
		<styleUrl>#flt2kml_00091</styleUrl>
		<Polygon>
			<tessellate>1</tessellate>
			<outerBoundaryIs>
				<LinearRing>
					<coordinates>
						 142.860000,36.740001,0 142.761151,36.630751,0 142.627078,36.709256,0 142.725847,36.818617,0 142.860000,36.740001,0 
					</coordinates>
				</LinearRing>
			</outerBoundaryIs>
		</Polygon>
	</Placemark>
	<Placemark>
		<name>TEST1</name>
		<styleUrl>#flt2kml_00092</styleUrl>
		<Polygon>
			<tessellate>1</tessellate>
			<outerBoundaryIs>
				<LinearRing>
					<coordinates>
						 142.760000,36.629996,0 142.661435,36.520654,0 142.527443,36.599046,0 142.625927,36.708499,0 142.760000,36.629996,0 
					</coordinates>
				</LinearRing>
			</outerBoundaryIs>
		</Polygon>
	</Placemark>
	<Placemark>
		<name>TEST1</name>
		<styleUrl>#flt2kml_00093</styleUrl>
		<Polygon>
			<tessellate>1</tessellate>
			<outerBoundaryIs>
				<LinearRing>
					<coordinates>
						 142.660000,36.520001,0 142.561719,36.410568,0 142.427808,36.488846,0 142.526008,36.598391,0 142.660000,36.520001,0 
					</coordinates>
				</LinearRing>
			</outerBoundaryIs>
		</Polygon>
	</Placemark>
	<Placemark>
		<name>TEST1</name>
		<styleUrl>#flt2kml_00094</styleUrl>
		<Polygon>
			<tessellate>1</tessellate>
			<outerBoundaryIs>
				<LinearRing>
					<coordinates>
						 142.560000,36.409998,0 142.462000,36.300474,0 142.328170,36.378640,0 142.426088,36.488275,0 142.560000,36.409998,0 
					</coordinates>
				</LinearRing>
			</outerBoundaryIs>
		</Polygon>
	</Placemark>
	<Placemark>
		<name>TEST1</name>
		<styleUrl>#flt2kml_00095</styleUrl>
		<Polygon>
			<tessellate>1</tessellate>
			<outerBoundaryIs>
				<LinearRing>
					<coordinates>
						 143.390000,37.109998,0 143.289914,37.001237,0 143.155780,37.080337,0 143.255790,37.189213,0 143.390000,37.109998,0 
					</coordinates>
				</LinearRing>
			</outerBoundaryIs>
		</Polygon>
	</Placemark>
	<Placemark>
		<name>TEST1</name>
		<styleUrl>#flt2kml_00096</styleUrl>
		<Polygon>
			<tessellate>1</tessellate>
			<outerBoundaryIs>
				<LinearRing>
					<coordinates>
						 143.290000,36.990000,0 143.190218,36.881142,0 143.056180,36.960127,0 143.155885,37.069099,0 143.290000,36.990000,0 
					</coordinates>
				</LinearRing>
			</outerBoundaryIs>
		</Polygon>
	</Placemark>
	<Placemark>
		<name>TEST1</name>
		<styleUrl>#flt2kml_00097</styleUrl>
		<Polygon>
			<tessellate>1</tessellate>
			<outerBoundaryIs>
				<LinearRing>
					<coordinates>
						 143.200000,36.879999,0 143.100494,36.771056,0 142.966546,36.849938,0 143.065975,36.958995,0 143.200000,36.879999,0 
					</coordinates>
				</LinearRing>
			</outerBoundaryIs>
		</Polygon>
	</Placemark>
	<Placemark>
		<name>TEST1</name>
		<styleUrl>#flt2kml_00098</styleUrl>
		<Polygon>
			<tessellate>1</tessellate>
			<outerBoundaryIs>
				<LinearRing>
					<coordinates>
						 143.100000,36.770004,0 143.000781,36.660966,0 142.866912,36.739734,0 142.966054,36.848885,0 143.100000,36.770004,0 
					</coordinates>
				</LinearRing>
			</outerBoundaryIs>
		</Polygon>
	</Placemark>
	<Placemark>
		<name>TEST1</name>
		<styleUrl>#flt2kml_00099</styleUrl>
		<Polygon>
			<tessellate>1</tessellate>
			<outerBoundaryIs>
				<LinearRing>
					<coordinates>
						 143.000000,36.659999,0 142.901066,36.550867,0 142.767277,36.629522,0 142.866132,36.738766,0 143.000000,36.659999,0 
					</coordinates>
				</LinearRing>
			</outerBoundaryIs>
		</Polygon>
	</Placemark>
	<Placemark>
		<name>TEST1</name>
		<styleUrl>#flt2kml_00100</styleUrl>
		<Polygon>
			<tessellate>1</tessellate>
			<outerBoundaryIs>
				<LinearRing>
					<coordinates>
						 142.900000,36.550003,0 142.801350,36.440779,0 142.667640,36.519321,0 142.766211,36.628657,0 142.900000,36.550003,0 
					</coordinates>
				</LinearRing>
			</outerBoundaryIs>
		</Polygon>
	</Placemark>
	<Placemark>
		<name>TEST1</name>
		<styleUrl>#flt2kml_00101</styleUrl>
		<Polygon>
			<tessellate>1</tessellate>
			<outerBoundaryIs>
				<LinearRing>
					<coordinates>
						 142.800000,36.439999,0 142.701632,36.330683,0 142.568002,36.409113,0 142.666290,36.518540,0 142.800000,36.439999,0 
					</coordinates>
				</LinearRing>
			</outerBoundaryIs>
		</Polygon>
	</Placemark>
	<Placemark>
		<name>TEST1</name>
		<styleUrl>#flt2kml_00102</styleUrl>
		<Polygon>
			<tessellate>1</tessellate>
			<outerBoundaryIs>
				<LinearRing>
					<coordinates>
						 142.700000,36.329996,0 142.601913,36.220589,0 142.468363,36.298906,0 142.566369,36.408425,0 142.700000,36.329996,0 
					</coordinates>
				</LinearRing>
			</outerBoundaryIs>
		</Polygon>
	</Placemark>
	<Placemark>
		<name>TEST1</name>
		<styleUrl>#flt2kml_00103</styleUrl>
		<Polygon>
			<tessellate>1</tessellate>
			<outerBoundaryIs>
				<LinearRing>
					<coordinates>
						 143.130000,37.920000,0 143.059896,37.796819,0 142.905101,37.852043,0 142.975008,37.975320,0 143.130000,37.920000,0 
					</coordinates>
				</LinearRing>
			</outerBoundaryIs>
		</Polygon>
	</Placemark>
	<Placemark>
		<name>TEST1</name>
		<styleUrl>#flt2kml_00104</styleUrl>
		<Polygon>
			<tessellate>1</tessellate>
			<outerBoundaryIs>
				<LinearRing>
					<coordinates>
						 143.060000,37.790000,0 142.990142,37.666768,0 142.835559,37.721895,0 142.905219,37.845223,0 143.060000,37.790000,0 
					</coordinates>
				</LinearRing>
			</outerBoundaryIs>
		</Polygon>
	</Placemark>
	<Placemark>
		<name>TEST1</name>
		<styleUrl>#flt2kml_00105</styleUrl>
		<Polygon>
			<tessellate>1</tessellate>
			<outerBoundaryIs>
				<LinearRing>
					<coordinates>
						 142.990000,37.670000,0 142.920378,37.546718,0 142.765984,37.601750,0 142.835410,37.725127,0 142.990000,37.670000,0 
					</coordinates>
				</LinearRing>
			</outerBoundaryIs>
		</Polygon>
	</Placemark>
	<Placemark>
		<name>TEST1</name>
		<styleUrl>#flt2kml_00106</styleUrl>
		<Polygon>
			<tessellate>1</tessellate>
			<outerBoundaryIs>
				<LinearRing>
					<coordinates>
						 142.930001,37.550000,0 142.860595,37.426674,0 142.706398,37.481624,0 142.775607,37.605044,0 142.930001,37.550000,0 
					</coordinates>
				</LinearRing>
			</outerBoundaryIs>
		</Polygon>
	</Placemark>
	<Placemark>
		<name>TEST1</name>
		<styleUrl>#flt2kml_00107</styleUrl>
		<Polygon>
			<tessellate>1</tessellate>
			<outerBoundaryIs>
				<LinearRing>
					<coordinates>
						 143.350000,37.990000,0 143.279463,37.866965,0 143.124701,37.922477,0 143.195042,38.045609,0 143.350000,37.990000,0 
					</coordinates>
				</LinearRing>
			</outerBoundaryIs>
		</Polygon>
	</Placemark>
	<Placemark>
		<name>TEST1</name>
		<styleUrl>#flt2kml_00108</styleUrl>
		<Polygon>
			<tessellate>1</tessellate>
			<outerBoundaryIs>
				<LinearRing>
					<coordinates>
						 143.290000,37.870000,0 143.219686,37.746921,0 143.065122,37.802348,0 143.135241,37.925525,0 143.290000,37.870000,0 
					</coordinates>
				</LinearRing>
			</outerBoundaryIs>
		</Polygon>
	</Placemark>
	<Placemark>
		<name>TEST1</name>
		<styleUrl>#flt2kml_00109</styleUrl>
		<Polygon>
			<tessellate>1</tessellate>
			<outerBoundaryIs>
				<LinearRing>
					<coordinates>
						 143.220000,37.740000,0 143.149933,37.616869,0 142.995578,37.672199,0 143.065450,37.795427,0 143.220000,37.740000,0 
					</coordinates>
				</LinearRing>
			</outerBoundaryIs>
		</Polygon>
	</Placemark>
	<Placemark>
		<name>TEST1</name>
		<styleUrl>#flt2kml_00110</styleUrl>
		<Polygon>
			<tessellate>1</tessellate>
			<outerBoundaryIs>
				<LinearRing>
					<coordinates>
						 143.150000,37.620000,0 143.080168,37.496818,0 142.926002,37.552052,0 142.995639,37.675331,0 143.150000,37.620000,0 
					</coordinates>
				</LinearRing>
			</outerBoundaryIs>
		</Polygon>
	</Placemark>
	<Placemark>
		<name>TEST1</name>
		<styleUrl>#flt2kml_00111</styleUrl>
		<Polygon>
			<tessellate>1</tessellate>
			<outerBoundaryIs>
				<LinearRing>
					<coordinates>
						 143.080000,37.490000,0 143.010413,37.366767,0 142.856454,37.421906,0 142.925848,37.545234,0 143.080000,37.490000,0 
					</coordinates>
				</LinearRing>
			</outerBoundaryIs>
		</Polygon>
	</Placemark>
	<Placemark>
		<name>TEST1</name>
		<styleUrl>#flt2kml_00112</styleUrl>
		<Polygon>
			<tessellate>1</tessellate>
			<outerBoundaryIs>
				<LinearRing>
					<coordinates>
						 143.509996,37.940000,0 143.439250,37.817068,0 143.284722,37.872783,0 143.355274,37.995814,0 143.509996,37.940000,0 
					</coordinates>
				</LinearRing>
			</outerBoundaryIs>
		</Polygon>
	</Placemark>
	<Placemark>
		<name>TEST1</name>
		<styleUrl>#flt2kml_00113</styleUrl>
		<Polygon>
			<tessellate>1</tessellate>
			<outerBoundaryIs>
				<LinearRing>
					<coordinates>
						 143.440000,37.810000,0 143.369503,37.687015,0 143.215184,37.742633,0 143.285486,37.865715,0 143.440000,37.810000,0 
					</coordinates>
				</LinearRing>
			</outerBoundaryIs>
		</Polygon>
	</Placemark>
	<Placemark>
		<name>TEST1</name>
		<styleUrl>#flt2kml_00114</styleUrl>
		<Polygon>
			<tessellate>1</tessellate>
			<outerBoundaryIs>
				<LinearRing>
					<coordinates>
						 143.380000,37.690000,0 143.309725,37.566970,0 143.155601,37.622504,0 143.225683,37.745631,0 143.380000,37.690000,0 
					</coordinates>
				</LinearRing>
			</outerBoundaryIs>
		</Polygon>
	</Placemark>
	<Placemark>
		<name>TEST1</name>
		<styleUrl>#flt2kml_00115</styleUrl>
		<Polygon>
			<tessellate>1</tessellate>
			<outerBoundaryIs>
				<LinearRing>
					<coordinates>
						 143.310000,37.570000,0 143.239961,37.446919,0 143.086024,37.502356,0 143.155870,37.625534,0 143.310000,37.570000,0 
					</coordinates>
				</LinearRing>
			</outerBoundaryIs>
		</Polygon>
	</Placemark>
	<Placemark>
		<name>TEST1</name>
		<styleUrl>#flt2kml_00116</styleUrl>
		<Polygon>
			<tessellate>1</tessellate>
			<outerBoundaryIs>
				<LinearRing>
					<coordinates>
						 143.240000,37.440000,0 143.170205,37.316867,0 143.016474,37.372209,0 143.086076,37.495437,0 143.240000,37.440000,0 
					</coordinates>
				</LinearRing>
			</outerBoundaryIs>
		</Polygon>
	</Placemark>
	<Placemark>
		<name>TEST1</name>
		<styleUrl>#flt2kml_00117</styleUrl>
		<Polygon>
			<tessellate>1</tessellate>
			<outerBoundaryIs>
				<LinearRing>
					<coordinates>
						 143.670001,37.890000,0 143.599048,37.767171,0 143.444753,37.823088,0 143.515514,37.946017,0 143.670001,37.890000,0 
					</coordinates>
				</LinearRing>
			</outerBoundaryIs>
		</Polygon>
	</Placemark>
	<Placemark>
		<name>TEST1</name>
		<styleUrl>#flt2kml_00118</styleUrl>
		<Polygon>
			<tessellate>1</tessellate>
			<outerBoundaryIs>
				<LinearRing>
					<coordinates>
						 143.599999,37.760000,0 143.529296,37.637118,0 143.375208,37.692937,0 143.445720,37.815918,0 143.599999,37.760000,0 
					</coordinates>
				</LinearRing>
			</outerBoundaryIs>
		</Polygon>
	</Placemark>
	<Placemark>
		<name>TEST1</name>
		<styleUrl>#flt2kml_00119</styleUrl>
		<Polygon>
			<tessellate>1</tessellate>
			<outerBoundaryIs>
				<LinearRing>
					<coordinates>
						 143.530005,37.640000,0 143.459539,37.517066,0 143.305638,37.572788,0 143.375912,37.695821,0 143.530005,37.640000,0 
					</coordinates>
				</LinearRing>
			</outerBoundaryIs>
		</Polygon>
	</Placemark>
	<Placemark>
		<name>TEST1</name>
		<styleUrl>#flt2kml_00120</styleUrl>
		<Polygon>
			<tessellate>1</tessellate>
			<outerBoundaryIs>
				<LinearRing>
					<coordinates>
						 143.470000,37.510000,0 143.399765,37.387019,0 143.246077,37.442658,0 143.316122,37.565736,0 143.470000,37.510000,0 
					</coordinates>
				</LinearRing>
			</outerBoundaryIs>
		</Polygon>
	</Placemark>
	<Placemark>
		<name>TEST1</name>
		<styleUrl>#flt2kml_00121</styleUrl>
		<Polygon>
			<tessellate>1</tessellate>
			<outerBoundaryIs>
				<LinearRing>
					<coordinates>
						 143.400000,37.390004,0 143.330000,37.266971,0 143.176496,37.322514,0 143.246306,37.445643,0 143.400000,37.390004,0 
					</coordinates>
				</LinearRing>
			</outerBoundaryIs>
		</Polygon>
	</Placemark>
	<Placemark>
		<name>TEST1</name>
		<styleUrl>#flt2kml_00122</styleUrl>
		<Polygon>
			<tessellate>1</tessellate>
			<outerBoundaryIs>
				<LinearRing>
					<coordinates>
						 143.819998,37.830000,0 143.748865,37.707268,0 143.594817,37.763373,0 143.665759,37.886205,0 143.819998,37.830000,0 
					</coordinates>
				</LinearRing>
			</outerBoundaryIs>
		</Polygon>
	</Placemark>
	<Placemark>
		<name>TEST1</name>
		<styleUrl>#flt2kml_00123</styleUrl>
		<Polygon>
			<tessellate>1</tessellate>
			<outerBoundaryIs>
				<LinearRing>
					<coordinates>
						 143.760001,37.710000,0 143.689092,37.587221,0 143.535237,37.643242,0 143.605957,37.766120,0 143.760001,37.710000,0 
					</coordinates>
				</LinearRing>
			</outerBoundaryIs>
		</Polygon>
	</Placemark>
	<Placemark>
		<name>TEST1</name>
		<styleUrl>#flt2kml_00124</styleUrl>
		<Polygon>
			<tessellate>1</tessellate>
			<outerBoundaryIs>
				<LinearRing>
					<coordinates>
						 143.689998,37.580000,0 143.619337,37.457168,0 143.465687,37.513091,0 143.536158,37.636022,0 143.689998,37.580000,0 
					</coordinates>
				</LinearRing>
			</outerBoundaryIs>
		</Polygon>
	</Placemark>
	<Placemark>
		<name>TEST1</name>
		<styleUrl>#flt2kml_00125</styleUrl>
		<Polygon>
			<tessellate>1</tessellate>
			<outerBoundaryIs>
				<LinearRing>
					<coordinates>
						 143.620001,37.460000,0 143.549577,37.337115,0 143.396110,37.392941,0 143.466346,37.515924,0 143.620001,37.460000,0 
					</coordinates>
				</LinearRing>
			</outerBoundaryIs>
		</Polygon>
	</Placemark>
	<Placemark>
		<name>TEST1</name>
		<styleUrl>#flt2kml_00126</styleUrl>
		<Polygon>
			<tessellate>1</tessellate>
			<outerBoundaryIs>
				<LinearRing>
					<coordinates>
						 143.560001,37.340003,0 143.489796,37.217072,0 143.336521,37.272815,0 143.406537,37.395842,0 143.560001,37.340003,0 
					</coordinates>
				</LinearRing>
			</outerBoundaryIs>
		</Polygon>
	</Placemark>
	<Placemark>
		<name>TEST1</name>
		<styleUrl>#flt2kml_00127</styleUrl>
		<Polygon>
			<tessellate>1</tessellate>
			<outerBoundaryIs>
				<LinearRing>
					<coordinates>
						 143.490003,37.209998,0 143.420042,37.087015,0 143.266968,37.142662,0 143.336741,37.265741,0 143.490003,37.209998,0 
					</coordinates>
				</LinearRing>
			</outerBoundaryIs>
		</Polygon>
	</Placemark>
	<Placemark>
		<name>TEST1</name>
		<styleUrl>#flt2kml_00128</styleUrl>
		<Polygon>
			<tessellate>1</tessellate>
			<outerBoundaryIs>
				<LinearRing>
					<coordinates>
						 143.280000,38.560000,0 143.251889,38.426701,0 143.083300,38.448529,0 143.111113,38.581876,0 143.280000,38.560000,0 
					</coordinates>
				</LinearRing>
			</outerBoundaryIs>
		</Polygon>
	</Placemark>
	<Placemark>
		<name>TEST1</name>
		<styleUrl>#flt2kml_00129</styleUrl>
		<Polygon>
			<tessellate>1</tessellate>
			<outerBoundaryIs>
				<LinearRing>
					<coordinates>
						 143.250000,38.420000,0 143.222010,38.286688,0 143.053733,38.308465,0 143.081426,38.441825,0 143.250000,38.420000,0 
					</coordinates>
				</LinearRing>
			</outerBoundaryIs>
		</Polygon>
	</Placemark>
	<Placemark>
		<name>TEST1</name>
		<styleUrl>#flt2kml_00130</styleUrl>
		<Polygon>
			<tessellate>1</tessellate>
			<outerBoundaryIs>
				<LinearRing>
					<coordinates>
						 143.230000,38.290000,0 143.202108,38.156678,0 143.034122,38.178418,0 143.061718,38.311788,0 143.230000,38.290000,0 
					</coordinates>
				</LinearRing>
			</outerBoundaryIs>
		</Polygon>
	</Placemark>
	<Placemark>
		<name>TEST1</name>
		<styleUrl>#flt2kml_00131</styleUrl>
		<Polygon>
			<tessellate>1</tessellate>
			<outerBoundaryIs>
				<LinearRing>
					<coordinates>
						 143.200000,38.150000,0 143.172228,38.016665,0 143.004549,38.038353,0 143.032028,38.171737,0 143.200000,38.150000,0 
					</coordinates>
				</LinearRing>
			</outerBoundaryIs>
		</Polygon>
	</Placemark>
	<Placemark>
		<name>TEST1</name>
		<styleUrl>#flt2kml_00132</styleUrl>
		<Polygon>
			<tessellate>1</tessellate>
			<outerBoundaryIs>
				<LinearRing>
					<coordinates>
						 143.640002,39.610004,0 143.610691,39.476851,0 143.439747,39.499269,0 143.468745,39.632475,0 143.640002,39.610004,0 
					</coordinates>
				</LinearRing>
			</outerBoundaryIs>
		</Polygon>
	</Placemark>
	<Placemark>
		<name>TEST1</name>
		<styleUrl>#flt2kml_00133</styleUrl>
		<Polygon>
			<tessellate>1</tessellate>
			<outerBoundaryIs>
				<LinearRing>
					<coordinates>
						 143.610000,39.470002,0 143.580819,39.336834,0 143.410203,39.359199,0 143.439073,39.492419,0 143.610000,39.470002,0 
					</coordinates>
				</LinearRing>
			</outerBoundaryIs>
		</Polygon>
	</Placemark>
	<Placemark>
		<name>TEST1</name>
		<styleUrl>#flt2kml_00134</styleUrl>
		<Polygon>
			<tessellate>1</tessellate>
			<outerBoundaryIs>
				<LinearRing>
					<coordinates>
						 143.590004,39.340000,0 143.560928,39.206822,0 143.390617,39.229148,0 143.419384,39.362378,0 143.590004,39.340000,0 
					</coordinates>
				</LinearRing>
			</outerBoundaryIs>
		</Polygon>
	</Placemark>
	<Placemark>
		<name>TEST1</name>
		<styleUrl>#flt2kml_00135</styleUrl>
		<Polygon>
			<tessellate>1</tessellate>
			<outerBoundaryIs>
				<LinearRing>
					<coordinates>
						 143.559996,39.209996,0 143.531044,39.076804,0 143.361033,39.099078,0 143.389678,39.232321,0 143.559996,39.209996,0 
					</coordinates>
				</LinearRing>
			</outerBoundaryIs>
		</Polygon>
	</Placemark>
	<Placemark>
		<name>TEST1</name>
		<styleUrl>#flt2kml_00136</styleUrl>
		<Polygon>
			<tessellate>1</tessellate>
			<outerBoundaryIs>
				<LinearRing>
					<coordinates>
						 143.539996,39.070000,0 143.511152,38.936797,0 143.341466,38.959032,0 143.370005,39.092286,0 143.539996,39.070000,0 
					</coordinates>
				</LinearRing>
			</outerBoundaryIs>
		</Polygon>
	</Placemark>
	<Placemark>
		<name>TEST1</name>
		<styleUrl>#flt2kml_00137</styleUrl>
		<Polygon>
			<tessellate>1</tessellate>
			<outerBoundaryIs>
				<LinearRing>
					<coordinates>
						 143.520000,38.940000,0 143.491259,38.806786,0 143.321874,38.828983,0 143.350311,38.962248,0 143.520000,38.940000,0 
					</coordinates>
				</LinearRing>
			</outerBoundaryIs>
		</Polygon>
	</Placemark>
	<Placemark>
		<name>TEST1</name>
		<styleUrl>#flt2kml_00138</styleUrl>
		<Polygon>
			<tessellate>1</tessellate>
			<outerBoundaryIs>
				<LinearRing>
					<coordinates>
						 143.490000,38.800000,0 143.461385,38.666773,0 143.292317,38.688917,0 143.320630,38.822195,0 143.490000,38.800000,0 
					</coordinates>
				</LinearRing>
			</outerBoundaryIs>
		</Polygon>
	</Placemark>
	<Placemark>
		<name>TEST1</name>
		<styleUrl>#flt2kml_00139</styleUrl>
		<Polygon>
			<tessellate>1</tessellate>
			<outerBoundaryIs>
				<LinearRing>
					<coordinates>
						 143.470000,38.670000,0 143.441487,38.536762,0 143.272714,38.558869,0 143.300928,38.692157,0 143.470000,38.670000,0 
					</coordinates>
				</LinearRing>
			</outerBoundaryIs>
		</Polygon>
	</Placemark>
	<Placemark>
		<name>TEST1</name>
		<styleUrl>#flt2kml_00140</styleUrl>
		<Polygon>
			<tessellate>1</tessellate>
			<outerBoundaryIs>
				<LinearRing>
					<coordinates>
						 143.450000,38.540000,0 143.421587,38.406752,0 143.253107,38.428821,0 143.281222,38.562119,0 143.450000,38.540000,0 
					</coordinates>
				</LinearRing>
			</outerBoundaryIs>
		</Polygon>
	</Placemark>
	<Placemark>
		<name>TEST1</name>
		<styleUrl>#flt2kml_00141</styleUrl>
		<Polygon>
			<tessellate>1</tessellate>
			<outerBoundaryIs>
				<LinearRing>
					<coordinates>
						 143.420000,38.400000,0 143.391710,38.266738,0 143.223542,38.288755,0 143.251535,38.422066,0 143.420000,38.400000,0 
					</coordinates>
				</LinearRing>
			</outerBoundaryIs>
		</Polygon>
	</Placemark>
	<Placemark>
		<name>TEST1</name>
		<styleUrl>#flt2kml_00142</styleUrl>
		<Polygon>
			<tessellate>1</tessellate>
			<outerBoundaryIs>
				<LinearRing>
					<coordinates>
						 143.400000,38.270000,0 143.371810,38.136728,0 143.203931,38.158707,0 143.231828,38.292029,0 143.400000,38.270000,0 
					</coordinates>
				</LinearRing>
			</outerBoundaryIs>
		</Polygon>
	</Placemark>
	<Placemark>
		<name>TEST1</name>
		<styleUrl>#flt2kml_00143</styleUrl>
		<Polygon>
			<tessellate>1</tessellate>
			<outerBoundaryIs>
				<LinearRing>
					<coordinates>
						 143.370000,38.140000,0 143.341926,38.006714,0 143.174332,38.028643,0 143.202114,38.161978,0 143.370000,38.140000,0 
					</coordinates>
				</LinearRing>
			</outerBoundaryIs>
		</Polygon>
	</Placemark>
	<Placemark>
		<name>TEST1</name>
		<styleUrl>#flt2kml_00144</styleUrl>
		<Polygon>
			<tessellate>1</tessellate>
			<outerBoundaryIs>
				<LinearRing>
					<coordinates>
						 143.829997,39.719996,0 143.800266,39.586907,0 143.629130,39.609612,0 143.658547,39.742754,0 143.829997,39.719996,0 
					</coordinates>
				</LinearRing>
			</outerBoundaryIs>
		</Polygon>
	</Placemark>
	<Placemark>
		<name>TEST1</name>
		<styleUrl>#flt2kml_00145</styleUrl>
		<Polygon>
			<tessellate>1</tessellate>
			<outerBoundaryIs>
				<LinearRing>
					<coordinates>
						 143.810003,39.589997,0 143.780380,39.456897,0 143.609553,39.479562,0 143.638863,39.612715,0 143.810003,39.589997,0 
					</coordinates>
				</LinearRing>
			</outerBoundaryIs>
		</Polygon>
	</Placemark>
	<Placemark>
		<name>TEST1</name>
		<styleUrl>#flt2kml_00146</styleUrl>
		<Polygon>
			<tessellate>1</tessellate>
			<outerBoundaryIs>
				<LinearRing>
					<coordinates>
						 143.779996,39.449997,0 143.750505,39.316883,0 143.580005,39.339493,0 143.609186,39.472661,0 143.779996,39.449997,0 
					</coordinates>
				</LinearRing>
			</outerBoundaryIs>
		</Polygon>
	</Placemark>
	<Placemark>
		<name>TEST1</name>
		<styleUrl>#flt2kml_00147</styleUrl>
		<Polygon>
			<tessellate>1</tessellate>
			<outerBoundaryIs>
				<LinearRing>
					<coordinates>
						 143.760005,39.320000,0 143.730620,39.186875,0 143.560425,39.209447,0 143.589501,39.342625,0 143.760005,39.320000,0 
					</coordinates>
				</LinearRing>
			</outerBoundaryIs>
		</Polygon>
	</Placemark>
	<Placemark>
		<name>TEST1</name>
		<styleUrl>#flt2kml_00148</styleUrl>
		<Polygon>
			<tessellate>1</tessellate>
			<outerBoundaryIs>
				<LinearRing>
					<coordinates>
						 143.729996,39.190000,0 143.700736,39.056861,0 143.530839,39.079379,0 143.559793,39.212571,0 143.729996,39.190000,0 
					</coordinates>
				</LinearRing>
			</outerBoundaryIs>
		</Polygon>
	</Placemark>
	<Placemark>
		<name>TEST1</name>
		<styleUrl>#flt2kml_00149</styleUrl>
		<Polygon>
			<tessellate>1</tessellate>
			<outerBoundaryIs>
				<LinearRing>
					<coordinates>
						 143.710001,39.050000,0 143.680852,38.916850,0 143.511280,38.939329,0 143.540125,39.072531,0 143.710001,39.050000,0 
					</coordinates>
				</LinearRing>
			</outerBoundaryIs>
		</Polygon>
	</Placemark>
	<Placemark>
		<name>TEST1</name>
		<styleUrl>#flt2kml_00150</styleUrl>
		<Polygon>
			<tessellate>1</tessellate>
			<outerBoundaryIs>
				<LinearRing>
					<coordinates>
						 143.689996,38.920000,0 143.660950,38.786839,0 143.491677,38.809279,0 143.520420,38.942492,0 143.689996,38.920000,0 
					</coordinates>
				</LinearRing>
			</outerBoundaryIs>
		</Polygon>
	</Placemark>
	<Placemark>
		<name>TEST1</name>
		<styleUrl>#flt2kml_00151</styleUrl>
		<Polygon>
			<tessellate>1</tessellate>
			<outerBoundaryIs>
				<LinearRing>
					<coordinates>
						 143.660004,38.790000,0 143.631080,38.656825,0 143.462101,38.679212,0 143.490723,38.812439,0 143.660004,38.790000,0 
					</coordinates>
				</LinearRing>
			</outerBoundaryIs>
		</Polygon>
	</Placemark>
	<Placemark>
		<name>TEST1</name>
		<styleUrl>#flt2kml_00152</styleUrl>
		<Polygon>
			<tessellate>1</tessellate>
			<outerBoundaryIs>
				<LinearRing>
					<coordinates>
						 143.639994,38.650000,0 143.611179,38.516814,0 143.442517,38.539162,0 143.471034,38.672399,0 143.639994,38.650000,0 
					</coordinates>
				</LinearRing>
			</outerBoundaryIs>
		</Polygon>
	</Placemark>
	<Placemark>
		<name>TEST1</name>
		<styleUrl>#flt2kml_00153</styleUrl>
		<Polygon>
			<tessellate>1</tessellate>
			<outerBoundaryIs>
				<LinearRing>
					<coordinates>
						 143.610005,38.520000,0 143.581309,38.386800,0 143.412937,38.409096,0 143.441335,38.542347,0 143.610005,38.520000,0 
					</coordinates>
				</LinearRing>
			</outerBoundaryIs>
		</Polygon>
	</Placemark>
	<Placemark>
		<name>TEST1</name>
		<styleUrl>#flt2kml_00154</styleUrl>
		<Polygon>
			<tessellate>1</tessellate>
			<outerBoundaryIs>
				<LinearRing>
					<coordinates>
						 143.590003,38.380000,0 143.561414,38.246789,0 143.393355,38.269046,0 143.421649,38.402308,0 143.590003,38.380000,0 
					</coordinates>
				</LinearRing>
			</outerBoundaryIs>
		</Polygon>
	</Placemark>
	<Placemark>
		<name>TEST1</name>
		<styleUrl>#flt2kml_00155</styleUrl>
		<Polygon>
			<tessellate>1</tessellate>
			<outerBoundaryIs>
				<LinearRing>
					<coordinates>
						 143.570000,38.250000,0 143.541511,38.116779,0 143.373742,38.138998,0 143.401938,38.272270,0 143.570000,38.250000,0 
					</coordinates>
				</LinearRing>
			</outerBoundaryIs>
		</Polygon>
	</Placemark>
	<Placemark>
		<name>TEST1</name>
		<styleUrl>#flt2kml_00156</styleUrl>
		<Polygon>
			<tessellate>1</tessellate>
			<outerBoundaryIs>
				<LinearRing>
					<coordinates>
						 143.539999,38.120000,0 143.511628,37.986765,0 143.344143,38.008932,0 143.372222,38.142217,0 143.539999,38.120000,0 
					</coordinates>
				</LinearRing>
			</outerBoundaryIs>
		</Polygon>
	</Placemark>
	<Placemark>
		<name>TEST1</name>
		<styleUrl>#flt2kml_00157</styleUrl>
		<Polygon>
			<tessellate>1</tessellate>
			<outerBoundaryIs>
				<LinearRing>
					<coordinates>
						 143.999996,39.699996,0 143.969953,39.566963,0 143.798936,39.589914,0 143.828666,39.723002,0 143.999996,39.699996,0 
					</coordinates>
				</LinearRing>
			</outerBoundaryIs>
		</Polygon>
	</Placemark>
	<Placemark>
		<name>TEST1</name>
		<styleUrl>#flt2kml_00158</styleUrl>
		<Polygon>
			<tessellate>1</tessellate>
			<outerBoundaryIs>
				<LinearRing>
					<coordinates>
						 143.969996,39.569997,0 143.940081,39.436949,0 143.769368,39.459846,0 143.798972,39.592949,0 143.969996,39.569997,0 
					</coordinates>
				</LinearRing>
			</outerBoundaryIs>
		</Polygon>
	</Placemark>
	<Placemark>
		<name>TEST1</name>
		<styleUrl>#flt2kml_00159</styleUrl>
		<Polygon>
			<tessellate>1</tessellate>
			<outerBoundaryIs>
				<LinearRing>
					<coordinates>
						 143.949999,39.440004,0 143.920192,39.306945,0 143.749786,39.329802,0 143.779282,39.462916,0 143.949999,39.440004,0 
					</coordinates>
				</LinearRing>
			</outerBoundaryIs>
		</Polygon>
	</Placemark>
	<Placemark>
		<name>TEST1</name>
		<styleUrl>#flt2kml_00160</styleUrl>
		<Polygon>
			<tessellate>1</tessellate>
			<outerBoundaryIs>
				<LinearRing>
					<coordinates>
						 143.929997,39.299996,0 143.900305,39.166926,0 143.730226,39.189742,0 143.759612,39.322867,0 143.929997,39.299996,0 
					</coordinates>
				</LinearRing>
			</outerBoundaryIs>
		</Polygon>
	</Placemark>
	<Placemark>
		<name>TEST1</name>
		<styleUrl>#flt2kml_00161</styleUrl>
		<Polygon>
			<tessellate>1</tessellate>
			<outerBoundaryIs>
				<LinearRing>
					<coordinates>
						 143.899998,39.170000,0 143.870431,39.036915,0 143.700651,39.059677,0 143.729912,39.192816,0 143.899998,39.170000,0 
					</coordinates>
				</LinearRing>
			</outerBoundaryIs>
		</Polygon>
	</Placemark>
	<Placemark>
		<name>TEST1</name>
		<styleUrl>#flt2kml_00162</styleUrl>
		<Polygon>
			<tessellate>1</tessellate>
			<outerBoundaryIs>
				<LinearRing>
					<coordinates>
						 143.879999,39.030000,0 143.850544,38.896903,0 143.681087,38.919625,0 143.710239,39.052775,0 143.879999,39.030000,0 
					</coordinates>
				</LinearRing>
			</outerBoundaryIs>
		</Polygon>
	</Placemark>
	<Placemark>
		<name>TEST1</name>
		<styleUrl>#flt2kml_00163</styleUrl>
		<Polygon>
			<tessellate>1</tessellate>
			<outerBoundaryIs>
				<LinearRing>
					<coordinates>
						 143.860001,38.900000,0 143.830652,38.766892,0 143.661493,38.789575,0 143.690541,38.922736,0 143.860001,38.900000,0 
					</coordinates>
				</LinearRing>
			</outerBoundaryIs>
		</Polygon>
	</Placemark>
	<Placemark>
		<name>TEST1</name>
		<styleUrl>#flt2kml_00164</styleUrl>
		<Polygon>
			<tessellate>1</tessellate>
			<outerBoundaryIs>
				<LinearRing>
					<coordinates>
						 143.829999,38.770000,0 143.800773,38.636878,0 143.631907,38.659508,0 143.660833,38.792682,0 143.829999,38.770000,0 
					</coordinates>
				</LinearRing>
			</outerBoundaryIs>
		</Polygon>
	</Placemark>
	<Placemark>
		<name>TEST1</name>
		<styleUrl>#flt2kml_00165</styleUrl>
		<Polygon>
			<tessellate>1</tessellate>
			<outerBoundaryIs>
				<LinearRing>
					<coordinates>
						 143.809999,38.630000,0 143.780882,38.496867,0 143.612333,38.519456,0 143.641153,38.652642,0 143.809999,38.630000,0 
					</coordinates>
				</LinearRing>
			</outerBoundaryIs>
		</Polygon>
	</Placemark>
	<Placemark>
		<name>TEST1</name>
		<styleUrl>#flt2kml_00166</styleUrl>
		<Polygon>
			<tessellate>1</tessellate>
			<outerBoundaryIs>
				<LinearRing>
					<coordinates>
						 143.780001,38.500000,0 143.751005,38.366852,0 143.582745,38.389389,0 143.611444,38.522588,0 143.780001,38.500000,0 
					</coordinates>
				</LinearRing>
			</outerBoundaryIs>
		</Polygon>
	</Placemark>
	<Placemark>
		<name>TEST1</name>
		<styleUrl>#flt2kml_00167</styleUrl>
		<Polygon>
			<tessellate>1</tessellate>
			<outerBoundaryIs>
				<LinearRing>
					<coordinates>
						 143.760001,38.370000,0 143.731108,38.236842,0 143.563138,38.259340,0 143.591737,38.392550,0 143.760001,38.370000,0 
					</coordinates>
				</LinearRing>
			</outerBoundaryIs>
		</Polygon>
	</Placemark>
	<Placemark>
		<name>TEST1</name>
		<styleUrl>#flt2kml_00168</styleUrl>
		<Polygon>
			<tessellate>1</tessellate>
			<outerBoundaryIs>
				<LinearRing>
					<coordinates>
						 143.739997,38.230000,0 143.711211,38.096831,0 143.543553,38.119289,0 143.572046,38.252510,0 143.739997,38.230000,0 
					</coordinates>
				</LinearRing>
			</outerBoundaryIs>
		</Polygon>
	</Placemark>
	<Placemark>
		<name>TEST1</name>
		<styleUrl>#flt2kml_00169</styleUrl>
		<Polygon>
			<tessellate>1</tessellate>
			<outerBoundaryIs>
				<LinearRing>
					<coordinates>
						 143.710001,38.100000,0 143.681335,37.966817,0 143.513959,37.989223,0 143.542335,38.122457,0 143.710001,38.100000,0 
					</coordinates>
				</LinearRing>
			</outerBoundaryIs>
		</Polygon>
	</Placemark>
	<Placemark>
		<name>TEST1</name>
		<styleUrl>#flt2kml_00170</styleUrl>
		<Polygon>
			<tessellate>1</tessellate>
			<outerBoundaryIs>
				<LinearRing>
					<coordinates>
						 144.170000,39.689998,0 144.139639,39.557021,0 143.968718,39.580220,0 143.998767,39.713253,0 144.170000,39.689998,0 
					</coordinates>
				</LinearRing>
			</outerBoundaryIs>
		</Polygon>
	</Placemark>
	<Placemark>
		<name>TEST1</name>
		<styleUrl>#flt2kml_00171</styleUrl>
		<Polygon>
			<tessellate>1</tessellate>
			<outerBoundaryIs>
				<LinearRing>
					<coordinates>
						 144.140005,39.550004,0 144.109779,39.417011,0 143.939186,39.440154,0 143.969101,39.573202,0 144.140005,39.550004,0 
					</coordinates>
				</LinearRing>
			</outerBoundaryIs>
		</Polygon>
	</Placemark>
	<Placemark>
		<name>TEST1</name>
		<styleUrl>#flt2kml_00172</styleUrl>
		<Polygon>
			<tessellate>1</tessellate>
			<outerBoundaryIs>
				<LinearRing>
					<coordinates>
						 144.120000,39.419999,0 144.089885,39.286995,0 143.919597,39.310097,0 143.949404,39.443156,0 144.120000,39.419999,0 
					</coordinates>
				</LinearRing>
			</outerBoundaryIs>
		</Polygon>
	</Placemark>
	<Placemark>
		<name>TEST1</name>
		<styleUrl>#flt2kml_00173</styleUrl>
		<Polygon>
			<tessellate>1</tessellate>
			<outerBoundaryIs>
				<LinearRing>
					<coordinates>
						 144.100004,39.279997,0 144.070004,39.146981,0 143.900043,39.170042,0 143.929737,39.303112,0 144.100004,39.279997,0 
					</coordinates>
				</LinearRing>
			</outerBoundaryIs>
		</Polygon>
	</Placemark>
	<Placemark>
		<name>TEST1</name>
		<styleUrl>#flt2kml_00174</styleUrl>
		<Polygon>
			<tessellate>1</tessellate>
			<outerBoundaryIs>
				<LinearRing>
					<coordinates>
						 144.070003,39.150000,0 144.040130,39.016970,0 143.870467,39.039976,0 143.900035,39.173061,0 144.070003,39.150000,0 
					</coordinates>
				</LinearRing>
			</outerBoundaryIs>
		</Polygon>
	</Placemark>
	<Placemark>
		<name>TEST1</name>
		<styleUrl>#flt2kml_00175</styleUrl>
		<Polygon>
			<tessellate>1</tessellate>
			<outerBoundaryIs>
				<LinearRing>
					<coordinates>
						 144.050002,39.020000,0 144.020237,38.886959,0 143.850873,38.909925,0 143.880336,39.043021,0 144.050002,39.020000,0 
					</coordinates>
				</LinearRing>
			</outerBoundaryIs>
		</Polygon>
	</Placemark>
	<Placemark>
		<name>TEST1</name>
		<styleUrl>#flt2kml_00176</styleUrl>
		<Polygon>
			<tessellate>1</tessellate>
			<outerBoundaryIs>
				<LinearRing>
					<coordinates>
						 144.019995,38.880000,0 143.990360,38.746944,0 143.821313,38.769855,0 143.850647,38.902965,0 144.019995,38.880000,0 
					</coordinates>
				</LinearRing>
			</outerBoundaryIs>
		</Polygon>
	</Placemark>
	<Placemark>
		<name>TEST1</name>
		<styleUrl>#flt2kml_00177</styleUrl>
		<Polygon>
			<tessellate>1</tessellate>
			<outerBoundaryIs>
				<LinearRing>
					<coordinates>
						 143.999997,38.750000,0 143.970469,38.616932,0 143.801718,38.639803,0 143.830947,38.772925,0 143.999997,38.750000,0 
					</coordinates>
				</LinearRing>
			</outerBoundaryIs>
		</Polygon>
	</Placemark>
	<Placemark>
		<name>TEST1</name>
		<styleUrl>#flt2kml_00178</styleUrl>
		<Polygon>
			<tessellate>1</tessellate>
			<outerBoundaryIs>
				<LinearRing>
					<coordinates>
						 143.979996,38.610000,0 143.950578,38.476921,0 143.782144,38.499752,0 143.811264,38.632885,0 143.979996,38.610000,0 
					</coordinates>
				</LinearRing>
			</outerBoundaryIs>
		</Polygon>
	</Placemark>
	<Placemark>
		<name>TEST1</name>
		<styleUrl>#flt2kml_00179</styleUrl>
		<Polygon>
			<tessellate>1</tessellate>
			<outerBoundaryIs>
				<LinearRing>
					<coordinates>
						 143.950000,38.480000,0 143.920706,38.346906,0 143.752559,38.369683,0 143.781558,38.502830,0 143.950000,38.480000,0 
					</coordinates>
				</LinearRing>
			</outerBoundaryIs>
		</Polygon>
	</Placemark>
	<Placemark>
		<name>TEST1</name>
		<styleUrl>#flt2kml_00180</styleUrl>
		<Polygon>
			<tessellate>1</tessellate>
			<outerBoundaryIs>
				<LinearRing>
					<coordinates>
						 143.930001,38.350000,0 143.900810,38.216895,0 143.732953,38.239633,0 143.761851,38.372790,0 143.930001,38.350000,0 
					</coordinates>
				</LinearRing>
			</outerBoundaryIs>
		</Polygon>
	</Placemark>
	<Placemark>
		<name>TEST1</name>
		<styleUrl>#flt2kml_00181</styleUrl>
		<Polygon>
			<tessellate>1</tessellate>
			<outerBoundaryIs>
				<LinearRing>
					<coordinates>
						 143.909998,38.210000,0 143.880916,38.076884,0 143.713369,38.099582,0 143.742160,38.232750,0 143.909998,38.210000,0 
					</coordinates>
				</LinearRing>
			</outerBoundaryIs>
		</Polygon>
	</Placemark>
	<Placemark>
		<name>TEST1</name>
		<styleUrl>#flt2kml_00182</styleUrl>
		<Polygon>
			<tessellate>1</tessellate>
			<outerBoundaryIs>
				<LinearRing>
					<coordinates>
						 143.879996,38.080000,0 143.851035,37.946870,0 143.683770,37.969514,0 143.712442,38.102697,0 143.879996,38.080000,0 
					</coordinates>
				</LinearRing>
			</outerBoundaryIs>
		</Polygon>
	</Placemark>
</Document>
</kml>
